repartiment segons la llei electoral EDT
Partit: VET, Verds Escola del Treball          . Data fundació:27/02/2007. VOTS: 4000. ESCONS: 2
Partit: PEI, Partit dels Estudiants Informàtica. Data fundació:01/12/2000. VOTS: 6500. ESCONS: 2
Partit: VCJ, Volem Classes al Juliol           . Data fundació:31/01/2000. VOTS: 0. ESCONS: 1
Partit: PAG, Partit dels Aprovats Generals     . Data fundació:18/04/2016. VOTS: 850. ESCONS: 1
