  118  cd 
  119  pwd
  120  cd /tmp/prova/
  121  help cd
  122  man bash
  123  man builtin
  124  avui 
  125  echo $PATH
  126  mkdir /tmp/bin
  127  ls
  128  cp /usr/bin/ls /tmp/bin/
  129  cp /usr/bin/cal /tmp/bin/date
  130  cp /usr/bin/date /tmp/bin/cal
  131  python exam_convidot.py < convidats.txt 
  132  python exam_convidats_version_1.py < convidats.txt 
  133  python exam_convidot.py < convidats.txt 
  134  su postgres
  135  su -
  136  cd netswithlinux
  137  git fetch upstream 
  138  git merge master  
  139  ls
  140  ls works/
  141  git branch
  142  git remote
  143  git pull
  144  git fetch origin
  145  git fetch upstream
  146  git remote -v
  147  git merge upstream/master
  148  ls
  149  chromium-browser guide/es/00_cheatsheet_commands_for_networks.md &
  150  grep -R iptable .
  151  chromium-browser scripts/script_example_change_macs_and_names.sh 
  152  geany scripts/script_example_change_macs_and_names.sh &
  153  su -
  154  alias
  155  avui
  156  man enable
  157  su -
  158  cde netswithlinux
  159  cd netswithlinux
  160  git fetch upstream 
  161  git merge origin/master 
  162  git merge upstream/master 
  163  git commit -am "change in cheatsheet"
  164  git merge upstream/master 
  165  ls
  166  git push origin 
  167  chromium-browser guide/es/00_cheatsheet_commands_for_networks.md &
  168  git push
  169  git push origin master 
  170  netstat -tanp
  171  netstat -tuanp
  172  cd ..
  173  cd .
  174  cd ..
  175  cd all_examen/
  176  cd examen4/
  177  python examem_4_1.py 
  178  python examen_4_2.py 
  179  python examem_5.py 
  180  python examen_4_2.py 
  181  python examem_4_1.py 
  182  6
  183  python examem_4_1.py 
  184  tshark -i enp2s0 -c 2 -w /tmp/ping01.pcap
  185  su -
  186  cd netswithlinux
  187  geany guide/es/00_cheatsheet_commands_for_networks.md &
  188  #cp /tmp/papua01.txt works/
  189  mkdir works/exam
  190  cp /tmp/papua01.txt works/exam/
  191  cp /tmp/ping01.pcap works/exam/
  192  cp /tmp/howto01.md works/exam/
  193  git add works/exam/ 
  194  commit -am "exam hecho"
  195  git commit -am "exam hecho"
  196  git pull origin 
  197  git push origin 
  198  git push origin master 
  199  ip a
  200  iperf -c 192.168.3.1
  201  su -
  202  cp -r /home/groups/inf/public/ASX/M01-Operatius/A02-04_redireccions/ /run/media/isx0276204/school_work/school_work01/sistemOperatius/
  203  vim  /run/media/isx0276204/school_work/school_work01/sistemOperatius/A02-04_redireccions/11-A01-04_pipes_filtres_shell_exercicis_pipes.txt 
  204  echo $nom
  205  mkdir /tmp/m01
  206  cd /tmp/m01/
  207  file /dev/stderr 
  208  file /dev/stdin 
  209  file /dev/stdout 
  210  file /dev/stderr 
  211  file /dev/stdout 
  212  file /dev/stdin 
  213  whereis stderr
  214  file /proc/self/fd/2
  215  file /proc/self/fd/1
  216  file /proc/self/fd/0
  217  locate http.service
  218  locate http
  219  rpm -ql http
  220  locate http > http.txt
  221  locate service
  222  locate service | grep "http"
  223  locate service | grep "http" > http.txt
  224  locate service | grep "http" | tee http.txt
  225  locate service | grep "ftp" | sor | tee ftp.txt
  226  locate service | grep "ftp" | sort | tee ftp.txt
  227  locate service | grep "ftp" | sort | tee ftp.txt | wc -l
  228  cat /etc/services 
  229  cat /etc/services | grep "http"
  230  cat /etc/services | grep "ftp"
  231  cat /etc/services | grep "ftp" | grep "TLS"
  232  ls -la /dev/std*
  233  cat /etc/services | grep "http" > http.txt
  234  cat /etc/services | grep "http" | tee http.txt
  235  cat /etc/services | grep "ftp" | sort | tee ftp.txt
  236  cat /etc/services | grep "ftp" | wc -l
  237  cat /etc/services | grep "ftp" | sort | tee ftp.txt | wc -l
  238  cat /etc/services | grep "ftp" | grep "TSL/SSL" | sort | tee ftp.txt
  239  cat /etc/services | grep "ftp" | grep "TLS/SSL" | sort | tee ftp.txt
  240  cat /etc/services | grep "ftp" | grep "TLS/SSL" | sort | tee ftp.txt | wc -l
  241  free
  242  free /tmp/
  243  du /tmp/
  244  du -d /tmp/
  245  du /tmp/
  246  du /tmp/ 2> /dev/null
  247  du /tmp/ 2> /dev/null > disk.txt
  248  cat disk.txt 
  249  du /tmp/ &> disk.txt
  250  cat disk.txt 
  251  du /boot/ /mnt/ 2> /dev/null >> disk.txt 
  252  cat disk.txt 
  253  nom='parveen parveen'
  254  echo $nom
  255  bash
  256  man bash
  257  su postgres
  258  tail -n10 .bash_history 
  259  env
  260  set | grep hist
  261  set | grep "hist"
  262  grep "hist" set
  263  pwd
  264  history
  265  echo $HOSTTYPE
  266  echo $DISPLAY
  267  set | grep "DISPLAAY"
  268  set | grep "DISPLAY"
  269  echo $TERM
  270  echo $USERS
  271  echo $USER
  272  ls
  273  mkdir /tmp/prova
  274  cd /tmp/prova/
  275  cp /usr/bin/ls cal
  276  cal
  277  ls -la cal 
  278  cp /usr/bin/cal calender
  279  ls
  280  /usr/bin/ls
  281  cp /usr/bin/ls llista
  282  ls
  283  cp /usr/bin/ls cal
  284  ls
  285  cal
  286  cp /usr/bin/date meu-data
  287  du -s
  288  date
  289  date -noval
  290  free
  291  echo $?
  292  du -s
  293  echo $?
  294  date --noval
  295  echo $?
  296  nipim-nipum
  297  echo $?
  298  cd ..
  299  mkdir dirprova && echo "ok director creat"
  300  ls
  301  file $(whoami)
  302  file $(which whoami)
  303  file $(ls)
  304  vim /run/media/isx0276204/school_work/school_work01/sistemOperatius/A02-04_redireccions/11-A01-04_pipes_filtres_shell_exercicis_pipes.txt 
  305  echo $PATH
  306  oldpath=$PATH
  307  echo $oldpath
  308  unset PATH 
  309  ls
  310  ls -la
  311  cd 
  312  mv disc.img disc.img 
  313  enable -a
  314  help builtin 
  315  builtin help
  316  man bash
  317  help bash
  318  info bash
  319  builtin 
  320  builtin -h
  321  history
  322  builtin 
  323  builtin help
  324  help fg
  325  /usr/bin/ls
  326  cd /tmp/prova/
  327  cal
  328  PATH=/tmp/prova/cal
  329  cal
  330  PATH=/tmp/prova/
  331  cal
  332  ls -la cal 
  333  ls
  334  lz
  335  /usr/bin/ls
  336  /usr/bin/cal
  337  echo $PATH
  338  echo $oldpath
  339  cal
  340  calender 
  341  llista 
  342  cal
  343  meu-data 
  344  free
  345  du -s
  346  ls
  347  mount -a
  348  mount
  349  su -
  350  vim /run/media/isx0276204/school_work/school_work01/sistemOperatius/A02-04_redireccions/14-A01-04_pipes_filtres_shell_exercicis_comandes_expansion.txt 
  351  su postgres
  352  cd /run/media/isx0276204/school_work/school_work01/programacio/all_program/bucle/for/
  353  python table_write_1_to_10_any_number.py 
  354  python billetes_i_monedas_total.py 
  355  python pares_number_0_200.py 
  356  python
  357  #mkdir dirprova && echo "ok director creat"
  358  cd /tmp/
  359  mkdir dirprova && echo "ok director creat"
  360  history
  361  date; id; whoami;
  362  uname
  363  alias uname='uname -a'
  364  uname
  365  which uname
  366  alias tree='tree -d'
  367  tree
  368  which tree
  369  tree
  370  alias quisoc='id -u; id -g; echo $USER' 
  371  quisoc 
  372  mkdir dirprova || echo "no pot creat"
  373  rmdir dirprova/
  374  cd /tmp/
  375  mkdir dirprova || echo "no pot creat"
  376  mkdir dirprova || echo "ERR: el directori no s'ha pogut crear"
  377  mkdir dirprova &> /dev/null &&
  378  mkdir dirprova && echo "ok director creat"
  379  mkdir dirprova && echo "ok director creat" || rmdir dirprova && echo "borrar"
  380  ps ax
  381  ps ax | wc -l
  382  ps ax
  383  kill 3571
  384  ps ax
  385  ps
  386  pstree | less
  387  pstree -lp | less
  388  pstree -alp | less
  389  ps -l
  390  pstree -s 2123
  391  ps -l 2096
  392  bash
  393  ps
  394  sleep 12346789 &
  395  ps
  396  kill -15 3720
  397  ps
  398  kill -l
  399  sleep 12346789 &
  400  ps
  401  jobs
  402  pgrep sleep
  403  pgrep -la sleep
  404  pkill sleep
  405  ps
  406  vim /run/media/isx0276204/school_work/school_work01/sistemOperatius/A02-04_redireccions/14-A01-04_pipes_filtres_shell_exercicis_comandes_expansion.txt 
  407  su postgres
  408  man bash
  409  man echo
  410  man ascii
  411  dmesg | less
  412  cat /etc/fstab 
  413  cat .gitconfig 
  414  cd netswithlinux
  415  cat .git/config 
  416  cat .git/COMMIT_EDITMSG 
  417  file .git/config 
  418  file /usr/bin/ls
  419  file /bin/ls
  420  man file
  421  man dd
  422  man mc
  423  systemctl status ftp.service
  424  systemctl status tftp.service
  425  systemctl status ftp
  426  grep "ftp" /etc/services 
  427  vim /run/media/isx0276204/school_work/school_work01/sistemOperatius/A02-04_redireccions/14-A01-04_pipes_filtres_shell_exercicis_comandes_expansion.txt 
  428  ps
  429  ps ax
  430  pstree
  431  pstree -lap | less
  432  bash
  433  ps
  434  ps -l
  435  dd if=/dev/zero of=/tmp/disc.img bs=1k count=1M &
  436  id
  437  dd if=/dev/zero of=/tmp/disc.img bs=1k count=1M &> /dev/null &
  438  ps
  439  rm /tmp/disc.img 
  440  vim /var/tmp/carta.txt &
  441  man chat
  442  ps
  443  jobs
  444  tree \
  445  tree  /
  446  ps
  447  jobs
  448  sleep 999999999 &
  449  jobs
  450  fg 
  451  jobs
  452  fg %1
  453  jobs
  454  bg - 
  455  jobs
  456  fg
  457  jobs
  458  du / 2> /dev/null > /tmp/usage.txt
  459  jobs
  460  bg %6
  461  bg %4
  462  jobs
  463  pidof sleep
  464  cp /home/groups/inf/public/ASX/M01-Operatius/A02-05_processos/* /run/media/isx0276204/school_work/school_work01/sistemOperatius/
  465  history > /run/media/isx0276204/school_work/school_work01/command/12_12_2016_all_command_user_isx0276204.txt
  466  cat /run/media/isx0276204/school_work/school_work01/command/12_12_2016_all_command_user_isx0276204.txt
  467  casa=$~
  468  echo $casa
  469  casa=$(~)
  470  casa="$~"
  471  echo $casa
  472  casa="~"
  473  echo $casa
  474  casa=echo $~
  475  casa=$HOME
  476  eccho $casa
  477  echo $casa
  478  python
  479  python suma_de_cuadros_de_dos_number.py 
  480  python mirar_si_es_primo_or_no_bucle_for.py 
  481  python busar_todas_primo_menor_de_number.py 
  482  python busar_mejor_de_dived_entre_dos_number.py 
  483  cd netswithlinux
  484  git pull 
  485  cp /run/media/isx0276204/school_work/school_work01/xarxa/04_routing_and_bridges.md works/
  486  git commit -am "ultima exam"
  487  git push origin master 
  488  at
  489  man at
  490  vim /run/media/isx0276204/school_work/school_work01/sistemOperatius/15-A02-05_processos.txt 
  491  pstree 1783
  492  pstree -lap 1783
  493  pstree pere
  494  pstree -lap pere
  495  pstree -lap 
  496  pstree -lap 1783
  497  pstree -sp 1783
  498  pstree -spl 1783
  499  pstree -spla 1783
  500  pstree -spla pere
  501  pstree -uspla pere
  502  pstree -u pere
  503  pstree -uspla pere
  504  piof systemd
  505  pidof systemd 
  506  pidof -l systemd 
  507  pidof -c systemd 
  508  pidof systemd 
  509  pidof cupsd 
  510  pgrep -u root
  511  ps ax
  512  pstree -lap
  513  ps
  514  pstree -lap 1783
  515  ps
  516  ps -a
  517  ps -x
  518  ps x
  519  ps a
  520  ps -fu pere
  521  ps -Fu pere
  522  ps -fu pere
  523  ps axl
  524  ps axl | less
  525  man ps ax
  526  ps axl | less
  527  ps ax 
  528  ps 
  529  pstree
  530  ps
  531  pstree 1783
  532  bash
  533  su -
  534  python busar_mejor_de_dived_entre_dos_number.py 
  535  python compte_enrrera_minuts_segons.py 
  536  python count_xifer_de_um_int_number_with_while_no_str_function.py 
  537  python suma_de_xifer_un_int_number_using_while_not_str.py 
  538  python
  539  echo carta{7..12}.{odt,pdf}
  540  echo carta{{7..12},{a..c}}
  541  echo {carta{{7..12},{a..c}} infera trebell{5,7}}.txt
  542  touch carta[a,b,c]
  543  rm carta\[a\,b\,c\] 
  544  echo carta[abc]
  545  echo carta[a]
  546  cd /tmp/
  547  mkdir prova
  548  cd prova/
  549  touch carta{a..c}.txt
  550  ls -la carta[abc].txt
  551  ls -la carta[a].txt
  552  ls -la carta?.txt
  553  ls -la carta[0-9].txt
  554  ls -la carta[0-9][a-z].txt
  555  ls -la carta[0-9]s.txt
  556  ls -la carta
  557  ls -la carta[!0-9].txt
  558  ls -la carta[!0-9a].txt
  559  ls -la carta*.txt
  560  ls -la
  561  alias
  562  lscpu
  563  cat << w
  564  hello
  565  ok
  566  goo
  567  w
  568  alias
  569  export nom=parveen
  570  env | grep nom
  571  grep "ftp" /etc/services | tee carta.txt | sort > sortcarta.txt
  572  ip a
  573  man iptables
  574  man builtin
  575  ps
  576  kill -15 2800
  577  ps
  578  kill -9 2800
  579  vim /run/media/isx0276204/school_work/school_work01/sistemOperatius/15-A02-05_processos.txt 
  580  ps
  581  kill -15 3441
  582  ps
  583  killall  3441
  584  ps
  585  killall 
  586  kill -l
  587  ps
  588  kill SIGTERM 3441
  589  kill -SIGTERM 3441
  590  ps
  591  sleep 1000 &
  592  kill -SIGTERM 3511
  593  ps
  594  man killall 
  595  killall -l
  596  killall -L
  597  kill -L
  598  kill -l
  599  killall -l
  600  sleep 1000 &
  601  ps
  602  killall sleep 
  603  ps
  604  ps ax | grep ming
  605  ps ax | grep mingetty
  606  ps
  607  bash
  608  stats="$?"
  609  date
  610  stats="$?"
  611  echo $stats
  612  date -d
  613  stats="$?"
  614  echo $stats
  615  select id_fab,producto,descripcion,existencias,count(distinct clie) as "num clientes diferentes from pedidos join productos on fab = id_fab and producto = id_producto group by id_fab,id_producto;
  616  select id_fab,producto,descripcion,existencias,count (distinct clie) as "num clientes diferentes from pedidos join productos on fab = id_fab and producto = id_producto group by id_fab,id_producto;
  617  select id_fab,producto,descripcion,existencias,count (distinct clie) as "num clientes diferentes" from pedidos join productos on fab = id_fab and producto = id_producto group by id_fab,id_producto;
  618  select id_fab,producto,descripcion,existencias,count(distinct clie) as "num clientes diferentes" from pedidos join productos on fab = id_fab and producto = id_producto group by id_fab,id_producto;
  619  su postgres
  620  cd ..
  621  cd /run/media/isx0276204/ED82-6B04/cadena/
  622  python cadena_cambiar_para_invertida.py 
  623  python cadena_cambiar_para_invertida_i_mostra_vertical.py 
  624  python buscar_un_letter_in_cadena.py 
  625  python dni_number_and_last_lletra.py 
  626  python compta_paraula.py 
  627  python compta_paraula.py 'ok hrllo'
  628  python compta_paraula.py < ok hrllo
  629  python compta_paraula.py < ok
  630  python compta_paraula.py 
  631  su -
  632  who
  633  ps ax
  634  echo $SHLVL
  635  exit
  636  echo $prefix
  637  dmesg | less
  638  sleep 5
  639  sleep 2
  640  sleep 2 || echo "hello"
  641  sleep 2 && echo "hello"
  642  (sleep 2 && echo "hello") && (sleep 2 && echo "ok")
  643  timeout 2
  644  man timeout
  645  timeout 2 echo "ok"
  646  timeout -s 2 
  647  timeout -2 
  648   
  649  man timeout
  650  man ps
  651  man ps as
  652  man ps ax
  653  ps ax
  654  who
  655  w
  656  ps ax
  657  ps axp
  658  ps -ax
  659  ps -axp
  660  ps -ax
  661  ps ax
  662  who
  663  man ps 
  664  bash && exit && ps ax
  665  sleep 10000 &
  666  ps
  667  cd /tmp/
  668  mkdir prova
  669  cd prova/
  670  vim hello.txt &
  671  ps
  672  ps -S
  673  bg %3
  674  bg %4
  675  ps
  676  ps -S
  677  sleep 100000
  678  ps
  679  ps -S
  680  bg -
  681  ps
  682  ps -s
  683  ps -S
  684  jobs 3481
  685  jobs %3481
  686  jobs 
  687  ps -S
  688  jobs
  689  jobs 
  690  kill %3
  691  jobs 
  692  fg %1
  693  jobs 
  694  fg +
  695  tree / &> /dev/null
  696  bg +
  697  ps
  698  ps -S
  699  tree / &> /dev/null
  700  bg +
  701  ps -S
  702  ps -<
  703  echo $SHLVL
  704  kill -l
  705  vim /run/media/isx0276204/school_work/school_work01/sistemOperatius/15-A02-05_processos.txt 
  706  man 5 cronup
  707  man 5 cron
  708  man 5 crontab
  709  at
  710  man cron
  711  man cronab
  712  man crontab
  713  man ascii
  714  python
  715  cd /run/media/isx0276204/school_work/school_work01/programacio/all_program/cadena/
  716  python busar_cadena_mejor_i_compte_paraula_entre_a_Z.py 
  717  python arbul_de_navidad.py 
  718  python arbul_de_navidad.py 16
  719  python arbul_de_navidad.py 
  720  python arbul_de_navidad.py | wc -l
  721  python arbul_de_navidad.py 
  722  ping 10.200.199.3
  723  cd /tmp/
  724  vim task.cron
  725  crontab task.cron 
  726  crontab -l
  727  rm task.cron 
  728  crontab -l
  729  crontab -l > task.cron
  730  vim task.cron 
  731  crontab task.cron
  732  crontab -l
  733  crontab -e 
  734  crontab -l
  735  ls
  736  crontab -e 
  737  man at
  738  at 14:00
  739  atq
  740  uptime -a
  741  uname -a
  742  uptime
  743  free
  744  vmstat
  745  top
  746  ps ax
  747  pstree -a
  748  pstree -al
  749  pstree -alp
  750  ps
  751  ps -l
  752  pstree -lap 2027
  753  pstree -slap 2027
  754  kill 2027
  755  kill -l
  756  vim task
  757  ps
  758  jobs
  759  fg %1
  760  vim /run/media/isx0276204/school_work/school_work01/sistemOperatius/15-A02-05_processos.txt 
  761  cd /home/groups/inf/hisx1/MP1-Operatius/
  762  conntrack -L
  763  man iptable
  764  man iptables
  765  ip a
  766  netstat -a
  767  su -
  768  su postgres
  769  cd /tmp/
  770  cd /tmp/
  771  pgrep -l X
  772  echo $DISPLAY
  773  ps ax | grep X
  774  cd /tmp/
  775  cd /var/tmp/
  776  mkdir m01
  777  cd m01/
  778  cp /etc/passwd .
  779  cp /etc/services .
  780  ls
  781  grep "smtp" services 
  782  grep "^smtp" services 
  783  grep "bash$" passwd 
  784  grep "mail$" services | wc -l
  785  grep "mail$" services
  786  grep "[bash]*" passwd 
  787  grep -v "[bash]*" passwd 
  788  grep -v "[^bash]*" passwd 
  789  grep -v "bash" passwd 
  790  grep -i "pop" services 
  791  grep "pop" services 
  792  grep -i "pop" services | wc --l
  793  grep -i "pop" services | wc -l
  794  echo "hola radiola, adeu andreu"
  795  echo "hola radiola, adeu andreu" | grep ola
  796  echo "hola radiola, adeu andreu" | grep hola
  797  echo $?
  798  echo "hola radiola, adeu andreu" | grep "hola$"
  799  echo $0
  800  echo $?
  801  echo "hola radiola, adeu andreu" | grep "^hola"
  802  echo $?
  803  echo "holi radiola, adeu andreu" | grep "hola"
  804  echo "holi radiola, adeu andreu" | grep "hola|holi"
  805  echo "holi radiola, adeu andreu" | grep -"hola | holi"
  806  cat /etc/fstab 
  807  grep -v "ext4" /etc/fstab 
  808  grep -v "ext4" /etc/fstab | grep -v "^#"
  809  grep "root" passwd 
  810  grep "^root" passwd 
  811  grep "^root:" passwd 
  812  head passwd 
  813  grep "100" passwd 
  814  echo "aa:bb:cc:dd:ee" | grep "b"
  815  echo "aa:bb:cc:dd:ee" | grep ":b:"
  816  echo "aa:bb:cc:dd:ee" | grep ":b.:"
  817  echo "ba:bb:bc:bd:be" | grep ":b.:"
  818  echo "ba:bb:bc:bd:be" | grep ":b[ad]:"
  819  echo "ba:bb:bc:bd:be" | grep ":[bb]:"
  820  echo "ba:bb:bc:bd:be" | grep ":[b]:"
  821  echo "ba:bb:bc:bd:be" | grep ":b:"
  822  echo "ba:bb:bc:bd:be" | grep ":b.:"
  823  echo "ba:bb:bc:bd:be" | grep "ba"
  824  echo "ba:bb:bc:bd:be" | grep "ba | bc"
  825  echo "ba:bb:bc:bd:be" | grep "^ba | bc"
  826  echo "ba:bb:bc:bd:be" | grep "^ba "
  827  echo "ba:bb:bc:bd:be" | grep "^ba"
  828  echo "ba:bb:bc:bd:be" | grep "^ba|be$"
  829  echo "ba:bb:bc:bd:be" | grep "^ba"
  830  echo -e "ba:bb:bc:bd:be"
  831  echo -e "ba:bb:bc:bd:be\n ok"
  832  echo -e "ba:bb:bc:bd:be \n bc"
  833  echo -e "ba:bb:bc:bd:be \nbc"
  834  echo -e "ba:bb:bc:bd:be \nbc" | grep "bc"
  835  echo -e "ba:bb:bc:bd:be \nbc" | grep "ba"
  836  echo -e "ba:bb:bc:bd:be \nbc" | grep "^ba"
  837  echo -e "ba:bb:bc:bd:be \nbc" | grep "^ba|^bc"
  838  echo -e "ba:bb:bc:bd:be \nbc" | grep "^ba|bc"
  839  echo -e "ba:bb:bc:bd:be \nbc" | grep "^[ba]"
  840  echo -e "ba:bb:bc:bd:be \nbc" | grep "^ba"
  841  echo "aa:bb:b:dd:ee" | grep "ba"
  842  echo "aa:bb:b:dd:ee" | grep "b"
  843  echo "aa:bb:bb:dd:ee" | grep "bb"
  844  echo "aa:bb:bb:dd:ee" | grep ":bb:"
  845  echo "aa:bb:bb:dd:ee" | grep ".*:bb:"
  846  echo "aa:bb:bb:dd:ee" | grep ".*[^:]:bb:"
  847  echo "aa:bb:bb:dd:ee" | grep ":bb:"
  848  grep "root" passwd 
  849  grep ".*root" passwd 
  850  echo "a:b:c:d:e:f"
  851  echo "a:b:c:d:e:f" | grep ":b:"
  852  echo "a:b:c:d:e:f" | grep "^.*:b:"
  853  echo "a:b:c:d:b:e:f" | grep "^.*:b:"
  854  echo "a:b:c:d:b:e:f" | grep "^[!:]*:b:"
  855  echo "a:b:c:d:b:e:f" | grep "^[^:]*:b:"
  856  echo "a:b:c:d:b:e:f" | grep "[^h]"
  857  echo "a:b:c:d:b:e:f" | grep "[!h]"
  858  echo "a:b:c:d:b:e:f" | grep "[h]"
  859  echo "a:b:c:d:b:e:f" | grep "[^h]"
  860  echo "a:b:c:d:b:e:f" | grep "[^a]"
  861  echo "a:b:c:d:b:e:f" | grep "[^f]"
  862  echo "a:b:c:d:b:e:f" | grep "^.*:b:"
  863  echo "a:b:c:d:b:e:f" | grep "^[^:]*:[^:]*:b:"
  864  echo "a:b:c:d:b:e:f" | grep "^[^:]*:[^:]*:c:"
  865  echo $?
  866  echo "x:a:b:c:d:b:e:f" | grep "^[^:]*:[^:]*:c:"
  867  echo "a:b:c:d:b:e:f" | grep "^[^:]*:[^:]*:c:"
  868  echo "aaa:b:c:d" | grep "a*"
  869  echo "aaa:b:c:d" | grep "c*"
  870  echo "aaa:b:c:d" | grep "z*"
  871  echo "4456792A" 
  872  echo "4456792A" | grep "[0-9]7"
  873  echo "4456792A" | grep "[0-9]{8}"
  874  echo "4456792A" | grep "[0-9]{8}[A-Z]"
  875  echo "44567924A" | grep "[0-9]{8}[A-Z]"
  876  echo "44567924A" | egrep "[0-9]{8}[A-Z]"
  877  echo "44567924A" | egrep "^[0-9]{8}[A-Z]$"
  878  echo "0044567924A" | egrep "^[0-9]{8}[A-Z]$"
  879  echo "44567924A" | egrep "^[0-9]{8}[A-Z]$"
  880  echo "44567924A" | egrep "^[0-9]{8}[A-Z]$|^[0-9]{8}[a-z]$"
  881  echo "44567924a" | egrep "^[0-9]{8}[A-Z]$|^[0-9]{8}[a-z]$"
  882  echo "445679241" | egrep "^[0-9]{8}[A-Z]$|^[0-9]{8}[a-z]$"
  883  echo "B-1245-PQ"
  884  echo "B-1245-PQ" | grep "^[A-Z]-[0-9]{4}-[A-Z][A-Z]$"
  885  echo "B-1245-PQ" | grep "^[A-Z]{1,2}-[0-9]{4}-[A-Z]{2}$"
  886  echo "B-1245-PQ" | grep "^[A-Z]{1,2}-[0-9]{4}-[A-Z]{1,2}$"
  887  echo "B-1245-PQ" | egrep "^[A-Z]{1,2}-[0-9]{4}-[A-Z]{1,2}$"
  888  history > /run/media/isx0276204/school_work/school_work01/command/9_1_2016.txt
  889  man grep
  890  python print_cadena_misimo_de_logitud.py < hola
  891  python print_cadena_misimo_de_logitud.py 
  892  python compta_vocals_maxi_i_min.py 
  893  python escribar_despres_de_cada_paraula_una_word.py 
  894  cd netswithlinux
  895  git merge upstream/master 
  896  git pull upstream 
  897  git merge upstream/master 
  898  ls
  899  git push origin 
  900  git push origin master 
  901  cd guide/es/
  902  ls
  903  chromium-browser 04-initialconf-network-hardware.md 
  904  chromium-browser 02-iptables.md &
  905  cd /var/tmp/m01/
  906  echo "5643 NFP" | egrep "^[[:digit:]]{4} [[:alpha:]]{3}"
  907  echo "512346789D" | egrep "^[[:digit:]]{8} [[:alpha:]]$"
  908  echo "512346789D" | egrep "^[[:digit:]]{8} [:alpha:]$"
  909  echo "512346789D" | egrep "^[[:digit:]]{8} [[:alpha:]]$"
  910  echo "512346789D" | egrep "^[[:digit:]]{8} [[:alpha:]]{1}$"
  911  echo "512346789D" | egrep "^[[:digit:]]{8}[[:alpha:]]{1}$"
  912  echo "512346789D" | egrep "^[[:digit:]]{8}[[:alpha:]]$"
  913  echo "51234678D" | egrep "^[[:digit:]]{8}[[:alpha:]]$"
  914  echo "51234678D" | egrep "^[[:digit:]]{8}[[:alpha:]]$" || echo "error"
  915  echo "51234678" | egrep "^[[:digit:]]{8}[[:alpha:]]$" || echo "error"
  916  echo "51234678" | egrep "^[[:digit:]]{8}[[:alpha:]]$" || echo "no valid"
  917  echo "51234678" | egrep "^[[:digit:]]{8}[[:alpha:]]$" &> /dev/null || echo "no valid"
  918  echo "51234678A" | egrep "^[[:digit:]]{8}[[:alpha:]]$" &> /dev/null || echo "no valid"
  919  echo "51234678A" | egrep "^[[:digit:]]{8}[[:alpha:]]$" &> /dev/null && echo "valid"
  920  echo "51234678A" | (egrep "^[[:digit:]]{8}[[:alpha:]]$" &> /dev/null && echo "valid") || echo "no valida"
  921  echo "51234678A" | (egrep "^[[:digit:]]{8}[[:alpha:]]$" &> /dev/null && echo "valid") || echo "no valida"
  922  cat > matricula.txt
  923  cat matricula.txt | egrep "^[A-Z]{1,2}-[0-9]{4}-[A-Z]{1,2}$"
  924  vim matricula.txt
  925  cat matricula.txt | egrep "^[A-Z]{1,2}-[0-9]{4}-[A-Z]{1,2}$"
  926  egrep "^[A-Z]{1,2}-[0-9]{4}-[A-Z]{1,2}$" matricula.txt 
  927  egrep "^[A-Z]{1,2}-[0-9]{4}-[A-Z]{1,2}$ | ^[0-9]{4} [A-Z]{3}$" matricula.txt 
  928  egrep "^[A-Z]{1,2}-[0-9]{4}-[A-Z]{1,2}$|^[0-9]{4} [A-Z]{3}$" matricula.txt 
  929  velles="[A-Z]{1,2}-[0-9]{4}-[A-Z]{1,2}$"
  930  noves="[0-9]{4} [A-Z]{3}$"
  931  egrep "velles|noves" matricula.txt 
  932  egrep "$velles|$noves" matricula.txt 
  933  noves="^[0-9]{4} [A-Z]{3}$"
  934  egrep "velles|noves" matricula.txt 
  935  egrep "$velles|$noves" matricula.txt 
  936  velles="^[A-Z]{1,2}-[0-9]{4}-[A-Z]{1,2}$"
  937  egrep "velles|noves" matricula.txt 
  938  egrep "$velles|$noves" matricula.txt 
  939  echo "00000001A" | egrep "^[0-9]{8}[A-Z]$"
  940  echo "00000001A" | grep "^[0-9]\{8\}[A-Z]$"
  941  echo "00000001A" | grep "^[0-9]\{8}[A-Z]$"
  942  echo "00000001A" | grep "^[0-9]{8}[A-Z]$"
  943  echo "hola [ramon] que tal" | grep "[ramon]"
  944  echo "hola [ramon] que tal" | grep "\[ramon\]"
  945  man grep
  946  Asu -
  947  su -
  948  cd netswithlinux
  949  cd guide/es/
  950  chromium-browser 02-iptables.md 
  951  bg %1
  952  jobs
  953  chromium-browser 02-iptables.md &
  954  python escribar_despres_de_cada_paraula_una_word.py 
  955  python escribar_cada_parabla_logitud_para_vertical.py 
  956  python escribar_despres_de_cada_paraula_una_word.py 
  957  python escribar_cada_parabla_logitud_para_vertical.py 
  958  python cheak_si_es_un_number_int_or_not.py 52
  959  python cheak_si_es_un_number_int_or_not.py +52
  960  python cheak_si_es_un_number_int_or_not.py -52
  961  python cheak_si_es_un_number_int_or_not.py -+52
  962  python cheak_si_es_un_number_int_or_not.py 52
  963  python cheak_si_es_un_number_int_or_not.py 59
  964  python cheak_si_es_un_number_int_or_not.py +9
  965  python cheak_si_es_un_number_int_or_not.py +9+
  966  python cheak_si_es_un_number_int_or_not.py 9+
  967  python cheak_si_es_un_number_int_or_not.py 9
  968  python cheak_si_es_un_number_int_or_not.py 5
  969  python cheak_si_es_un_number_int_or_not.py +5
  970  python cheak_si_es_un_number_int_or_not.py ++5
  971  python cheak_si_es_un_number_int_or_not.py +9
  972  python cheak_si_es_un_number_int_or_not.py -5
  973  python cheak_si_es_un_number_int_or_not.py .5
  974  python cheak_si_es_un_number_int_or_not.py 35
  975  python cheak_si_es_un_number_int_or_not.py 3.5
  976  python cheak_si_es_un_number_int_or_not.py -3
  977  python cheak_si_es_un_number_int_or_not.py .5
  978  python cheak_si_es_un_number_int_or_not.py 5a
  979  python cheak_si_es_un_number_int_or_not.py 0
  980  python cheak_si_es_un_number_int_or_not.py .
  981  python
  982  chromium-browser guide/es/02-iptables.md &
  983  iptables -L
  984  git fetch upstream
  985  git merge upstream/master 
  986  git add exercises/05_iptables.md 
  987  git commit -am "new ejercici iptable"
  988  git pull origin 
  989  git push origin 
  990  git push origin master 
  991  cd netswithlinux
  992  git fetch upstream 
  993  git merge origin/master 
  994  git push origin 
  995  git pull origin 
  996  git pull origin master 
  997  su -
  998  cd /var/tmp/m01/
  999  ls
 1000  man tar
 1001  man tr
 1002  echo "la la la" |tr 'a' 'i'
 1003  echo "la la la" |tr 'a' 'L'
 1004  echo "hola mama" | tr 'm' 'p'
 1005  echo "hola mama que tal" | tr 'mama' 'pere'
 1006  cat passwd 
 1007  head -n5 passwd 
 1008  head -n5 passwd | tr ':' ' '
 1009  head -n5 passwd | tr ':' ','
 1010  head -n5 passwd | tr ':' '$'
 1011  head -n5 passwd | tr ':' '\t'
 1012  echo "hola mama que tal" | tr '[:lower:]' '[:upper:]'
 1013* echo "hola mama que tal" | tr '' 'A-Z'
 1014  echo "hola mama que tal" | tr '[:lower:]' '[:upper:]'
 1015  head -n 5 passwd| tr '[:lower:]' '[:upper:]'
 1016  head -n 5 passwd| tr '[:lower:]01234' '[:upper:]@+--'
 1017  head -n 5 passwd| tr '[:lower:]01234' '[:upper:]@+--#'
 1018  cat /etc/fstab 
 1019  cp /etc/fstab .
 1020  ls
 1021  echo "hoooola maaaaamaaa" | tr 'a' '' 
 1022  echo "hoooola maaaaamaaa" | tr 'a' ' ' 
 1023  echo "hoooola maaaaamaaa" | tr -s 'a' 
 1024  echo "hoooola maaaaamaaa" | tr -s 'a' '~'
 1025  echo "hoooola maaaaamaaa" | tr -s 'a' '$'
 1026  echo "hola  mama que   tal "
 1027  echo "hola  mama que   tal " | tr ' ' ':'
 1028  echo "hola  mama que   tal " | tr -s [:blank:]'
 1029  echo "hola  mama que   tal " | tr -s '[:blank:]'
 1030  echo "hola  mama que   tal " | tr -s '[:blank:]' ':'
 1031  echo "hola  mama que   tal " | tr -s '[:blank:]' '\t'
 1032  vim text.txt
 1033  cat text.txt 
 1034  cat text.txt | tr -s '[:blank:]' '$'
 1035  cat text.txt | tr -s '\t' '$'
 1036  cat text.txt | tr -s '\t' 'x'
 1037  cat text.txt | tr -s ' ' 'x'
 1038  cat text.txt | tr -s '[:blank:]' '\t'
 1039  cat text.txt | tr -s '[:blank:]' ' '
 1040  cat text.txt | tr -s [' ','\t'] ' '
 1041  cat fstab | grep -v "^#"
 1042  cat fstab | grep -v "^#" | tr '[:blank:]' ' '
 1043  cat fstab | grep -v "^#" | tr -s '[:blank:]' ' '
 1044  cat fstab | grep -v "^#" | tr -s '[:blank:]' '\t'
 1045  cat fstab | grep -v "^#" | tr -s '[:blank:]' ':'
 1046  ll /boot/
 1047  ll /boot/ | tr -s '[:blank:]' ' '
 1048  ll /boot/ | tr -s '[:blank:]' ' ' | cut -f1,3,7 -d' '
 1049  ll /boot/ | tr -s '[:blank:]' ' ' | cut -c1
 1050  ll /boot/ | tr -s '[:blank:]' ' ' | cut -f1 -d' '
 1051  ll /boot/ | tr -s '[:blank:]' ' ' | cut -f1 -d' ' | cut -c2,9
 1052  ll /boot/ | tr -s '[:blank:]' ' ' | cut -f1 -d' ' | cut -c2-9
 1053  ll /boot/ | tr -s '[:blank:]' ' ' | cut -f1 -d' ' | cut -c2-10
 1054  ll /boot/ | tr -s '[:blank:]' ' ' | cut -f1 -d' ' | cut -c50-
 1055  ll /boot/ | tr -s '[:blank:]' ' ' | cut -f1 -d' ' | cut -c50
 1056  ll /boot/ | tr -s '[:blank:]' ' ' | cut -f1 -d' ' | cut -c50-$
 1057  ll /boot/ | tr -s '[:blank:]' ' ' | cut -f1 -d' ' | cut -c50
 1058  ll /boot/ | tr -s '[:blank:]' ' ' | cut -f1 -d' ' | cut -c50-
 1059  ll /boot/ | tr -s '[:blank:]' ' ' | cut -c50-
 1060  ll /boot/ | tr -s '[:blank:]' ' ' | cut -f1 -d' ' -c50-
 1061  ll /boot/ | tr -s '[:blank:]' ' ' | cut -f1 -c50-
 1062  ll /boot/ | tr -s '[:blank:]' ' ' | cut -f1 -c50- -d' '
 1063  ll /boot/ | tr -s '[:blank:]' ' ' | cut -f1 -d' '
 1064  ll /boot/ | tr -s '[:blank:]' ' ' | cut -c2-10
 1065  ll /boot/ | tr -s '[:blank:]' ' ' | cut -c2-10 -c50
 1066  ll /boot/ | tr -s '[:blank:]' ' ' | cut -c2-10,50
 1067  ll /boot/ | tr -s '[:blank:]' ' ' | cut -c2-10,50-
 1068  head passwd 
 1069  head passwd | cut -c1-10
 1070  head passwd | cut -f1 -d' '
 1071  head passwd | cut -f1 -d':'
 1072  head passwd | cut -f1 -d:
 1073  head passwd | cut -f1,3,5 -d:
 1074  head passwd | cut -f1,3,5- -d:
 1075  head passwd | cut -f1,3 -d:
 1076  head passwd | cut -f3,1 -d:
 1077  ll /boot/ | tr '[:blank:]' ' ' | cut -f1,3 
 1078  ll /boot/ | tr '[:blank:]' ' ' | cut -f1,3 -d' '
 1079  ll /boot/ | tr '[:blank:]' ' ' | cut -f1,3,5 -d' '
 1080  ll /boot/ | tr -s '[:blank:]' ' ' | cut -f1,3,5 -d' '
 1081  ll /boot/ | tr -s '[:blank:]' ' ' | cut -f1,3,5 
 1082  ll /boot/ | tr -s '[:blank:]' ' ' | cut -f1,3,5 -d
 1083  ll /boot/ | tr -s '[:blank:]' ' ' | cut -f1,3,5 -d 
 1084  ll /boot/ | tr -s '[:blank:]' ' ' | cut -f1,3,5 -d' '
 1085  ll /boot/ | tr -s '[:blank:]' '\t' | cut -f1,3,5 -d' '
 1086  ll /boot/ | tr -s '[:blank:]' '\t' | cut -f1,3,5
 1087  ll /boot/ | tr -s '[:blank:]' '\t' | cut -f1,3,5 | sort -f3
 1088  ll /boot/ | tr -s '[:blank:]' '\t' | cut -f1,3,5 | sort -3
 1089  ll /boot/ | tr -s '[:blank:]' '\t' | cut -f1,3,5 | sort -k3
 1090  ll /boot/ | tr -s '[:blank:]' '\t' | cut -f1,3,5 | sort -k3g,3 -t' '
 1091  head passwd | cut -f3 -d:
 1092  head passwd | cut -f3 -d: | sort -r
 1093  head passwd | cut -f3 -d: | sort -rg
 1094  head passwd | cut -f3 -d: | sort 
 1095  head passwd | cut -f3 -d: | sort -g
 1096  head passwd | cut -f3 -d: | sort -rg
 1097  head passwd | cut -f3 -d: | sort -rn
 1098  head passwd | cut -f3 -d: | sort -rH
 1099  head passwd | cut -f3 -d: | sort -rh
 1100  head -n 15 passwd | cut -f4 -d: | sort -rh
 1101  head -n 15 passwd | cut -f1,3,4 -d: 
 1102  head -n 15 passwd | cut -f1,3,4 -d: | sort
 1103  head -n 15 passwd | cut -f1,3,4 -d: | sort r
 1104  head -n 15 passwd | cut -f1,3,4 -d: | sort -r
 1105  head -n 15 passwd | cut -f1,3,4 -d: | sort -k2 -t':'
 1106  head -n 15 passwd | cut -f1,3,4 -d: | sort -k3 -t':'
 1107  head -n 15 passwd | cut -f1,3,4 -d: | sort -k3,3 -t':'
 1108  head -n 15 passwd | cut -f1,3,4 -d: | sort -k2,2 -t':'
 1109  head -n 15 passwd | cut -f1,3,4 -d: | sort -g -k2,2 -t':'
 1110  head -n 15 passwd | cut -f1,3,4 -d: | sort  -k2g,2 -t':'
 1111  head -n 15 passwd | cut -f1,3,4 -d: | sort  -k2gr,2 -t':'
 1112  head -n 15 passwd | cut -f1,3,4 -d: | sort  -k2gr,3 -t':'
 1113  head -n 15 passwd | cut -f1,3,4 -d: | sort  -k2gr,3g -t':'
 1114  head -n 15 passwd | cut -f1,3,4 -d: | sort  -k3g,3 -t':'
 1115  head -n 15 passwd | cut -f1,3,4 -d: | sort  -k3g,3 -k2g,2 -t':'
 1116  head -n 15 passwd | cut -f1,3,4 -d: | sort  -k3g,3 -k1r,1 -t':'
 1117  history > /run/media/isx0276204/school_work/school_work01/command/12_01_2017_all_commad.txt
