   32  ls estiu*
   33  ls *
   34  mkdir foto video
   35  cd foto/
   36  ln -s ../*.mpeg .
   37  ls
   38  ls -la
   39  cd ..
   40  cd video/
   41  pwd
   42  ln -s ../*.avi .
   43  ls -la
   44  cd ..
   45  pwd
   46  cd .
   47  cd ..
   48  mkdir biblioteca
   49  mv edicio/ biblioteca/
   50  ls biblioteca/
   51  tree -d biblioteca/
   52  ls -l biblioteca/edicio/foto
   53  ls -l biblioteca/edicio/video/
   54  ls -l biblioteca/edicio/video/estiu*
   55  tree /dev/disk
   56  su -
   57  ip del 10.1.0.101/24
   58  ip a del 10.1.0.101/24
   59  ip a del 10.1.0.101/24 dev enp2s0
   60  su -
   61  python sumar_potencias_dos.py 
   62  python sumar_liedo_number_medio.py 
   63  cd netswithlinux
   64  git p
   65  git branch
   66  git remote -v
   67  git fetch upstream 
   68  ls 
   69  cat exercises/ca/02_routing.md 
   70  geany exercises/ca/02_routing.md 
   71  geany exercises/ca/02_routing.md &
   72  ip a
   73  cd netswithlinux
   74  ls
   75  history
   76  git fetch upstream master
   77  git checkout master 
   78  git merge upstream/master
   79  geany exercises/04_routing_and_bridges.md &&
   80  geany exercises/04_routing_and_bridges.md &
   81  firefox guide/es/00_cheatsheet_commands_for_networks.md &
   82  geany guide/es/00_cheatsheet_commands_for_networks.md &
   83  iperf -c 172.16.99.1
   84  netstat 
   85  netstat -p
   86  netstat -p | grep "5001"
   87  su -
   88  ip a
   89  su -
   90  cd netswithlinux
   91  git commit -am "nearly finish exercici 3"
   92  git push origin 
   93  git push origin master 
   94  history
   95  dhclient
   96  git push origin master 
   97  cd /var/tmp/operatius/
   98  df -h
   99  ln /boot/ arrancada
  100  ln -s /boot/ arrancada
  101  ls -la
  102  ln -s /boot/ unix/arrancada
  103  ls -la unix/
  104  ln -s /tmp/ tempral
  105  ls -la
  106  ln -s /tmp/ unix/
  107  ls -la unix/
  108  cd /boot/
  109  pwd
  110  ls
  111  cd /tmp/
  112  pwd
  113  mkdir dades
  114  ls > dades/file.txt
  115  ln -s /tmp/dades/ /var/tmp/operatius/
  116  ls -la /var/tmp/operatius/
  117  ln -s dades/ /var/tmp/operatius/kaka
  118  ls -la /var/tmp/operatius/
  119  cd dades/
  120  ls -la /var/tmp/operatius/
  121  ln /tmp/dades/file.txt /var/tmp/operatius/
  122  ln -s /tmp/dades/file.txt /var/tmp/operatius/
  123  ls -la /var/tmp/operatius/
  124  ln -s dades/file.txt /var/tmp/operatius/kaka.txt
  125  ls -la /var/tmp/operatius/
  126  cd ..
  127  ln dades/file.txt dades/file2.txt 
  128  ls dades/
  129  ln dades/file.txt dades/file3.txt 
  130  ls -li dades/
  131  rm dades/file.txt 
  132  ls dades/
  133  ls
  134  ls dades/
  135  ls -i dades/
  136  ls -l dades/
  137  ls -li dades/
  138  chmod a+w dades/file2.txt 
  139  ls -li dades/
  140  ls -la dades/
  141  stat dades/file2.txt 
  142  stat dades/file3.txt 
  143  ls -lai dades/
  144  mkdir dades/subdir
  145  ls -lai dades/
  146  ls
  147  who
  148  pwd
  149  cd dades/
  150  ls
  151  chmod 744 file2.txt 
  152  ls -la
  153  chmod 644 file2.txt 
  154  ls -la
  155  chmod 750 subdir/
  156  ls -la
  157  ls > programa.py
  158  umask
  159  ls -la
  160  chmod a+x programa.py 
  161  ls -la
  162  chmod a-x+w programa.py 
  163  ls -la
  164  chmod u-xg+x programa.py 
  165  chmod u-x,g+x programa.py 
  166  ls -la
  167  chmod go=u programa.py 
  168  ls -la
  169  chmod -w file2.txt 
  170  mkdir stiktdir
  171  ls -la
  172  umask
  173  ls -la /
  174  chmod 1777 stiktdir/
  175  ls -la
  176  chmod o-t stiktdir/
  177  ls -la
  178  chmod +s stiktdir/
  179  ls -la
  180  chmod o-x stiktdir/
  181  ls -la
  182  chmod +t stiktdir/
  183  ls -la
  184  chmod o+x stiktdir/
  185  ls -laa
  186  chmod -s stiktdir/
  187  chmod g+s stiktdir/
  188  ls-la
  189  ls -la
  190  cd
  191  cd netswithlinux
  192  cat works/03_layers.md 
  193  git push origin master 
  194  ping 8.8.8.8
  195  su
  196  su postgres
  197  python mirar_si_es_prim0_or_no.py 
  198  python mirar_si_es_primo_or_no_correct_version.py 
  199  python mirar_si_es_primo_or_no_correct_version.py 3
  200  python mirar_si_es_primo_or_no_correct_version.py 315
  201  python multipul_de_un_number_order_asc.py 
  202  python culcular_factor_primo_de_un_numbre.py 
  203  python culcular_factor_primo_de_un_numbre.py 200
  204  python mirar_si_es_primo_or_no_correct_version.py 
  205  su -
  206  man chown
  207  cd /tmp/
  208  mkdir treball
  209  ls
  210  pwd
  211  mkdir treball/dillunes
  212  cd treball/
  213  ls -la
  214  umask
  215  chmod 1777 .
  216  ls -la
  217  ls > info1.txt
  218  ls > info2.txt
  219  ls -la
  220  rm cartapere.txt 
  221  ls -la
  222  chmod g+s,o-t .
  223  ls -la
  224  pwd
  225  cp /etc/passwd .
  226  cp /etc/group .
  227  head -n12 passwd 
  228  head -n12 group 
  229  head -n12 passwd > dades.txt
  230  cat dades.txt 
  231  cat dades.txt | sort
  232  head -n12 passwd | sort
  233  head -n12 passwd | sort > dades2.txt
  234  cat dades2.txt 
  235  finger
  236  w
  237  ps
  238  ps >> dades2.txt 
  239  cat dades2.txt 
  240  l s/
  241  ls / >> dades.txt 
  242  mv dades.txt dades1.txt
  243  ls 
  244  finger pere
  245  finger pere userx
  246  finger pere userx > user.pdf
  247  finger pere root userx > user.pdf
  248  finger pere root userx 2> error.lock 
  249  cat error.lock 
  250  mv error.lock error.log
  251  ls -la
  252  finger pere root userx 2> error.log > user.pdf
  253  finger pere root userx &> user.pdf
  254  cat user.pdf 
  255  sort < passwd 
  256  head -n8 passwd > users.txt
  257  sort users.txt 
  258  sort < users.txt 
  259  sort users.txt > nom.txt
  260  sort < users.txt > nom.txt
  261  cat nom.txt 
  262  man sort
  263  man wc
  264  wc
  265  cat
  266  cat > nom.txt
  267  sort nom.txt > nom2.txt
  268  cat nom2.txt 
  269  cat nom.txt nom2.txt > noms3.txt
  270  ps >> noms3.txt 
  271  less noms3.txt 
  272  cat > capcalera.txt
  273  cat capcalera.txt nom.txt 
  274  cat capcalera.txt nom.txt peu.txt
  275  cat capcalera.txt - nom.txt > pagina.html
  276  cat pagina.html 
  277  cat capcalera.txt - < users.txt 
  278  tail -5n passwd 
  279  tail -n5 passwd 
  280  cat peu.txt
  281  cat >peu.txt
  282  cat capcalera.txt peu.txt 
  283  vim capcalera.txt 
  284  cat capcalera.txt peu.txt 
  285  tail -n6 passwd  | sort 
  286  tail -n6 passwd  | sort | cat capcalera.txt - peu.txt 
  287  vim peu.txt 
  288  tail -n6 passwd  | sort | cat capcalera.txt - peu.txt 
  289  cd /run/media/isx0276204/school_work/school_work01/programacio/all_program/bucle/
  290  python culcular_factor_primo_de_un_numbre.py 
  291  python calcular_factor_de_int_number_version_2.py 
  292  python sumar_base_de_multipul_dos_int_number.py 
  293  python table_for_number_1_to_9.py 
  294  cd netswithlinux
  295  git remote -v
  296  git fetch upstream 
  297  git merge master 
  298  ls 
  299  git pull upstream 
  300  ls
  301  ls exercises/
  302  firefox exercises/04_routing_and_bridges.md 
  303  ls
  304  git pull
  305  ls
  306  su -
  307  cd netswithlinux
  308  ls
  309  git pull upstream 
  310  git pull origin 
  311  ls
  312  git fetch origin 
  313  git fetch upstream 
  314  git merge origin/master 
  315  cat /dev/zero
  316  dd if=/dev/zero of=disc.img bs=1k count=1
  317  cat disc.img 
  318  man ascii
  319  hexdump -C disc.img 
  320  dd if=/dev/random of=disc.img bs=1k count=1
  321  hexdump -C disc.img 
  322  help
  323  help bash
  324  man bash
  325  cd /tmp/
  326  ls
  327  ls -la
  328  ls -lai
  329  ls .
  330  ls . hello &>> sortida.log
  331  cat sortida.log 
  332  rm sortida.log 
  333  mkdir prova
  334  cd prova/
  335  ps > sortida.log
  336  ls . hello &>> sortida.log
  337  cat sortida.log 
  338  sort
  339  sort <<fi
  340  mama
  341  papa
  342  pipi
  343  fi
  344  sort <<fi
  345  mama
  346  papa
  347  pipi
  348  fi
  349  sort <<bye
  350  hello
  351  sort <<BYE | wc
  352  PAP
  353  MAMA
  354  KAKA
  355  PIPI
  356  BYE
  357  cat > nom.txt
  358  cat <<plegar > nom.txt
  359  pere
  360  marta
  361  anna
  362  ramon
  363  plegar
  364  cat nom.txt 
  365  grep "http" /etc/services 
  366  grep "ftp" /etc/services | sort
  367  grep "http" /etc/services | sort > llista.txt
  368  grep "domain" /etc/services | sort
  369  grep "domain" /etc/services | sort | tee llistat.txt 
  370  cat llistat.txt 
  371  grep "domain" /etc/services | sort | wc -l
  372  grep "domain" /etc/services | sort > llistat.txt | wc -l
  373  grep "domain" /etc/services | sort | tee llistat.txt | wc -l
  374  grep "domain" /etc/services | sort | tee > llistat.txt | wc -l
  375  cat llistat.txt 
  376  grep "domain" /etc/services | tee > llistat.txt | sort order.txt
  377  grep "domain" /etc/services | tee > llistat.txt | sort > order.txt
  378  cat order.txt 
  379  grep "domain" /etc/services | tee  llistat.txt | sort > order.txt
  380  cat order.txt 
  381  grep "domain" /etc/services | tee  llistat.txt | sort | tee order.txt 
  382  cat order.txt 
  383  grep "domain" /etc/services | tee  llistat.txt | sort | tee order.txt | wc -l
  384  grep "domain" /etc/services | tee  llistat.txt 
  385  tree /boot/
  386  tree /tmp/
  387  ls /boot/ /kaka /mama
  388  ls /boot/ /kaka /mama 2> /dev/null
  389  cd /tmp/
  390  touch file{a..f}
  391  ls
  392  cd prova/
  393  touch file{a..f}
  394  ls
  395  touch file{1,2}
  396  ls
  397  touch file{1,6,mama}
  398  ls
  399  rm -f *
  400  ls
  401  touch file{05..15}
  402  ls
  403  touch file{05..15}.txt
  404  ls
  405  rm -f *0?
  406  ls
  407  rm -f *1?
  408  touch carta{7..12}.odt
  409  ls
  410  rm -f *
  411  touch carta{7..12}{.odt,.pdf}
  412  ls
  413  touch carta{7..12}.{odt,pdf}
  414  ls
  415  rm -f *
  416  touch file{a..z}{01..10}
  417  la
  418  ls
  419  ls -la | wc -l
  420  mkdir dir-{dl,dt,dc,dj,dv}
  421  tree -d
  422  echo {{2+2}}
  423  echo ((2+2))
  424  echo $((2+2))
  425  echo $((2*2))
  426  echo $((2*3))
  427  echo $((2+3*2))
  428  echo $((24/2))
  429  echo $((24/3))
  430  echo $((23/3))
  431  echo $((23.0/3))
  432  echo $((23%3))
  433  res=$((10*23+12))
  434  echo $res
  435  echo $~
  436  echo ~
  437  ls ~
  438  echo ~pere
  439  ls ~pere
  440  echo 'aixo es literral'
  441  echo "aixo es literral"
  442  echo 'aixo es $ PATH literral'
  443  echo "aixo es $ PATH literral"
  444  echo "aixo es $PATH literral"
  445  echo "aixo es $HOME literral"
  446  echo 'aixo es $HOME literral'
  447  python advinar_number.py 
  448  python
  449  python advinar_number.py 
  450  python primo_menor_de_100.py 
  451  python n_primero_primo_number.py 
  452  python n_primero_primo_number.py | wc -l
  453  python n_primero_primo_number.py 
  454  python calcular_factor_de_int_number_version_2.py 
  455  geany /run/media/isx0276204/school_work/school_work01/xarxa/04_routing_and_bridges.md 
  456  cd netswithlinux
  457  git pull
  458  git pull upstream 
  459  git fetch upstream 
  460  ls
  461  ls /run/media/isx0276204/school_work/school_work01/xarxa/
  462  chromium-browser /run/media/isx0276204/school_work/school_work01/xarxa/00_cheatsheet_commands_for_networks.md 
  463  su -
  464  echo $nom
  465  echo $cognom
  466  echo $curs
  467  ps
  468  echo $dni $dia $num
  469  exit
  470  echo $SHLVL
  471  ps
  472  pstree -s 1745
  473  echo $dia
  474  echo $dni
  475  echo $num
  476  echo $cur
  477  env | greo -E "dia | curs | num "
  478  env | grep -E "dia | curs | num "
  479  dni="AAAAA"
  480  cur="perruqyerria"
  481  echo $dni
  482  echo $cur
  483  bash
  484  ps
  485  env | grep -E "dia|curs|num "
  486  env | grep -E "dia | curs | num"
  487  env | grep -E "dia|curs|num"
  488  exit
  489  man bash
  490  echo $HOME
  491  set | less
  492  PS1="parveen \u \$"
  493  PS1="[parveen \u \$]"
  494  echo $SHLVL
  495  echo $nom
  496  ps
  497  pstree -s 1745
  498  dni="12345"
  499  dia="dilunes"
  500  num=34
  501  set | less
  502  echo $SHLVL
  503  export dni
  504  export num
  505  export cur="inf"
  506  env | grep "dni
  507  "
  508  env | grep "dni"
  509  env | grep "dia"
  510  env | grep "cur"
  511  env | grep "num"
  512  bash
  513  env | grep -E "dni|dia|cur|num"
  514  history
  515  cd /tmp/
  516  mkdir prova
  517  cd prova/
  518  touch file{a..z}{1..10}
  519  ls
  520  rm -f *
  521  ls
  522  echo hola
  523  echo "hola el meu home es $HOME"
  524  echo $HOME
  525  echo 'hola el meu home es $HOME'
  526  echo 'hola $HOME dos per dos: '
  527  echo 'hola $HOME dos per dos: $((2*2))'
  528  echo "hola $HOME dos per dos: $((2*2))"
  529  echo "hola $HOME dos per dos: $((2*2)) ~pere"
  530  echo "hola $HOME dos per dos: $((2*2)) $~pere"
  531  echo 'ahivaig anar a hotel'
  532  echo 'ahivaig anar a l'hotel'
  533  echo "ahivaig anar a l'hotel"
  534  echo 'ahir la "rita" va dir bye bye'
  535  echo 'ahir a \'hello'
  536  echo 'ahir a /'hello'
  537  echo $PWD
  538  pwd
  539  echo $PATH
  540  echo $PSI
  541  echo $PS1
  542  echo $PS2
  543  PS2="..>"
  544  echo "hola"
  545  echo "hola
  546  PS1 = "$ "
  547  PS1="$ "
  548  ls
  549  nom="pere"
  550  echo $nom
  551  nom="pere puig"
  552  echo $nom
  553  nom='pere puig'
  554  echo $nom
  555  dades='pere puig $HOME'
  556  echo $dades
  557  dades="pere puig $HOME"
  558  echo $dades
  559  edad= 18
  560  edad=18
  561  echo $edad
  562  edadVell=$(($edad+2))
  563  echo $edadVell
  564  edadVell=$((edad+2))
  565  echo $edadVell
  566  edad=30
  567  edadVell=$((edad+2))
  568  echo $edadVell
  569  cognom="puig"
  570  cognom1="puig"
  571  cognom2="puig"
  572  cognom2="nou"
  573  cognom="$cognom1 $cognom2"
  574  echo $cognom
  575  cognom=
  576  echo $cognom
  577  unset cognom
  578  echo $cognom
  579  set curs="1hisx"
  580  echo $curs
  581  set | less
  582  alias
  583  set | grep edad
  584  set | grep nom
  585  set | grep curs
  586  set | grep 
  587  set | less
  588  set | wc -l
  589  env
  590  env | wc -l
  591  env | less
  592  echo $SHLVL
  593  ps
  594  pstree -s 1745
  595  bash
  596  history > /run/media/isx0276204/school_work/school_work01/command/2016_11_23_all_command
  597  python n_times_menor_mejor_number_possion.py 
  598  python n_times_menor_mejor_number_possion_sortida_con_un_char.py 
  599  python n_times_menor_mejor_number_possion_sortida_con_un_char.py 
  600  python multipul_factor_de_un_number_positive.py 
  601  python exam_convidot.py 
  602  python exam_convidot.py < convidats.txt 
  603  su postgres
  604  python exam_convidot.py < convidats.txt 
  605  cat /etc/adjtime 
  606  man timedatectl 
  607  su -
  608  cd /tmp/
  609  cd prova/
  610  help cd
  611  whereis ls
  612  which ls
  613  which -a ls
  614  date
  615  which date
  616  which -a date
  617  file /usr/bin/date 
  618  which useradd
  619  which -a useradd
  620  file useradd
  621  file /usr/sbin/useradd
  622  ll /
  623  ls /bin/
  624  ls /sbin/
  625  echo $PATHNAME
  626  echo $PATH
  627  date
  628  cal
  629  PATH=
  630  echo $PATH
  631  ls
  632  cal
  633  date
  634  cal
  635  pwd
  636  date
  637  ls
  638  umask
  639  ls -la
  640  cd /tmp/prova/
  641  ls
  642  echo 'hello mama' > carta.pdf 
  643  PATH=/tmp/prova/
  644  carta.pdf
  645  echo $PATH
  646  echo 'hello mama' > carta
  647  date
  648  avui 
  649  llistar 
  650  calender 
  651  PATH=
  652  date
  653  caller 
  654  /usr/bin/date 
  655  /usr/bin/avui 
  656  /usr/bin/calender 
  657  PATH=/usr/bin/
  658  calender 
  659  echo $PATH
  660  ls
  661  date
  662  cal
  663  PATH=/tmp/bin/:$PATH
  664  echo $PATH
  665  ls
  666  cal
  667  date
  668  which ls
  669  which -a ls
  670  which -a date
  671  whereis date
  672  /usr/bin/date
  673  /tmp/bin/date
  674  cal
  675  arbre
  676  cd /tmp/
  677  mkdir prova
  678  cd prova/
  679  ls
  680  ls > carta.pdf
  681  ls > treball.pdf
  682  ls > informe.pdf
  683  rm -rf --mamapor *.pdf
  684  echo *.pdf
  685  cd 
  686  pwd
  687  cd /tmp/prova/
  688  help cd
  689  man bash
  690  man builtin
  691  avui 
  692  echo $PATH
  693  mkdir /tmp/bin
  694  ls
  695  cp /usr/bin/ls /tmp/bin/
  696  cp /usr/bin/cal /tmp/bin/date
  697  cp /usr/bin/date /tmp/bin/cal
  698  python exam_convidot.py < convidats.txt 
  699  python exam_convidats_version_1.py < convidats.txt 
  700  python exam_convidot.py < convidats.txt 
  701  su postgres
  702  su -
  703  cd netswithlinux
  704  git fetch upstream 
  705  git merge master  
  706  ls
  707  ls works/
  708  git branch
  709  git remote
  710  git pull
  711  git fetch origin
  712  git fetch upstream
  713  git remote -v
  714  git merge upstream/master
  715  ls
  716  chromium-browser guide/es/00_cheatsheet_commands_for_networks.md &
  717  grep -R iptable .
  718  chromium-browser scripts/script_example_change_macs_and_names.sh 
  719  geany scripts/script_example_change_macs_and_names.sh &
  720  su -
  721  alias
  722  avui
  723  man enable
  724  su -
  725  cde netswithlinux
  726  cd netswithlinux
  727  git fetch upstream 
  728  git merge origin/master 
  729  git merge upstream/master 
  730  git commit -am "change in cheatsheet"
  731  git merge upstream/master 
  732  ls
  733  git push origin 
  734  chromium-browser guide/es/00_cheatsheet_commands_for_networks.md &
  735  git push
  736  git push origin master 
  737  netstat -tanp
  738  netstat -tuanp
  739  cd ..
  740  cd .
  741  cd ..
  742  cd all_examen/
  743  cd examen4/
  744  python examem_4_1.py 
  745  python examen_4_2.py 
  746  python examem_5.py 
  747  python examen_4_2.py 
  748  python examem_4_1.py 
  749  6
  750  python examem_4_1.py 
  751  tshark -i enp2s0 -c 2 -w /tmp/ping01.pcap
  752  su -
  753  cd netswithlinux
  754  geany guide/es/00_cheatsheet_commands_for_networks.md &
  755  #cp /tmp/papua01.txt works/
  756  mkdir works/exam
  757  cp /tmp/papua01.txt works/exam/
  758  cp /tmp/ping01.pcap works/exam/
  759  cp /tmp/howto01.md works/exam/
  760  git add works/exam/ 
  761  commit -am "exam hecho"
  762  git commit -am "exam hecho"
  763  git pull origin 
  764  git push origin 
  765  git push origin master 
  766  ip a
  767  iperf -c 192.168.3.1
  768  su -
  769  cp -r /home/groups/inf/public/ASX/M01-Operatius/A02-04_redireccions/ /run/media/isx0276204/school_work/school_work01/sistemOperatius/
  770  vim  /run/media/isx0276204/school_work/school_work01/sistemOperatius/A02-04_redireccions/11-A01-04_pipes_filtres_shell_exercicis_pipes.txt 
  771  echo $nom
  772  mkdir /tmp/m01
  773  cd /tmp/m01/
  774  file /dev/stderr 
  775  file /dev/stdin 
  776  file /dev/stdout 
  777  file /dev/stderr 
  778  file /dev/stdout 
  779  file /dev/stdin 
  780  whereis stderr
  781  file /proc/self/fd/2
  782  file /proc/self/fd/1
  783  file /proc/self/fd/0
  784  locate http.service
  785  locate http
  786  rpm -ql http
  787  locate http > http.txt
  788  locate service
  789  locate service | grep "http"
  790  locate service | grep "http" > http.txt
  791  locate service | grep "http" | tee http.txt
  792  locate service | grep "ftp" | sor | tee ftp.txt
  793  locate service | grep "ftp" | sort | tee ftp.txt
  794  locate service | grep "ftp" | sort | tee ftp.txt | wc -l
  795  cat /etc/services 
  796  cat /etc/services | grep "http"
  797  cat /etc/services | grep "ftp"
  798  cat /etc/services | grep "ftp" | grep "TLS"
  799  ls -la /dev/std*
  800  cat /etc/services | grep "http" > http.txt
  801  cat /etc/services | grep "http" | tee http.txt
  802  cat /etc/services | grep "ftp" | sort | tee ftp.txt
  803  cat /etc/services | grep "ftp" | wc -l
  804  cat /etc/services | grep "ftp" | sort | tee ftp.txt | wc -l
  805  cat /etc/services | grep "ftp" | grep "TSL/SSL" | sort | tee ftp.txt
  806  cat /etc/services | grep "ftp" | grep "TLS/SSL" | sort | tee ftp.txt
  807  cat /etc/services | grep "ftp" | grep "TLS/SSL" | sort | tee ftp.txt | wc -l
  808  free
  809  free /tmp/
  810  du /tmp/
  811  du -d /tmp/
  812  du /tmp/
  813  du /tmp/ 2> /dev/null
  814  du /tmp/ 2> /dev/null > disk.txt
  815  cat disk.txt 
  816  du /tmp/ &> disk.txt
  817  cat disk.txt 
  818  du /boot/ /mnt/ 2> /dev/null >> disk.txt 
  819  cat disk.txt 
  820  nom='parveen parveen'
  821  echo $nom
  822  bash
  823  man bash
  824  su postgres
  825  tail -n10 .bash_history 
  826  env
  827  set | grep hist
  828  set | grep "hist"
  829  grep "hist" set
  830  pwd
  831  history
  832  echo $HOSTTYPE
  833  echo $DISPLAY
  834  set | grep "DISPLAAY"
  835  set | grep "DISPLAY"
  836  echo $TERM
  837  echo $USERS
  838  echo $USER
  839  ls
  840  mkdir /tmp/prova
  841  cd /tmp/prova/
  842  cp /usr/bin/ls cal
  843  cal
  844  ls -la cal 
  845  cp /usr/bin/cal calender
  846  ls
  847  /usr/bin/ls
  848  cp /usr/bin/ls llista
  849  ls
  850  cp /usr/bin/ls cal
  851  ls
  852  cal
  853  cp /usr/bin/date meu-data
  854  du -s
  855  date
  856  date -noval
  857  free
  858  echo $?
  859  du -s
  860  echo $?
  861  date --noval
  862  echo $?
  863  nipim-nipum
  864  echo $?
  865  cd ..
  866  mkdir dirprova && echo "ok director creat"
  867  ls
  868  file $(whoami)
  869  file $(which whoami)
  870  file $(ls)
  871  vim /run/media/isx0276204/school_work/school_work01/sistemOperatius/A02-04_redireccions/11-A01-04_pipes_filtres_shell_exercicis_pipes.txt 
  872  echo $PATH
  873  oldpath=$PATH
  874  echo $oldpath
  875  unset PATH 
  876  ls
  877  ls -la
  878  cd 
  879  mv disc.img disc.img 
  880  enable -a
  881  help builtin 
  882  builtin help
  883  man bash
  884  help bash
  885  info bash
  886  builtin 
  887  builtin -h
  888  history
  889  builtin 
  890  builtin help
  891  help fg
  892  /usr/bin/ls
  893  cd /tmp/prova/
  894  cal
  895  PATH=/tmp/prova/cal
  896  cal
  897  PATH=/tmp/prova/
  898  cal
  899  ls -la cal 
  900  ls
  901  lz
  902  /usr/bin/ls
  903  /usr/bin/cal
  904  echo $PATH
  905  echo $oldpath
  906  cal
  907  calender 
  908  llista 
  909  cal
  910  meu-data 
  911  free
  912  du -s
  913  ls
  914  mount -a
  915  mount
  916  su -
  917  vim /run/media/isx0276204/school_work/school_work01/sistemOperatius/A02-04_redireccions/14-A01-04_pipes_filtres_shell_exercicis_comandes_expansion.txt 
  918  su postgres
  919  cd /run/media/isx0276204/school_work/school_work01/programacio/all_program/bucle/for/
  920  python table_write_1_to_10_any_number.py 
  921  python billetes_i_monedas_total.py 
  922  python pares_number_0_200.py 
  923  python
  924  #mkdir dirprova && echo "ok director creat"
  925  cd /tmp/
  926  mkdir dirprova && echo "ok director creat"
  927  history
  928  date; id; whoami;
  929  uname
  930  alias uname='uname -a'
  931  uname
  932  which uname
  933  alias tree='tree -d'
  934  tree
  935  which tree
  936  tree
  937  alias quisoc='id -u; id -g; echo $USER' 
  938  quisoc 
  939  mkdir dirprova || echo "no pot creat"
  940  rmdir dirprova/
  941  cd /tmp/
  942  mkdir dirprova || echo "no pot creat"
  943  mkdir dirprova || echo "ERR: el directori no s'ha pogut crear"
  944  mkdir dirprova &> /dev/null &&
  945  mkdir dirprova && echo "ok director creat"
  946  mkdir dirprova && echo "ok director creat" || rmdir dirprova && echo "borrar"
  947  ps ax
  948  ps ax | wc -l
  949  ps ax
  950  kill 3571
  951  ps ax
  952  ps
  953  pstree | less
  954  pstree -lp | less
  955  pstree -alp | less
  956  ps -l
  957  pstree -s 2123
  958  ps -l 2096
  959  bash
  960  ps
  961  sleep 12346789 &
  962  ps
  963  kill -15 3720
  964  ps
  965  kill -l
  966  sleep 12346789 &
  967  ps
  968  jobs
  969  pgrep sleep
  970  pgrep -la sleep
  971  pkill sleep
  972  ps
  973  vim /run/media/isx0276204/school_work/school_work01/sistemOperatius/A02-04_redireccions/14-A01-04_pipes_filtres_shell_exercicis_comandes_expansion.txt 
  974  su postgres
  975  man bash
  976  man echo
  977  man ascii
  978  dmesg | less
  979  cat /etc/fstab 
  980  cat .gitconfig 
  981  cd netswithlinux
  982  cat .git/config 
  983  cat .git/COMMIT_EDITMSG 
  984  file .git/config 
  985  file /usr/bin/ls
  986  file /bin/ls
  987  man file
  988  man dd
  989  man mc
  990  systemctl status ftp.service
  991  systemctl status tftp.service
  992  systemctl status ftp
  993  grep "ftp" /etc/services 
  994  ps
  995  ps ax
  996  pstree
  997  pstree -lap | less
  998  bash
  999  ps
 1000  ps -l
 1001  dd if=/dev/zero of=/tmp/disc.img bs=1k count=1M &
 1002  id
 1003  dd if=/dev/zero of=/tmp/disc.img bs=1k count=1M &> /dev/null &
 1004  ps
 1005  rm /tmp/disc.img 
 1006  vim /var/tmp/carta.txt &
 1007  man chat
 1008  ps
 1009  jobs
 1010  tree \
 1011  tree  /
 1012  ps
 1013  jobs
 1014  sleep 999999999 &
 1015  jobs
 1016  fg 
 1017  jobs
 1018  fg %1
 1019  jobs
 1020  bg - 
 1021  jobs
 1022  fg
 1023  jobs
 1024  du / 2> /dev/null > /tmp/usage.txt
 1025  jobs
 1026  bg %6
 1027  bg %4
 1028  jobs
 1029  pidof sleep
 1030  cp /home/groups/inf/public/ASX/M01-Operatius/A02-05_processos/* /run/media/isx0276204/school_work/school_work01/sistemOperatius/
 1031  history > /run/media/isx0276204/school_work/school_work01/command/12_12_2016_all_command_user_isx0276204.txt
