   81  ps ax
   82  kill 3571
   83  ps ax
   84  ps
   85  pstree | less
   86  pstree -lp | less
   87  pstree -alp | less
   88  ps -l
   89  pstree -s 2123
   90  ps -l 2096
   91  bash
   92  ps
   93  sleep 12346789 &
   94  ps
   95  kill -15 3720
   96  ps
   97  kill -l
   98  sleep 12346789 &
   99  ps
  100  jobs
  101  pgrep sleep
  102  pgrep -la sleep
  103  pkill sleep
  104  ps
  105  vim /run/media/isx0276204/school_work/school_work01/sistemOperatius/A02-04_redireccions/14-A01-04_pipes_filtres_shell_exercicis_comandes_expansion.txt 
  106  su postgres
  107  man bash
  108  man echo
  109  man ascii
  110  dmesg | less
  111  cat /etc/fstab 
  112  cat .gitconfig 
  113  cd netswithlinux
  114  cat .git/config 
  115  cat .git/COMMIT_EDITMSG 
  116  file .git/config 
  117  file /usr/bin/ls
  118  file /bin/ls
  119  man file
  120  man dd
  121  man mc
  122  systemctl status ftp.service
  123  systemctl status tftp.service
  124  systemctl status ftp
  125  grep "ftp" /etc/services 
  126  vim /run/media/isx0276204/school_work/school_work01/sistemOperatius/A02-04_redireccions/14-A01-04_pipes_filtres_shell_exercicis_comandes_expansion.txt 
  127  ps
  128  ps ax
  129  pstree
  130  pstree -lap | less
  131  bash
  132  ps
  133  ps -l
  134  dd if=/dev/zero of=/tmp/disc.img bs=1k count=1M &
  135  id
  136  dd if=/dev/zero of=/tmp/disc.img bs=1k count=1M &> /dev/null &
  137  ps
  138  rm /tmp/disc.img 
  139  vim /var/tmp/carta.txt &
  140  man chat
  141  ps
  142  jobs
  143  tree \
  144  tree  /
  145  ps
  146  jobs
  147  sleep 999999999 &
  148  jobs
  149  fg 
  150  jobs
  151  fg %1
  152  jobs
  153  bg - 
  154  jobs
  155  fg
  156  jobs
  157  du / 2> /dev/null > /tmp/usage.txt
  158  jobs
  159  bg %6
  160  bg %4
  161  jobs
  162  pidof sleep
  163  cp /home/groups/inf/public/ASX/M01-Operatius/A02-05_processos/* /run/media/isx0276204/school_work/school_work01/sistemOperatius/
  164  history > /run/media/isx0276204/school_work/school_work01/command/12_12_2016_all_command_user_isx0276204.txt
  165  cat /run/media/isx0276204/school_work/school_work01/command/12_12_2016_all_command_user_isx0276204.txt
  166  casa=$~
  167  echo $casa
  168  casa=$(~)
  169  casa="$~"
  170  echo $casa
  171  casa="~"
  172  echo $casa
  173  casa=echo $~
  174  casa=$HOME
  175  eccho $casa
  176  echo $casa
  177  python
  178  python suma_de_cuadros_de_dos_number.py 
  179  python mirar_si_es_primo_or_no_bucle_for.py 
  180  python busar_todas_primo_menor_de_number.py 
  181  python busar_mejor_de_dived_entre_dos_number.py 
  182  cd netswithlinux
  183  git pull 
  184  cp /run/media/isx0276204/school_work/school_work01/xarxa/04_routing_and_bridges.md works/
  185  git commit -am "ultima exam"
  186  git push origin master 
  187  at
  188  man at
  189  vim /run/media/isx0276204/school_work/school_work01/sistemOperatius/15-A02-05_processos.txt 
  190  pstree 1783
  191  pstree -lap 1783
  192  pstree pere
  193  pstree -lap pere
  194  pstree -lap 
  195  pstree -lap 1783
  196  pstree -sp 1783
  197  pstree -spl 1783
  198  pstree -spla 1783
  199  pstree -spla pere
  200  pstree -uspla pere
  201  pstree -u pere
  202  pstree -uspla pere
  203  piof systemd
  204  pidof systemd 
  205  pidof -l systemd 
  206  pidof -c systemd 
  207  pidof systemd 
  208  pidof cupsd 
  209  pgrep -u root
  210  ps ax
  211  pstree -lap
  212  ps
  213  pstree -lap 1783
  214  ps
  215  ps -a
  216  ps -x
  217  ps x
  218  ps a
  219  ps -fu pere
  220  ps -Fu pere
  221  ps -fu pere
  222  ps axl
  223  ps axl | less
  224  man ps ax
  225  ps axl | less
  226  ps ax 
  227  ps 
  228  pstree
  229  ps
  230  pstree 1783
  231  bash
  232  su -
  233  python busar_mejor_de_dived_entre_dos_number.py 
  234  python compte_enrrera_minuts_segons.py 
  235  python count_xifer_de_um_int_number_with_while_no_str_function.py 
  236  python suma_de_xifer_un_int_number_using_while_not_str.py 
  237  python
  238  echo carta{7..12}.{odt,pdf}
  239  echo carta{{7..12},{a..c}}
  240  echo {carta{{7..12},{a..c}} infera trebell{5,7}}.txt
  241  touch carta[a,b,c]
  242  rm carta\[a\,b\,c\] 
  243  echo carta[abc]
  244  echo carta[a]
  245  cd /tmp/
  246  mkdir prova
  247  cd prova/
  248  touch carta{a..c}.txt
  249  ls -la carta[abc].txt
  250  ls -la carta[a].txt
  251  ls -la carta?.txt
  252  ls -la carta[0-9].txt
  253  ls -la carta[0-9][a-z].txt
  254  ls -la carta[0-9]s.txt
  255  ls -la carta
  256  ls -la carta[!0-9].txt
  257  ls -la carta[!0-9a].txt
  258  ls -la carta*.txt
  259  ls -la
  260  alias
  261  lscpu
  262  cat << w
  263  hello
  264  ok
  265  goo
  266  w
  267  alias
  268  export nom=parveen
  269  env | grep nom
  270  grep "ftp" /etc/services | tee carta.txt | sort > sortcarta.txt
  271  ip a
  272  man iptables
  273  man builtin
  274  ps
  275  kill -15 2800
  276  ps
  277  kill -9 2800
  278  vim /run/media/isx0276204/school_work/school_work01/sistemOperatius/15-A02-05_processos.txt 
  279  ps
  280  kill -15 3441
  281  ps
  282  killall  3441
  283  ps
  284  killall 
  285  kill -l
  286  ps
  287  kill SIGTERM 3441
  288  kill -SIGTERM 3441
  289  ps
  290  sleep 1000 &
  291  kill -SIGTERM 3511
  292  ps
  293  man killall 
  294  killall -l
  295  killall -L
  296  kill -L
  297  kill -l
  298  killall -l
  299  sleep 1000 &
  300  ps
  301  killall sleep 
  302  ps
  303  ps ax | grep ming
  304  ps ax | grep mingetty
  305  ps
  306  bash
  307  stats="$?"
  308  date
  309  stats="$?"
  310  echo $stats
  311  date -d
  312  stats="$?"
  313  echo $stats
  314  select id_fab,producto,descripcion,existencias,count(distinct clie) as "num clientes diferentes from pedidos join productos on fab = id_fab and producto = id_producto group by id_fab,id_producto;
  315  select id_fab,producto,descripcion,existencias,count (distinct clie) as "num clientes diferentes from pedidos join productos on fab = id_fab and producto = id_producto group by id_fab,id_producto;
  316  select id_fab,producto,descripcion,existencias,count (distinct clie) as "num clientes diferentes" from pedidos join productos on fab = id_fab and producto = id_producto group by id_fab,id_producto;
  317  select id_fab,producto,descripcion,existencias,count(distinct clie) as "num clientes diferentes" from pedidos join productos on fab = id_fab and producto = id_producto group by id_fab,id_producto;
  318  su postgres
  319  cd ..
  320  cd /run/media/isx0276204/ED82-6B04/cadena/
  321  python cadena_cambiar_para_invertida.py 
  322  python cadena_cambiar_para_invertida_i_mostra_vertical.py 
  323  python buscar_un_letter_in_cadena.py 
  324  python dni_number_and_last_lletra.py 
  325  python compta_paraula.py 
  326  python compta_paraula.py 'ok hrllo'
  327  python compta_paraula.py < ok hrllo
  328  python compta_paraula.py < ok
  329  python compta_paraula.py 
  330  su -
  331  who
  332  ps ax
  333  echo $SHLVL
  334  exit
  335  echo $prefix
  336  dmesg | less
  337  sleep 5
  338  sleep 2
  339  sleep 2 || echo "hello"
  340  sleep 2 && echo "hello"
  341  (sleep 2 && echo "hello") && (sleep 2 && echo "ok")
  342  timeout 2
  343  man timeout
  344  timeout 2 echo "ok"
  345  timeout -s 2 
  346  timeout -2 
  347   
  348  man timeout
  349  man ps
  350  man ps as
  351  man ps ax
  352  ps ax
  353  who
  354  w
  355  ps ax
  356  ps axp
  357  ps -ax
  358  ps -axp
  359  ps -ax
  360  ps ax
  361  who
  362  man ps 
  363  bash && exit && ps ax
  364  sleep 10000 &
  365  ps
  366  cd /tmp/
  367  mkdir prova
  368  cd prova/
  369  vim hello.txt &
  370  ps
  371  ps -S
  372  bg %3
  373  bg %4
  374  ps
  375  ps -S
  376  sleep 100000
  377  ps
  378  ps -S
  379  bg -
  380  ps
  381  ps -s
  382  ps -S
  383  jobs 3481
  384  jobs %3481
  385  jobs 
  386  ps -S
  387  jobs
  388  jobs 
  389  kill %3
  390  jobs 
  391  fg %1
  392  jobs 
  393  fg +
  394  tree / &> /dev/null
  395  bg +
  396  ps
  397  ps -S
  398  tree / &> /dev/null
  399  bg +
  400  ps -S
  401  ps -<
  402  echo $SHLVL
  403  kill -l
  404  vim /run/media/isx0276204/school_work/school_work01/sistemOperatius/15-A02-05_processos.txt 
  405  man 5 cronup
  406  man 5 cron
  407  man 5 crontab
  408  at
  409  man cron
  410  man cronab
  411  man crontab
  412  man ascii
  413  python
  414  cd /run/media/isx0276204/school_work/school_work01/programacio/all_program/cadena/
  415  python busar_cadena_mejor_i_compte_paraula_entre_a_Z.py 
  416  python arbul_de_navidad.py 
  417  python arbul_de_navidad.py 16
  418  python arbul_de_navidad.py 
  419  python arbul_de_navidad.py | wc -l
  420  python arbul_de_navidad.py 
  421  ping 10.200.199.3
  422  cd /tmp/
  423  vim task.cron
  424  crontab task.cron 
  425  crontab -l
  426  rm task.cron 
  427  crontab -l
  428  crontab -l > task.cron
  429  vim task.cron 
  430  crontab task.cron
  431  crontab -l
  432  crontab -e 
  433  crontab -l
  434  ls
  435  crontab -e 
  436  man at
  437  at 14:00
  438  atq
  439  uptime -a
  440  uname -a
  441  uptime
  442  free
  443  vmstat
  444  top
  445  ps ax
  446  pstree -a
  447  pstree -al
  448  pstree -alp
  449  ps
  450  ps -l
  451  pstree -lap 2027
  452  pstree -slap 2027
  453  kill 2027
  454  kill -l
  455  vim task
  456  ps
  457  jobs
  458  fg %1
  459  vim /run/media/isx0276204/school_work/school_work01/sistemOperatius/15-A02-05_processos.txt 
  460  cd /home/groups/inf/hisx1/MP1-Operatius/
  461  conntrack -L
  462  man iptable
  463  man iptables
  464  ip a
  465  netstat -a
  466  su -
  467  su postgres
  468  cd /tmp/
  469  cd /tmp/
  470  pgrep -l X
  471  echo $DISPLAY
  472  ps ax | grep X
  473  cd /tmp/
  474  cd /var/tmp/
  475  mkdir m01
  476  cd m01/
  477  cp /etc/passwd .
  478  cp /etc/services .
  479  ls
  480  grep "smtp" services 
  481  grep "^smtp" services 
  482  grep "bash$" passwd 
  483  grep "mail$" services | wc -l
  484  grep "mail$" services
  485  grep "[bash]*" passwd 
  486  grep -v "[bash]*" passwd 
  487  grep -v "[^bash]*" passwd 
  488  grep -v "bash" passwd 
  489  grep -i "pop" services 
  490  grep "pop" services 
  491  grep -i "pop" services | wc --l
  492  grep -i "pop" services | wc -l
  493  echo "hola radiola, adeu andreu"
  494  echo "hola radiola, adeu andreu" | grep ola
  495  echo "hola radiola, adeu andreu" | grep hola
  496  echo $?
  497  echo "hola radiola, adeu andreu" | grep "hola$"
  498  echo $0
  499  echo $?
  500  echo "hola radiola, adeu andreu" | grep "^hola"
  501  echo $?
  502  echo "holi radiola, adeu andreu" | grep "hola"
  503  echo "holi radiola, adeu andreu" | grep "hola|holi"
  504  echo "holi radiola, adeu andreu" | grep -"hola | holi"
  505  cat /etc/fstab 
  506  grep -v "ext4" /etc/fstab 
  507  grep -v "ext4" /etc/fstab | grep -v "^#"
  508  grep "root" passwd 
  509  grep "^root" passwd 
  510  grep "^root:" passwd 
  511  head passwd 
  512  grep "100" passwd 
  513  echo "aa:bb:cc:dd:ee" | grep "b"
  514  echo "aa:bb:cc:dd:ee" | grep ":b:"
  515  echo "aa:bb:cc:dd:ee" | grep ":b.:"
  516  echo "ba:bb:bc:bd:be" | grep ":b.:"
  517  echo "ba:bb:bc:bd:be" | grep ":b[ad]:"
  518  echo "ba:bb:bc:bd:be" | grep ":[bb]:"
  519  echo "ba:bb:bc:bd:be" | grep ":[b]:"
  520  echo "ba:bb:bc:bd:be" | grep ":b:"
  521  echo "ba:bb:bc:bd:be" | grep ":b.:"
  522  echo "ba:bb:bc:bd:be" | grep "ba"
  523  echo "ba:bb:bc:bd:be" | grep "ba | bc"
  524  echo "ba:bb:bc:bd:be" | grep "^ba | bc"
  525  echo "ba:bb:bc:bd:be" | grep "^ba "
  526  echo "ba:bb:bc:bd:be" | grep "^ba"
  527  echo "ba:bb:bc:bd:be" | grep "^ba|be$"
  528  echo "ba:bb:bc:bd:be" | grep "^ba"
  529  echo -e "ba:bb:bc:bd:be"
  530  echo -e "ba:bb:bc:bd:be\n ok"
  531  echo -e "ba:bb:bc:bd:be \n bc"
  532  echo -e "ba:bb:bc:bd:be \nbc"
  533  echo -e "ba:bb:bc:bd:be \nbc" | grep "bc"
  534  echo -e "ba:bb:bc:bd:be \nbc" | grep "ba"
  535  echo -e "ba:bb:bc:bd:be \nbc" | grep "^ba"
  536  echo -e "ba:bb:bc:bd:be \nbc" | grep "^ba|^bc"
  537  echo -e "ba:bb:bc:bd:be \nbc" | grep "^ba|bc"
  538  echo -e "ba:bb:bc:bd:be \nbc" | grep "^[ba]"
  539  echo -e "ba:bb:bc:bd:be \nbc" | grep "^ba"
  540  echo "aa:bb:b:dd:ee" | grep "ba"
  541  echo "aa:bb:b:dd:ee" | grep "b"
  542  echo "aa:bb:bb:dd:ee" | grep "bb"
  543  echo "aa:bb:bb:dd:ee" | grep ":bb:"
  544  echo "aa:bb:bb:dd:ee" | grep ".*:bb:"
  545  echo "aa:bb:bb:dd:ee" | grep ".*[^:]:bb:"
  546  echo "aa:bb:bb:dd:ee" | grep ":bb:"
  547  grep "root" passwd 
  548  grep ".*root" passwd 
  549  echo "a:b:c:d:e:f"
  550  echo "a:b:c:d:e:f" | grep ":b:"
  551  echo "a:b:c:d:e:f" | grep "^.*:b:"
  552  echo "a:b:c:d:b:e:f" | grep "^.*:b:"
  553  echo "a:b:c:d:b:e:f" | grep "^[!:]*:b:"
  554  echo "a:b:c:d:b:e:f" | grep "^[^:]*:b:"
  555  echo "a:b:c:d:b:e:f" | grep "[^h]"
  556  echo "a:b:c:d:b:e:f" | grep "[!h]"
  557  echo "a:b:c:d:b:e:f" | grep "[h]"
  558  echo "a:b:c:d:b:e:f" | grep "[^h]"
  559  echo "a:b:c:d:b:e:f" | grep "[^a]"
  560  echo "a:b:c:d:b:e:f" | grep "[^f]"
  561  echo "a:b:c:d:b:e:f" | grep "^.*:b:"
  562  echo "a:b:c:d:b:e:f" | grep "^[^:]*:[^:]*:b:"
  563  echo "a:b:c:d:b:e:f" | grep "^[^:]*:[^:]*:c:"
  564  echo $?
  565  echo "x:a:b:c:d:b:e:f" | grep "^[^:]*:[^:]*:c:"
  566  echo "a:b:c:d:b:e:f" | grep "^[^:]*:[^:]*:c:"
  567  echo "aaa:b:c:d" | grep "a*"
  568  echo "aaa:b:c:d" | grep "c*"
  569  echo "aaa:b:c:d" | grep "z*"
  570  echo "4456792A" 
  571  echo "4456792A" | grep "[0-9]7"
  572  echo "4456792A" | grep "[0-9]{8}"
  573  echo "4456792A" | grep "[0-9]{8}[A-Z]"
  574  echo "44567924A" | grep "[0-9]{8}[A-Z]"
  575  echo "44567924A" | egrep "[0-9]{8}[A-Z]"
  576  echo "44567924A" | egrep "^[0-9]{8}[A-Z]$"
  577  echo "0044567924A" | egrep "^[0-9]{8}[A-Z]$"
  578  echo "44567924A" | egrep "^[0-9]{8}[A-Z]$"
  579  echo "44567924A" | egrep "^[0-9]{8}[A-Z]$|^[0-9]{8}[a-z]$"
  580  echo "44567924a" | egrep "^[0-9]{8}[A-Z]$|^[0-9]{8}[a-z]$"
  581  echo "445679241" | egrep "^[0-9]{8}[A-Z]$|^[0-9]{8}[a-z]$"
  582  echo "B-1245-PQ"
  583  echo "B-1245-PQ" | grep "^[A-Z]-[0-9]{4}-[A-Z][A-Z]$"
  584  echo "B-1245-PQ" | grep "^[A-Z]{1,2}-[0-9]{4}-[A-Z]{2}$"
  585  echo "B-1245-PQ" | grep "^[A-Z]{1,2}-[0-9]{4}-[A-Z]{1,2}$"
  586  echo "B-1245-PQ" | egrep "^[A-Z]{1,2}-[0-9]{4}-[A-Z]{1,2}$"
  587  history > /run/media/isx0276204/school_work/school_work01/command/9_1_2016.txt
  588  man grep
  589  python print_cadena_misimo_de_logitud.py < hola
  590  python print_cadena_misimo_de_logitud.py 
  591  python compta_vocals_maxi_i_min.py 
  592  python escribar_despres_de_cada_paraula_una_word.py 
  593  cd netswithlinux
  594  git merge upstream/master 
  595  git pull upstream 
  596  git merge upstream/master 
  597  ls
  598  git push origin 
  599  git push origin master 
  600  cd guide/es/
  601  ls
  602  chromium-browser 04-initialconf-network-hardware.md 
  603  chromium-browser 02-iptables.md &
  604  cd /var/tmp/m01/
  605  echo "5643 NFP" | egrep "^[[:digit:]]{4} [[:alpha:]]{3}"
  606  echo "512346789D" | egrep "^[[:digit:]]{8} [[:alpha:]]$"
  607  echo "512346789D" | egrep "^[[:digit:]]{8} [:alpha:]$"
  608  echo "512346789D" | egrep "^[[:digit:]]{8} [[:alpha:]]$"
  609  echo "512346789D" | egrep "^[[:digit:]]{8} [[:alpha:]]{1}$"
  610  echo "512346789D" | egrep "^[[:digit:]]{8}[[:alpha:]]{1}$"
  611  echo "512346789D" | egrep "^[[:digit:]]{8}[[:alpha:]]$"
  612  echo "51234678D" | egrep "^[[:digit:]]{8}[[:alpha:]]$"
  613  echo "51234678D" | egrep "^[[:digit:]]{8}[[:alpha:]]$" || echo "error"
  614  echo "51234678" | egrep "^[[:digit:]]{8}[[:alpha:]]$" || echo "error"
  615  echo "51234678" | egrep "^[[:digit:]]{8}[[:alpha:]]$" || echo "no valid"
  616  echo "51234678" | egrep "^[[:digit:]]{8}[[:alpha:]]$" &> /dev/null || echo "no valid"
  617  echo "51234678A" | egrep "^[[:digit:]]{8}[[:alpha:]]$" &> /dev/null || echo "no valid"
  618  echo "51234678A" | egrep "^[[:digit:]]{8}[[:alpha:]]$" &> /dev/null && echo "valid"
  619  echo "51234678A" | (egrep "^[[:digit:]]{8}[[:alpha:]]$" &> /dev/null && echo "valid") || echo "no valida"
  620  echo "51234678A" | (egrep "^[[:digit:]]{8}[[:alpha:]]$" &> /dev/null && echo "valid") || echo "no valida"
  621  cat > matricula.txt
  622  cat matricula.txt | egrep "^[A-Z]{1,2}-[0-9]{4}-[A-Z]{1,2}$"
  623  vim matricula.txt
  624  cat matricula.txt | egrep "^[A-Z]{1,2}-[0-9]{4}-[A-Z]{1,2}$"
  625  egrep "^[A-Z]{1,2}-[0-9]{4}-[A-Z]{1,2}$" matricula.txt 
  626  egrep "^[A-Z]{1,2}-[0-9]{4}-[A-Z]{1,2}$ | ^[0-9]{4} [A-Z]{3}$" matricula.txt 
  627  egrep "^[A-Z]{1,2}-[0-9]{4}-[A-Z]{1,2}$|^[0-9]{4} [A-Z]{3}$" matricula.txt 
  628  velles="[A-Z]{1,2}-[0-9]{4}-[A-Z]{1,2}$"
  629  noves="[0-9]{4} [A-Z]{3}$"
  630  egrep "velles|noves" matricula.txt 
  631  egrep "$velles|$noves" matricula.txt 
  632  noves="^[0-9]{4} [A-Z]{3}$"
  633  egrep "velles|noves" matricula.txt 
  634  egrep "$velles|$noves" matricula.txt 
  635  velles="^[A-Z]{1,2}-[0-9]{4}-[A-Z]{1,2}$"
  636  egrep "velles|noves" matricula.txt 
  637  egrep "$velles|$noves" matricula.txt 
  638  echo "00000001A" | egrep "^[0-9]{8}[A-Z]$"
  639  echo "00000001A" | grep "^[0-9]\{8\}[A-Z]$"
  640  echo "00000001A" | grep "^[0-9]\{8}[A-Z]$"
  641  echo "00000001A" | grep "^[0-9]{8}[A-Z]$"
  642  echo "hola [ramon] que tal" | grep "[ramon]"
  643  echo "hola [ramon] que tal" | grep "\[ramon\]"
  644  man grep
  645  Asu -
  646  su -
  647  cd netswithlinux
  648  cd guide/es/
  649  chromium-browser 02-iptables.md 
  650  bg %1
  651  jobs
  652  chromium-browser 02-iptables.md &
  653  python escribar_despres_de_cada_paraula_una_word.py 
  654  python escribar_cada_parabla_logitud_para_vertical.py 
  655  python escribar_despres_de_cada_paraula_una_word.py 
  656  python escribar_cada_parabla_logitud_para_vertical.py 
  657  python cheak_si_es_un_number_int_or_not.py 52
  658  python cheak_si_es_un_number_int_or_not.py +52
  659  python cheak_si_es_un_number_int_or_not.py -52
  660  python cheak_si_es_un_number_int_or_not.py -+52
  661  python cheak_si_es_un_number_int_or_not.py 52
  662  python cheak_si_es_un_number_int_or_not.py 59
  663  python cheak_si_es_un_number_int_or_not.py +9
  664  python cheak_si_es_un_number_int_or_not.py +9+
  665  python cheak_si_es_un_number_int_or_not.py 9+
  666  python cheak_si_es_un_number_int_or_not.py 9
  667  python cheak_si_es_un_number_int_or_not.py 5
  668  python cheak_si_es_un_number_int_or_not.py +5
  669  python cheak_si_es_un_number_int_or_not.py ++5
  670  python cheak_si_es_un_number_int_or_not.py +9
  671  python cheak_si_es_un_number_int_or_not.py -5
  672  python cheak_si_es_un_number_int_or_not.py .5
  673  python cheak_si_es_un_number_int_or_not.py 35
  674  python cheak_si_es_un_number_int_or_not.py 3.5
  675  python cheak_si_es_un_number_int_or_not.py -3
  676  python cheak_si_es_un_number_int_or_not.py .5
  677  python cheak_si_es_un_number_int_or_not.py 5a
  678  python cheak_si_es_un_number_int_or_not.py 0
  679  python cheak_si_es_un_number_int_or_not.py .
  680  python
  681  chromium-browser guide/es/02-iptables.md &
  682  iptables -L
  683  git fetch upstream
  684  git merge upstream/master 
  685  git add exercises/05_iptables.md 
  686  git commit -am "new ejercici iptable"
  687  git pull origin 
  688  git push origin 
  689  git push origin master 
  690  cd netswithlinux
  691  git fetch upstream 
  692  git merge origin/master 
  693  git push origin 
  694  git pull origin 
  695  git pull origin master 
  696  su -
  697  man tr
  698  man cut
  699  man sort
  700  cd /var/tmp/m01/
  701  ls
  702  man tar
  703  man tr
  704  echo "la la la" |tr 'a' 'i'
  705  echo "la la la" |tr 'a' 'L'
  706  echo "hola mama" | tr 'm' 'p'
  707  echo "hola mama que tal" | tr 'mama' 'pere'
  708  cat passwd 
  709  head -n5 passwd 
  710  head -n5 passwd | tr ':' ' '
  711  head -n5 passwd | tr ':' ','
  712  head -n5 passwd | tr ':' '$'
  713  head -n5 passwd | tr ':' '\t'
  714  echo "hola mama que tal" | tr '[:lower:]' '[:upper:]'
  715  echo "hola mama que tal" | tr '' 'A-Z'
  716  echo "hola mama que tal" | tr '[:lower:]' '[:upper:]'
  717  head -n 5 passwd| tr '[:lower:]' '[:upper:]'
  718  head -n 5 passwd| tr '[:lower:]01234' '[:upper:]@+--'
  719  head -n 5 passwd| tr '[:lower:]01234' '[:upper:]@+--#'
  720  cat /etc/fstab 
  721  cp /etc/fstab .
  722  ls
  723  echo "hoooola maaaaamaaa" | tr 'a' '' 
  724  echo "hoooola maaaaamaaa" | tr 'a' ' ' 
  725  echo "hoooola maaaaamaaa" | tr -s 'a' 
  726  echo "hoooola maaaaamaaa" | tr -s 'a' '~'
  727  echo "hoooola maaaaamaaa" | tr -s 'a' '$'
  728  echo "hola  mama que   tal "
  729  echo "hola  mama que   tal " | tr ' ' ':'
  730  echo "hola  mama que   tal " | tr -s [:blank:]'
  731  echo "hola  mama que   tal " | tr -s '[:blank:]'
  732  echo "hola  mama que   tal " | tr -s '[:blank:]' ':'
  733  echo "hola  mama que   tal " | tr -s '[:blank:]' '\t'
  734  vim text.txt
  735  cat text.txt 
  736  cat text.txt | tr -s '[:blank:]' '$'
  737  cat text.txt | tr -s '\t' '$'
  738  cat text.txt | tr -s '\t' 'x'
  739  cat text.txt | tr -s ' ' 'x'
  740  cat text.txt | tr -s '[:blank:]' '\t'
  741  cat text.txt | tr -s '[:blank:]' ' '
  742  cat text.txt | tr -s [' ','\t'] ' '
  743  cat fstab | grep -v "^#"
  744  cat fstab | grep -v "^#" | tr '[:blank:]' ' '
  745  cat fstab | grep -v "^#" | tr -s '[:blank:]' ' '
  746  cat fstab | grep -v "^#" | tr -s '[:blank:]' '\t'
  747  cat fstab | grep -v "^#" | tr -s '[:blank:]' ':'
  748  ll /boot/
  749  ll /boot/ | tr -s '[:blank:]' ' '
  750  ll /boot/ | tr -s '[:blank:]' ' ' | cut -f1,3,7 -d' '
  751  ll /boot/ | tr -s '[:blank:]' ' ' | cut -c1
  752  ll /boot/ | tr -s '[:blank:]' ' ' | cut -f1 -d' '
  753  ll /boot/ | tr -s '[:blank:]' ' ' | cut -f1 -d' ' | cut -c2,9
  754  ll /boot/ | tr -s '[:blank:]' ' ' | cut -f1 -d' ' | cut -c2-9
  755  ll /boot/ | tr -s '[:blank:]' ' ' | cut -f1 -d' ' | cut -c2-10
  756  ll /boot/ | tr -s '[:blank:]' ' ' | cut -f1 -d' ' | cut -c50-
  757  ll /boot/ | tr -s '[:blank:]' ' ' | cut -f1 -d' ' | cut -c50
  758  ll /boot/ | tr -s '[:blank:]' ' ' | cut -f1 -d' ' | cut -c50-$
  759  ll /boot/ | tr -s '[:blank:]' ' ' | cut -f1 -d' ' | cut -c50
  760  ll /boot/ | tr -s '[:blank:]' ' ' | cut -f1 -d' ' | cut -c50-
  761  ll /boot/ | tr -s '[:blank:]' ' ' | cut -c50-
  762  ll /boot/ | tr -s '[:blank:]' ' ' | cut -f1 -d' ' -c50-
  763  ll /boot/ | tr -s '[:blank:]' ' ' | cut -f1 -c50-
  764  ll /boot/ | tr -s '[:blank:]' ' ' | cut -f1 -c50- -d' '
  765  ll /boot/ | tr -s '[:blank:]' ' ' | cut -f1 -d' '
  766  ll /boot/ | tr -s '[:blank:]' ' ' | cut -c2-10
  767  ll /boot/ | tr -s '[:blank:]' ' ' | cut -c2-10 -c50
  768  ll /boot/ | tr -s '[:blank:]' ' ' | cut -c2-10,50
  769  ll /boot/ | tr -s '[:blank:]' ' ' | cut -c2-10,50-
  770  head passwd 
  771  head passwd | cut -c1-10
  772  head passwd | cut -f1 -d' '
  773  head passwd | cut -f1 -d':'
  774  head passwd | cut -f1 -d:
  775  head passwd | cut -f1,3,5 -d:
  776  head passwd | cut -f1,3,5- -d:
  777  head passwd | cut -f1,3 -d:
  778  head passwd | cut -f3,1 -d:
  779  ll /boot/ | tr '[:blank:]' ' ' | cut -f1,3 
  780  ll /boot/ | tr '[:blank:]' ' ' | cut -f1,3 -d' '
  781  ll /boot/ | tr '[:blank:]' ' ' | cut -f1,3,5 -d' '
  782  ll /boot/ | tr -s '[:blank:]' ' ' | cut -f1,3,5 -d' '
  783  ll /boot/ | tr -s '[:blank:]' ' ' | cut -f1,3,5 
  784  ll /boot/ | tr -s '[:blank:]' ' ' | cut -f1,3,5 -d
  785  ll /boot/ | tr -s '[:blank:]' ' ' | cut -f1,3,5 -d 
  786  ll /boot/ | tr -s '[:blank:]' ' ' | cut -f1,3,5 -d' '
  787  ll /boot/ | tr -s '[:blank:]' '\t' | cut -f1,3,5 -d' '
  788  ll /boot/ | tr -s '[:blank:]' '\t' | cut -f1,3,5
  789  ll /boot/ | tr -s '[:blank:]' '\t' | cut -f1,3,5 | sort -f3
  790  ll /boot/ | tr -s '[:blank:]' '\t' | cut -f1,3,5 | sort -3
  791  ll /boot/ | tr -s '[:blank:]' '\t' | cut -f1,3,5 | sort -k3
  792  ll /boot/ | tr -s '[:blank:]' '\t' | cut -f1,3,5 | sort -k3g,3 -t' '
  793  head passwd | cut -f3 -d:
  794  head passwd | cut -f3 -d: | sort -r
  795  head passwd | cut -f3 -d: | sort -rg
  796  head passwd | cut -f3 -d: | sort 
  797  head passwd | cut -f3 -d: | sort -g
  798  head passwd | cut -f3 -d: | sort -rg
  799  head passwd | cut -f3 -d: | sort -rn
  800  head passwd | cut -f3 -d: | sort -rH
  801  head passwd | cut -f3 -d: | sort -rh
  802  head -n 15 passwd | cut -f4 -d: | sort -rh
  803  head -n 15 passwd | cut -f1,3,4 -d: 
  804  head -n 15 passwd | cut -f1,3,4 -d: | sort
  805  head -n 15 passwd | cut -f1,3,4 -d: | sort r
  806  head -n 15 passwd | cut -f1,3,4 -d: | sort -r
  807  head -n 15 passwd | cut -f1,3,4 -d: | sort -k2 -t':'
  808  head -n 15 passwd | cut -f1,3,4 -d: | sort -k3 -t':'
  809  head -n 15 passwd | cut -f1,3,4 -d: | sort -k3,3 -t':'
  810  head -n 15 passwd | cut -f1,3,4 -d: | sort -k2,2 -t':'
  811  head -n 15 passwd | cut -f1,3,4 -d: | sort -g -k2,2 -t':'
  812  head -n 15 passwd | cut -f1,3,4 -d: | sort  -k2g,2 -t':'
  813  head -n 15 passwd | cut -f1,3,4 -d: | sort  -k2gr,2 -t':'
  814  head -n 15 passwd | cut -f1,3,4 -d: | sort  -k2gr,3 -t':'
  815  head -n 15 passwd | cut -f1,3,4 -d: | sort  -k2gr,3g -t':'
  816  head -n 15 passwd | cut -f1,3,4 -d: | sort  -k3g,3 -t':'
  817  head -n 15 passwd | cut -f1,3,4 -d: | sort  -k3g,3 -k2g,2 -t':'
  818  head -n 15 passwd | cut -f1,3,4 -d: | sort  -k3g,3 -k1r,1 -t':'
  819  history > /run/media/isx0276204/school_work/school_work01/command/12_01_2017_all_commad.txt
  820  cat /run/media/isx0276204/school_work/school_work01/command/12_01_2017_all_commad.txt
  821  cp -r /home/groups/inf/public/ASX/M01-Operatius/A03-06_PER/  /run/media/isx0276204/school_work/school_work01/sistemOperatius/exercise/
  822  ls /run/media/isx0276204/school_work/school_work01/sistemOperatius/exercise/A03-06_PER/
  823  python
  824  dmesg | less
  825  su postgres
  826  cd ..
  827  cd all_examen/
  828  cd examen5/
  829  python exercici_2.py 
  830  python exercici_2.py 6
  831  python exercici_2.py 5
  832  python exercici_2.py 1
  833  python exercici_2.py 0
  834  python exercici_2.py 6
  835  python exercici_2.py 10
  836  python exercici_2.py 6
  837  python exercici_2.py 10
  838  python exercici_2.py 30
  839  python exercici_2.py 500
  840  python exercici_2.py 30
  841  python exercici_2.py 4
  842  python exercici_2.py 5
  843  python exercici_2.py 6
  844  python exercici_2.py 28
  845  python exercici_2.py 6
  846  python exercici_2.py 5
  847  python exercici_2.py 0
  848  python exercici_2.py 
  849  python exercici_3_1.py 
  850  python exercici_3.2.py 
  851  python exercici_3.2.py
  852  su postrgres
  853  su postgres
  854  echo "16-01-2017" | grep "^[0-9]{2}-[0-9]{2}-[0-9]{4}"
  855  echo "16-01-2017" | egrep "^[0-9]{2}-[0-9]{2}-[0-9]{4}"
  856  echo "16-01-2017" | egrep "^[0-3][0-9]-[0-1][0-9]-[0-9]{4}"
  857  echo "16-01-2017" | egrep "^[0-3][0-9]-[0-1][0-9]-[0-9]{4}$"
  858  echo "16-01-2017" | egrep "^[0-3][0-9]-[0-1][0-9]-[0-9]{4}$|^[0-3][0-9]/[0-1][0-9]/[0-9]{4}$"
  859  echo "16/01/2017" | egrep "^[0-3][0-9]-[0-1][0-9]-[0-9]{4}$|^[0-3][0-9]/[0-1][0-9]/[0-9]{4}$"
  860  date_1="^[0-3][0-9]-[0-1][0-9]-[0-9]{4}$"
  861  date_2="^[0-3][0-9]/[0-1][0-9]/[0-9]{4}$"
  862  echo "16/01/2017" | egrep "$date_1|$date_2"
  863  echo "16-01-2017" | egrep "$date_1|$date_2"
  864  echo "16-01/2017" | egrep "$date_1|$date_2"
  865  echo "16/01/2017" | egrep "$date_1|$date_2"
  866  cd /var/tmp/m01/
  867  ls
  868  cat passwd | cut -f4 -d':'
  869  cat passwd | sort -k4g -t':'
  870  cat passwd | sort -k4,4g -t':' | tr ':' '\t'
  871  cat passwd | sort -k4,4 -t':' | tr ':' '\t'
  872  cat passwd | sort -kg4,4 -t':' | tr ':' '\t'
  873  cat passwd | sort -k4g,4 -t':' | tr ':' '\t'
  874  cat passwd | sort -k4g,4 -t':' | tr ':' '\t\t'
  875  cat passwd | sort -rk1g,1 -t':'
  876  cat passwd | sort -rk1g,1 -t':'| tr ':' '\t'
  877  cat passwd | sort -k4g,4 -rk1,1 -t':'| tr ':' '\t'
  878  ll /boot/
  879  ll /boot/ | tr '[:blank:]' '\t' 
  880  ll /boot/ | tr '[:blank:]' '\t' | cut -f1,3,5 -s'\t'
  881  ll /boot/ | tr '[:blank:]' '\t' | cut -f1,3,5 -d'\t'
  882  ll /boot/ | tr '[:blank:]' '\t' | cut -f1,3,5  -d'\t'
  883  ll /boot/ | tr '[:blank:]' '\t' | cut -f1  -d'\t'
  884  ll /boot/ | tr '[:blank:]' '\t' | cut -f1 
  885  ll /boot/ | tr '[:blank:]' '\t' | cut -f1,3,5 
  886  ll /boot/ | tr -s '[:blank:]' '\t' | cut -f1 
  887  ll /boot/ | tr -s '[:blank:]' '\t' | cut -f1,3,5 
  888  ll /boot/ | tr -s '[:blank:]' ' ' | cut -f1,3,5 
  889  ll /boot/ | tr -s '[:blank:]' ' ' | cut -f1,3,5 -d 
  890  ll /boot/ | tr -s '[:blank:]' ' ' | cut -f1,3,5 -d' '
  891  vim noms.txt
  892  cat noms.txt 
  893  cp noms.txt noms_copy.txt 
  894  sed 's/jordi/pere/' noms.txt 
  895  cat noms
  896  cat noms.txt 
  897  sed 's/puig/ferrer/' noms.txt 
  898  sed 's/puig/ferrer/' noms.txt > dades.txt
  899  cat dades.txt 
  900  cat noms.txt 
  901  sed 's/puig/----/' noms.txt 
  902  sed 's/puig//' noms.txt 
  903  vim noms.txt 
  904  sed 's/puig/xx/' noms.txt 
  905  sed 's/puig/xx/g' noms.txt 
  906  sed 's/puig/xxxx/g' noms.txt 
  907  echo "pere anna marta anna aanna jordi pau anna" | sed s'/anna/maria/g'
  908  cat noms.txt 
  909  cat noms.txt | sed 's/a/@/g'
  910  sed 's/a/@/g' noms.txt 
  911  sed 's/a//g' noms.txt 
  912  cat noms.txt | tr ':' ' ' | sed '^[^:]*:[^:]*:barcelona:[^:]$ s/puig/ferrer/g' 
  913  cat noms.txt | tr ':' ' ' | sed -e '^[^:]*:[^:]*:barcelona:[^:]$ s/puig/ferrer/g' 
  914  cat noms.txt | tr ':' ' ' | sed -e '/^[^:]*:[^:]*:barcelona:[^:]$/ s/puig/ferrer/g' 
  915  cat noms.txt | tr ' ' ':' | sed -e '/^[^:]*:[^:]*:barcelona:[^:]$/ s/puig/ferrer/g' 
  916  cat noms.txt | tr ' ' ':' | sed -e '/1,4/ s/puig/ferrer/g' 
  917  cat noms.txt | tr ' ' ':' | sed -e '/3-/ s/puig/ferrer/g' 
  918  cat noms.txt | sed -e '/3-/ s/puig/ferrer/g' 
  919  cat noms.txt | sed -e '/1,2/ s/puig/ferrer/g' 
  920  cat noms.txt | sed '/1,2/ s/puig/ferrer/g' 
  921  cat noms.txt | sed '1,2 s/puig/ferrer/g' 
  922  cat noms.txt | sed '3- s/puig/ferrer/g' 
  923  cat noms.txt | sed '3,$ s/puig/ferrer/g' 
  924  cat noms.txt | sed '/jordi/,/zoe/ s/puig/ferrer/g' 
  925  cat noms.txt | sed '/girona/,/puigros/ s/puig/ferrer/g' 
  926  cat noms.txt | sed '/girona/,/puigros/ s/puig/ferrer/' 
  927  vim noms.txt 
  928  cat noms.txt | sed '/girona/,/puigros/ s/puig/ferrer/' 
  929  cat noms.txt | sed '/girona/,/puiggros/ s/puig/ferrer/' 
  930  cat noms.txt | sed '/girona/,/puiggros/ s/puig/ferrer/g' 
  931  vim noms.txt 
  932  cat noms.txt | sed '/girona/,/puigros/ s/puig/ferrer/g' 
  933  vim noms.txt 
  934  cat noms.txt | sed '/girona/,/puigros/ s/puig/ferrer/g' 
  935  vim noms.txt 
  936  cat noms.txt | sed '/girona/,/puigros/ s/puig/ferrer/g' 
  937  cat noms.txt | sed '/zeo/ s/*//g' 
  938  cat noms.txt | sed 's/^zoe.*$//g' 
  939  echo "hola xxx, que x tal xxx" | sed 's/x/-/g'
  940  echo "hola xxx, que x tal xxx" | sed 's/x//g'
  941  echo "hola xxx, que x tal xxx" | sed 's/x*/x/g'
  942  echo "hola xxx, que x tal xxx" | sed 's/xx*/x/g'
  943  echo "cognom:adreca" | sed 's/^[^:]*:/-----/g'
  944  echo "cognom:adreca" | sed 's/^[^:]*:/-----:/g'
  945  echo "cognom:adreca" | sed 's/^[^:]*://g'
  946  echo "cognom:adreca" | sed 's/^.*://g'
  947  echo "ramon:18:barcelona" | sed s'/^*:/-----:/g'
  948  echo "ramon:18:barcelona" | sed s'/^[^:]*:/-----:/g'
  949  echo "ramon:18.barcelona" | sed s'/^[^:]*:/-----:/g'
  950  echo "ramon.18:barcelona" | sed s'/^[^:]*:/-----:/g'
  951  echo "ramon.18:barcelona" | sed s'/^[^.:]*:/-----:/g'
  952  echo "ramon.18:barcelona" | sed s'/^[^:]*:/-----:/g'
  953  echo "ramon:18:barcelona" | sed s'/^[^:]*:/-----:/g'
  954  echo "ramon:18:barcelona" | sed s'/^*:/-----:/g'
  955  echo "ramon:18:barcelona" | sed s'/:[^:]*$/-----:/g'
  956  echo "ramon:18:barcelona" | sed s'/:[^:]*$/:-----/g'
  957  man sed
  958  python
  959  python exercici_3.2.py 
  960  cd ..
  961  cd all_program/cadena/
  962  python cheak_si_es_un_number_real_or_not.py 2.5
  963  python cheak_si_es_un_number_real_or_not.py 2
  964  python cheak_si_es_un_number_real_or_not.py 2.5
  965  python cheak_si_es_un_number_real_or_not.py 2.+5
  966  python cheak_si_es_un_number_real_or_not.py 2.55
  967  python cheak_si_es_un_number_real_or_not.py 2.5.5
  968  python cheak_si_es_un_number_real_or_not.py 2a5
  969  python cheak_si_es_un_number_real_or_not.py 35
  970  n
  971  ls
  972  ls-la
  973  ls -la
  974  cd ..
  975  ls
  976  cd cadena/
  977  ls
  978  python cheak_si_es_un_number_real_or_not.py 35
  979  python cheak_si_es_un_number_real_or_not.py 35a
  980  python cheak_si_es_un_number_real_or_not.py 35.5
  981  python cheak_si_es_un_number_real_or_not.py 35..5
  982  python cheak_si_es_un_number_real_or_not.py 35
  983  python cheak_si_es_un_number_real_or_not.py 3.5
  984  python cheak_si_es_un_number_real_or_not.py 3+5
  985  python cheak_si_es_un_number_real_or_not.py -3
  986  python cheak_si_es_un_number_real_or_not.py .5
  987  python cheak_si_es_un_number_real_or_not.py 0.5
  988  python cheak_si_es_un_number_real_or_not.py 5A
  989  python cheak_si_es_un_number_real_or_not.py 0
  990  python cheak_si_es_un_number_real_or_not.py +5
  991  python cheak_si_es_un_number_real_or_not.py ++5
  992  python cheak_si_es_un_number_real_or_not.py .
  993  python cheak_si_es_un_number_real_or_not.py 5.
  994  python cheak_si_es_un_number_real_or_not.py 5.0
  995  dbf -y install minicorn
  996  su -
  997  lsusb
  998  journalctl -r | grep -i usb | head -n 50
  999  su -
 1000  cd /var/tmp/m01/
 1001  echo "pere:pau" | sed s'/^([^:]*):([^:]*)$/\2\1/g'
 1002  echo "pere:pau" | sed -r s'/^([^:]*):([^:]*)$/\2\1/g'
 1003  echo "pere:pau" | sed -r s'/^([^:]*):([^:]*)$/\2:\1/g'
 1004  echo "pere:pou" | sed -r s'/^([^:]*):([^:]*)$/\2:\1/g'
 1005  echo "pere:pou" | sed -r s'/^([^:]*):([^:]*)$/<\2>\1/g'
 1006  echo "pere:pou" | sed -r s'/^([^:]*):([^:]*)$/<\2>:\1/g'
 1007  echo "pere:pou" | sed -r s'/^([^:]*):([^:]*)$/\2\1/g'
 1008  echo "pere:pou" | sed -r s'/^([^:]*):([^:]*)$/\2:\1/g'
 1009  echo "pere:pou" | sed -r s'/^([^:]*):([^:]*)$/\/\2:\1/g'
 1010  echo "pere:pou" | sed -r s'/^([^:]*):([^:]*)$/\2\/\1/g'
 1011  echo "pere:pou" | sed -r s'/^([^:]*):([^:]*)$/\2\ / \1/g'
 1012  echo "pere:pou" | sed -r s'/^([^:]*):([^:]*)$/\2 \/ \1/g'
 1013  echo "pere:hisix:aprovat" | sed 's/^([^:]*):hisix:/\1:asix:/g' 
 1014  echo "pere:hisix:aprovat" | sed -r 's/^([^:]*):hisix:/\1:asix:/g' 
 1015  echo "pere:puig:x:98:100:bash" | sed -r 's/^(.*):([^:]*:[^:]*)$/\2\1/g' 
 1016  echo "pere:puig:x:98:100:bash" | sed -r 's/^(.*):([^:]*:[^:]*)$/\2\1:/g' 
 1017  echo "pere:puig:x:98:100:bash" | sed -r 's/^(.*):([^:]*:[^:]*)$/\2:\1/g' 
 1018  echo "pere:puig:x:98:100:bash" | sed -r 's/^(.*):([^:]*:[^:]*$)/\2:\1/g' 
 1019  echo "pere:puig:x:98:100:bash" | sed -r 's/(^.*):([^:]*:[^:]*$)/\2:\1/g' 
 1020  echo "pere:puig:x:98:100:bash" | sed -r 's/^(.*):([^:]*:[^:]*)$/\2:\1/g' 
 1021  echo "934309200" | sed -r 's/^[0-9][0-9]//g'
 1022  echo "934309200" | sed -r 's/^[0-9]{2}//g'
 1023  echo "934309200" | sed -r 's/^[0-9]{2}/xx/g'
 1024  echo "934309200" | sed -r 's/^[0-9]{2}/\(xx)/g'
 1025  echo "934309200" | sed -r 's/^([0-9]{2})/\1/g'
 1026  echo "934309200" | sed -r 's/^([0-9]{2})/\(1)/g'
 1027  echo "934309200" | sed -r 's/^([0-9]{2})/\(\1)/g'
 1028  echo "934309200" | sed -r 's/^([0-9]{2})/(\1)/g'
 1029  echo "934309200" | sed -r 's/^([0-9]{2})(0-9]{3})([0-9]{2})([0-9]{2})/(\1) \2-\3-\4/g'
 1030  echo "934309200" | sed -r 's/^([0-9]{2})(0-9]{3})([0-9]{2})([0-9]{2})/\1 \2-\3-\4/g'
 1031  echo "934309200" | sed -r 's/^([0-9]{2})(0-9]{3})([0-9]{2})([0-9]{2})/\1 \2 \3 \4/g'
 1032  echo "934309200" | sed -r 's/^([0-9]{2})(0-9]{3})([0-9]{2})([0-9]{2})$/\1 \2 \3 \4/g'
 1033  echo "934309200" | sed -r 's/^([0-9]{2})(0-9]{3})([0-9]{2})([0-9]{2})$/\1 /g'
 1034  echo "934309200" | sed -r 's/^([0-9]{2})(0-9]{3})([0-9]{2})([0-9]{2})$//g'
 1035  echo "1350" | sed -r 's/^(.*)([0-9])([0-9])([0-9])$/\1/g'
 1036  echo "1350" | sed -r 's/^(.*)([0-9])([0-9])([0-9])$/\1.\2\3\4/g'
 1037  echo "18350" | sed -r 's/^(.*)([0-9])([0-9])([0-9])$/\1.\2\3\4/g'
 1038  cat noms.txt | sed 's/mas/x/g'
 1039  cat noms.txt | sed 's/mas/xxxx/g'
 1040  cat noms.txt | sed 's/puig/xxxx/g'
 1041  nom="mas"
 1042  cat noms.txt | sed 's/$nom/xxxx/g'
 1043  cat noms.txt | sed -r 's/$nom/xxxx/g'
 1044* cat noms.txt | sed -r 's//xxxx/g
 1045  nom="mas"
 1046  echo 'no ha substituit $nom"
 1047  echo 'no ha substituit $nom'
 1048  echo "no ha substituit $nom"
 1049  cat noms.txt | sed -r "s/$nom/xxxx/g"
 1050  cat noms.txt | sed "s/$nom/xxxx/g"
 1051  vim hostia.txt
 1052  vim hostia.txt | wc -l
 1053  cat hostia.txt | wc -l
 1054  cat hostia.txt | sort
 1055  uniq hostia.txt 
 1056  cat hostia.txt 
 1057  cat hostia.txt | sort
 1058  cat hostia.txt | sort | uniq
 1059  cat hostia.txt | sort | uniq | wc -l
 1060  cat passwd 
 1061  cat passwd | cut -f4 -d:
 1062  cat passwd | cut -f4 -d: | sort
 1063  cat passwd | cut -f4 -d: | sort | uniq
 1064  cat passwd | cut -f4 -d: | sort | wc -l
 1065  cat passwd | cut -f4 -d: | sort | uniq | wc -l
 1066  cat passwd | cut -f4 -d: | sort -g | uniq | wc -l
 1067  head -n 15 passwd 
 1068  head -n 15 passwd | grep "2"
 1069  head -n 15 passwd | grep "^[^:]*:[^:]*:2:"
 1070  echo "12345678A" | grep "^[0-9]{8}[a-Z]"
 1071  echo "12345678A" | grep "^[0-9]{8}[a-Z]$"
 1072  echo "12345678A" | grep "^[0-9]{8}[A-Z]$"
 1073  echo "12345678A" | egrep "^[0-9]{8}[A-Z]$"
 1074  echo "12345678b" | egrep "^[0-9]{8}[A-Z]$"
 1075  echo "12345678B" | egrep "^[0-9]{8}[A-Z]$"
 1076  echo "1234567B" | egrep "^[0-9]{8}[A-Z]$"
 1077  echo "12345673B" | egrep "^[0-9]{8}[A-Z]$"
 1078  echo "123456733B" | egrep "^[0-9]{8}[A-Z]$"
 1079  echo "12345673B" | egrep "^[0-9]{8}[A-Z]$"
 1080  history > /run/media/isx0276204/school_work/school_work01/command/18_01_2017_all_command.txt
