    1  cd /tmp/
    2  cp Notes_hisx_2016-17_MP1_Operatius.pdf Notes_hisx_2016-17_MP1_Operatius.txt
    3  cat Notes_hisx_2016-17_MP1_Operatius.txt 
    4  man sort
    5  identitat=$(whoami date id)
    6  identitat=(whoami date id)
    7  echo $identitat 
    8  identitat="whoami date id"
    9  echo $identitat 
   10  cd /tmp/
   11  sort > file.txt
   12  ls
   13  cat file.txt 
   14  identitat=$whoami
   15  echo $identitat 
   16  whoami
   17  identitat=whoami
   18  echo $identitat 
   19  identitat=$"whoami"
   20  echo $identitat 
   21  sort
   22  whoami
   23  identitat=echo $whoami
   24  identitat=whoami
   25  echo $identitat 
   26  identitat="whoami"
   27  echo $identitat 
   28  identitat="eco $whoami"
   29  echo $identitat 
   30  nom=$(whoami)
   31  echo $nom
   32  nom=$(whoami id)
   33  nom="$(whoami id)"
   34  nom=$(whoami)
   35  echo $nom
   36  nom=$(whoami)
   37  cd ..
   38  cd funcion/
   39  python funcio_edat.py 5
   40  python funcio_edat.py 18
   41  python funcio_edat.py 0
   42  python funcio_edat.py -5
   43  echo $?
   44  python funcio_edat.py g
   45  echo $?
   46  python funcio_edat.py g f
   47  echo $?
   48  python funcio_edat.py 20
   49  python funcio_edat.py 18
   50  python funcio_edat.py '18'
   51  python funcio_edat.py '17'
   52  python mirar_si_es_number_prefecto_or_no.py 5
   53  python mirar_si_es_number_prefecto_or_no.py 6
   54  python mirar_si_es_number_prefecto_or_no.py 7
   55  python mirar_si_es_number_prefecto_or_no.py 28
   56  python mirar_si_es_number_prefecto_or_no.py 496
   57  python mirar_si_es_number_prefecto_or_no.py 497
   58  python mirar_si_es_number_prefecto_or_no.py 0
   59  python mirar_si_es_number_prefecto_or_no.py 1
   60  python 
   61  python mirar_si_es_number_prefecto_or_no.py 6
   62  python all_menor_number_prefecto_de_un_number_int.py 6
   63  python all_menor_number_prefecto_de_un_number_int.py 320
   64  python all_menor_number_prefecto_de_un_number_int.py 500
   65  python all_menor_number_prefecto_de_un_number_int.py 0
   66  python all_menor_number_prefecto_de_un_number_int.py 6
   67  python all_menor_number_prefecto_de_un_number_int.py 65
   68  python all_menor_number_prefecto_de_un_number_int.py 5
   69  python all_menor_number_prefecto_de_un_number_int.py 6
   70  python mirar_si_es_number_prefecto_or_no.py 6
   71  python mirar_si_es_number_prefecto_or_no.py 60
   72  python mirar_si_es_number_prefecto_or_no.py 0
   73  python all_menor_number_prefecto_de_un_number_int.py 0
   74  python all_menor_number_prefecto_de_un_number_int.py 6
   75  python all_menor_number_prefecto_de_un_number_int.py 5
   76  python all_menor_number_prefecto_de_un_number_int.py 100
   77  python all_menor_number_prefecto_de_un_number_int.py 500
   78  python n_primer_number_de_n_times.py 2
   79  python n_primer_number_de_n_times.py 3
   80  python n_primer_number_de_n_times.py 4
   81  man ascii
   82  man ascii
   83  python
   84  su postgres
   85  su -
   86  cd /var/tmp/m01/
   87  sort noms.txt 
   88  ll
   89  ll | tr -s '[:blank:]' ' ' 
   90  ll | tr -s '[:blank:]' ' ' | cut -f9
   91  ll | tr -s '[:blank:]' ' ' | cut -f9 -d' '
   92  ll | tr -s '[:blank:]' ' ' | cut -f9 -d' ' | sort
   93  ll | tr -s '[:blank:]' ' ' | sort -k5g,5 -t' '
   94  ll | tr -s '[:blank:]' ' ' | sort -k9g,3,4,5 -t' '
   95  ll | tr -s '[:blank:]' ' ' | sort -k9,3,4,5 -t' '
   96  ll | tr -s '[:blank:]' ' ' | sort -k9 -t' '
   97  ll | tr -s '[:blank:]' ' ' | sort -k9 -k3 -t' '
   98  ll /boot/ | tr -s '[:blank:]' ' ' | sort -k9 -k3 -t' '
   99  ll /boot/ | tr -s '[:blank:]' ' ' | sort -k9 -k3 -k5 -t' '
  100  ll /boot/ | tr -s '[:blank:]' ' ' | sort -k9g -k3 -k5g -t' '
  101  ll /boot/ | tr -s '[:blank:]' ' ' | sort -k9g -k3 -k5g -t' ' | cut -f9,5
  102  ll /boot/ | tr -s '[:blank:]' ' ' | sort -k9g -k3 -k5g -t' ' | cut -f9,5 -d' '
  103  ll /boot/ | tr -s '[:blank:]' ' ' | sort -k9g -k3 -k5g -t' ' | cut -f1,5 -d' '
  104  ll /boot/ | tr -s '[:blank:]' ' ' | sort -k9g -k3 -k5g -t' ' | cut -f9,5 -d' '
  105  ll /boot/ | tr -s '[:blank:]' ' ' | sort -k9g -t' ' | cut -f9,5 -d' '
  106  ll /boot/ | tr -s '[:blank:]' ' ' | sort -k9g,k5 -t' ' | cut -f9,5 -d' '
  107  ll /boot/ | tr -s '[:blank:]' ' ' | sort -k9g,9 -t' ' | cut -f9,5 -d' '
  108  ll /boot/ | tr -s '[:blank:]' ' ' | sort -k9g,5 -t' ' | cut -f9,5 -d' '
  109  ll /boot/ | tr -s '[:blank:]' ' ' | sort -k9g,5,4 -t' ' | cut -f9,5 -d' '
  110  ll /boot/ | tr -s '[:blank:]' ' ' | sort -k9g,5 -t' ' | cut -f9,5 -d' '
  111  ll /boot/ | tr -s '[:blank:]' ' ' | sort -k9g,5 -t' ' 
  112  ll /boot/ | tr -s '[:blank:]' ' ' | sort -k9,9 -k5g -t' ' 
  113  ll /boot/ | tr -s '[:blank:]' ' ' | sort -k9,9 -k3,3 -k4,4 -k5g,5 -t' ' 
  114  sort final.txt 
  115  grep -v "^ " final.txt 
  116  egrep -v "^ " final.txt 
  117  egrep final.txt 
  118  ll /boot/
  119  cat final.txt 
  120  cat final.txt | cut -f2 -d' '
  121  cat final.txt | tr -s '[:blanl:]' ' ' | cut -f2 -d' '
  122  cat final.txt | tr -s '[:blank:]' ' ' | cut -f2 -d' '
  123  cat final.txt | tr -s '[:blanl:]' ' ' | cut -f2- -d' '
  124  cat final.txt | tr -s '[:blank:]' ' ' | cut -f2- -d' '
  125  cat final.txt | tr -s '[:blank:]' ' ' |
  126  cat final.txt | tr -s '[:blank:]' ' ' 
  127  cat final.txt | tr -s '[:blank:]' ' ' | cut -f3-
  128  cat final.txt | tr -s '[:blank:]' ' ' | cut -f3- -d' '
  129  cat final.txt | tr -s '[:blank:]' ' ' | cut -f2- -d' '
  130  cat final.txt | tr -s '[:blank:]' ' ' | cut -f3- -d' '
  131  cat final.txt | tr -s '[:blank:]' ' ' | cut -f3- -d' ' | grep -v "^ "
  132  cat final.txt | tr -s '[:blank:]' ' ' | cut -f3- -d' ' | grep -v "^' '"
  133  cat final.txt | tr -s '[:blank:]' ' ' | cut -f3- -d' ' | egrep -v "^' '"
  134  cat final.txt | tr -s '[:blank:]' ' ' | cut -f3- -d' ' | egrep -v "^ "
  135  cat final.txt | tr -s '[:blank:]' ' ' | cut -f3- -d' ' | grep -v "^1"
  136  cat final.txt | tr -s '[:blank:]' ' ' 
  137  ll /boot/
  138  ll /boot/ | tr -s '[:blank:]' ' ' 
  139  ll /boot/ | tr -s '[:blank:]' ' ' | cut -f5- -d' '
  140  ll /boot/ | tr -s '[:blank:]' ' ' | cut -f5- -d' ' > final.txt 
  141  cat final.txt 
  142  grep -v "^ " final.txt 
  143  grep -v "^1" final.txt 
  144  grep -v "^" final.txt 
  145  grep -v "^ " final.txt 
  146  grep -v "^.* " final.txt 
  147  grep -v " " final.txt 
  148  grep -v "^ " final.txt 
  149  ll /boot/
  150  ll /boot/ | cut -c10
  151  ll /boot/ | cut -c2-10
  152  ll /boot/ | cut -c2-10,50-
  153  ll /boot/ | cut -c2-10,40-
  154  ll /boot/ | cut -c2-10,46-
  155  ll /boot/ 
  156  ll /boot/ | tr -s '[:blank:]' ' '
  157  ll /boot/ | tr -s '[:blank:]' '\t'
  158  ll /boot/ | tr -s '[:blank:]' '\t' | cut -c1-80
  159  ll /boot/ | tr -s '[:blank:]' '\t' | cut -c1-70
  160  ll /boot/ | tr -s '[:blank:]' '\t' | cut -c1-50
  161  ll /boot/ | tr -s '[:blank:]' '\t' | cut -f1,3,5,9 -d'\t'
  162  ll /boot/ | tr -s '[:blank:]' ' ' | cut -f1,3,5,9 -d' '
  163  ll /boot/ | tr -s '[:blank:]' ' ' | cut -f1,3,5,9 -d' ' | tr '[:lower:]' '[:uuper:]'
  164  ll /boot/ | tr -s '[:blank:]' ' ' | cut -f1,3,5,9 -d' ' | tr -s '[:lower:]' '[:uuper:]'
  165  ll /boot/ | tr -s '[:blank:]' ' ' | cut -f1,3,5,9 -d' ' | tr  '[:lower:]' '[:upper:]'
  166  ll /boot/ | tr -s '[:blank:]' ' ' | cut -f1,3,5,9 -d' ' | tr  '[:lower:]' '[:upper:]' | cut -c2-
  167  ll /boot/ | tr -s '[:blank:]' ' ' | cut -f1,3,5,9 -d' ' | tr  '[:lower:]' '[:upper:]' | cut -c2- | tr ' ' ':'
  168  ll /boot/ | tr -s '[:blank:]' ' ' | cut -f1,3,5,9 -d' ' | tr  '[:lower:]' '[:upper:]' | cut -c2- | tr ' ' ':' | sort -k3g,3 -t':'
  169  ll /boot/ | tr -s '[:blank:]' ' ' | cut -f1,3,5,9 -d' ' | tr  '[:lower:]' '[:upper:]' | cut -c2- | tr ' ' ':' | sort -k3gr,3 -t':'
  170  ll /boot/ | tr -s '[:blank:]' ' ' | cut -f1,3,5,9 -d' ' | tr  '[:lower:]' '[:upper:]' | cut -c2- | tr ' ' ':' | sort -k3gr,3 -k4r,4 -t':'
  171  tail -n 15 passwd 
  172  tail -n 15 passwd  | sort -k4g,4 -t:
  173  tail -n 15 passwd  | tr ':' '\t' | sort -k4g,4 -t'\t'
  174  tail -n 15 passwd  | tr ':' ' ' | sort -k4g,4 -t' '
  175  tail -n 15 passwd  | tr ':' '\t' | sort -k4g,4 -t' '
  176  tail -n 15 passwd  | tr ':' '\t' | sort -k4g,4 
  177  tail -n 15 passwd  | grep "100"
  178  tail -n 15 passwd  | grep "^[^:]*:[^:]*:[^:]*:1:"
  179  tail -n 15 passwd  | grep "^[^:]*:[^:]*:[^:]*:100:"
  180  tail -n 15 passwd  | grep "^[^:]*:[^:]*:[^:]*:1000:"
  181  tail -n 15 passwd  | grep "^[^:]*:[^:]*:[^:]*:100:"
  182  tail -n 15 passwd  | grep "^[^:]*:[^:]*:[^:]*:100"
  183  tail -n 15 passwd  | grep "^[^:]*:[^:]*:[^:]*:100" | cut -f1,3 -d:
  184  tail -n 15 passwd  | grep "^[^:]*:[^:]*:[^:]*:100" | cut -f1,3 -d: | sed 's/(:[^:]*$)/(\1)/g'
  185  tail -n 15 passwd  | grep "^[^:]*:[^:]*:[^:]*:100" | cut -f1,3 -d: | sed -e 's/(:[^:]*$)/(\1)/g'
  186  tail -n 15 passwd  | grep "^[^:]*:[^:]*:[^:]*:100" | cut -f1,3 -d: | sed -r 's/(:[^:]*$)/(\1)/g'
  187  tail -n 15 passwd  | grep "^[^:]*:[^:]*:[^:]*:100" | cut -f1,3 -d: | sed -r 's/:([^:]*$)/(\1)/g'
  188  tail -n 15 passwd  | grep "^[^:]*:[^:]*:[^:]*:100" | cut -f1,3 -d: | sed -r 's/^([^:]*):([^:]*$)/\2\\1/g'
  189  tail -n 15 passwd  | grep "^[^:]*:[^:]*:[^:]*:100" | cut -f1,3 -d: | sed -r 's/^([^:]*):([^:]*$)/\2\1/g'
  190  tail -n 15 passwd  | grep "^[^:]*:[^:]*:[^:]*:100" | cut -f1,3 -d: | sed -r 's/^([^:]*):([^:]*$)/\2:\1/g'
  191  tail -n 15 passwd  | grep "^[^:]*:[^:]*:[^:]*:100" | cut -f1,3 -d: | sed -r 's/^([^:]*):([^:]*)$/\2:\1/g'
  192  tail -n 15 passwd  | grep "^[^:]*:[^:]*:[^:]*:100" | cut -f1,3 -d: | sed -r 's/(^[^:]*):([^:]*)$/\2:\1/g'
  193  tail -n 15 passwd  | grep "^[^:]*:[^:]*:[^:]*:100" | cut -f1,3 -d: | sed -r 's/^([^:]*):([^:]*)$/\2:\1/g'
  194  vim /run/media/isx0276204/school_work/school_work01/sistemOperatius/exercise/A03-06_PER/16-A03-06_filtres.txt 
  195  piter
  196  wget httpÑ--img03.deviantart.net-65d1-i-2015-281-6-5-princess?peach?wallpaper?by?theblazypics'd9ceb3f.png
  197  mv -usr-share-backgrounds-f24-default-wide-f24.png -usr-share-backgrounds-f24-default-wide-f24.png.old
  198  cp princess?peach?wallpaper?by?theblazypics'd9ceb3f.png -usr-share-backgrounds-f24-default-wide-f24.png
  199  setxkbmap us
  200  exit
  201  su -
  202  exit
  203  su -
  204  su /
  205  jupiter
  206  su /
  207  su -
  208  python quadrat_number.py 
  209  python exercici_3.2.py 
  210  python quadrat_number.py 
  211  python
  212  su -
  213  cd /var/tmp/m01/
  214  ls *.sh
  215  ll *.sh
  216  bash 01-exempla.sh 
  217  chmod +x 01-exempla.sh 
  218  ll *.sh
  219  ./01-exempla.sh 
  220  /var/tmp/m01/01-exempla.sh 
  221  echo $?
  222  /var/tmp/m01/01-exempla.sh 
  223  ps
  224  ps -lap 1196
  225  ps -lp 1196
  226  pstree 1196
  227  pstree -p 1196
  228  pstree -pa 1196
  229  pstree -lap 1196
  230  ps 1196
  231  ps -lap 1196
  232  pstree 1196
  233  pstree -p 1196
  234  pstree -a 1196
  235  pstree -a -s 1196
  236  sleep 123456789 &
  237  jobs
  238  pgrep sleep
  239  pgrep -a sleep
  240  pgrep -ap sleep
  241  pgrep -r sleep
  242  pgrep -a sleep
  243  killall sleep
  244  jobs
  245  sleep 123456789 &
  246  jobs
  247  pkill sleep
  248  jobs
  249  kill -l
  250  jobs
  251  sleep 123456789 &
  252  jobs
  253  fg %1
  254  jobs
  255  bg %1
  256  jobs
  257  fg %1
  258  tree /
  259  jobs
  260  bg %1
  261  jobs
  262  bg %2
  263  kill ½2
  264  jobs
  265  ps a
  266  tree / > /tmp/std.txt 2> /dev/null 
  267  jobs
  268  bg %2
  269  jobs
  270  ls -h /tmp/std.txt 
  271  ls -lh /tmp/std.txt 
  272  vim /tmp/dades.txt
  273  jobs
  274  fg %2
  275  jobs
  276  fg %2
  277  bg %2
  278  jobs
  279  ll /boot/
  280  ll /boot/ | tr -s '[:blank:]' ' '
  281  ll /boot/ | tr -s '[:blank:]' ' ' | cut -f1,3,5 -d' '
  282  ll /boot/ | tr -s '[:blank:]' ' ' | cut -f1,3,5 -d' ' | tr ' ' ':'
  283  ll /boot/ | tr -s '[:blank:]' ' ' | cut -f1,3,5 -d' ' | tr ' ' ':' | sed 's/^([^:]*):([^:]*):([^:]*)$/\1:\3:\2/g'
  284  ll /boot/ | tr -s '[:blank:]' ' ' | cut -f1,3,5 -d' ' | tr ' ' ':' | sed -r 's/^([^:]*):([^:]*):([^:]*)$/\1:\3:\2/g'
  285  ll /boot/ | tr -s '[:blank:]' ' ' | cut -f1,3,5 -d' ' | tr ' ' ':' | sed -r 's/:([^:]*):([^:]*)$/:\3:\2/g'
  286  ll /boot/ | tr -s '[:blank:]' ' ' | cut -f1,3,5 -d' ' | tr ' ' ':' | sed -r 's/:([^:]*):([^:]*)$/:\2:\1/g'
  287  cd /var/tmp/m01/
  288  sed -r 's/^([^:]*:[^:]*):([^:]*):/\2:\1/g' passwd 
  289  sed -r 's/^([^:]*:[^:]*):([^:]*):/\2:\1:/g' passwd 
  290  vim 01-exempla.sh
  291  bash
  292  mount -a
  293  mount
  294  mount -a
  295  ps ax
  296  bash
  297  python quadrat_number.py 
  298  python model_number_int_real.py 
  299  man if
  300  help if
  301  man test
  302  test 5 -ql 5
  303  test 5 -eq 5
  304  echo $?
  305  test 5 -eq 6
  306  echo $?
  307  test 15 -ge 5 && echo "ok"
  308  echo $?
  309  test 5 -ge 19 && echo "ok"
  310  echo$?
  311  echo $?
  312  [ 12-lt 20] ; echo $?
  313  [ 12 -lt 20] ; echo $?
  314  [ 12 -lt 20 ] ; echo $?
  315  edat=34
  316  [ $edat -gt 30 ] ; echo $?
  317  [ $edat -le 65 ] ; echo $?
  318  cd /var/tmp/m01/
  319  vim version-profe-03.sh
  320  cd /var/tmp/m01/
  321  ./01-exempla.sh 
  322  echo $?
  323  ./01-exempla.sh 
  324  chmod +x 02-exampla.sh 
  325  ./02-exampla.sh 
  326  ./02-exampla.sh mama papa
  327  ./02-exampla.sh mama papa pipi
  328  ./02-exampla.sh 1 2 3 4 5 6 7 8 9 10 11 12 13
  329  ./02-exampla.sh 1 2 3 4 5 6 7 8 9 aa bb cc
  330  man test
  331  chmod +x 03-exempla-validar-arg.sh 
  332  ./03-exempla-validar-arg.sh aa bb
  333  echo $?
  334  ./03-exempla-validar-arg.sh aa bb ss
  335  ./03-exempla-validar-arg.sh aa 
  336  ./03-exempla-validar-arg.sh a
  337  ./03-exempla-validar-arg.sh 
  338  ./03-exempla-validar-arg.sh aa dd
  339  chmod +x version-profe-03.sh 
  340  ./version-profe-03.sh 
  341  ./version-profe-03.sh aa dd
  342  ./version-profe-03.sh aa dd ss
  343  ./version-profe-03.sh aa dd ss dd
  344  cd /var/tmp/m01/
  345  ls -la
  346  cat /etc/fstab 
  347  cat /etc/fstab  | grep -v "^#"
  348  cat /etc/fstab  | grep "^#"
  349  cp /etc/fstab copy_fstab
  350  grep "^#" copy_fstab 
  351  vim copy_fstab 
  352  grep "^#" copy_fstab 
  353  grep "#" copy_fstab 
  354  grep "#.*" copy_fstab 
  355  grep " *#" copy_fstab 
  356  grep "^[[:blank:]]*#" copy_fstab 
  357  grep -v "^[[:blank:]]*#" copy_fstab 
  358  #egrep -v "^[[:blank:]]*#|^ copy_fstab 
  359  vim copy_fstab 
  360  grep "^[[:blank:]]*" copy_fstab 
  361  grep "^[[:blank:]]*$" copy_fstab 
  362  grep -v "^[[:blank:]]*$" copy_fstab 
  363  grep "^$" copy_fstab 
  364  grep "^$" copy_fstab | wc -l
  365  grep "^[[:blank:]]*$" copy_fstab | wc -l
  366  vim 01-exempla.sh 
  367  vim 02-exampla.sh
  368  head -n 01-exempla.sh > 02-exampla.sh 
  369  head -n 6 01-exempla.sh > 02-exampla.sh 
  370  vim 02-exampla.sh 
  371  head -n 7 01-exempla.sh > 03-exempla-validar-arg.sh 
  372  vim 03-exempla-validar-arg.sh 
  373  poweroff
  374  python modul_number.py 
  375  python modul_ip.py 
  376  su postgres
  377  cd /var/tmp/m01/
  378  ls
  379  rm ls
  380  ls
  381  cat version-profe-03.sh 
  382  ./04-exempla-validar-arg.sh a
  383  ./04-exempla-validar-arg.sh a a
  384  ./04-exempla-validar-arg.sh a a a
  385  ./04-exempla-validar-arg.sh a a 
  386  ./04-exempla-validar-arg.sh a a
  387  ./04-exempla-validar-arg.sh a
  388  ./04-exempla-validar-arg.sh a a
  389  ./04-exempla-validar-arg.sh a a a
  390  ./04-exempla-validar-arg.sh 
  391  ./03_b-exempla-validar-arg.sh 
  392  ./03_b-exempla-validar-arg.sh a
  393  ./03_b-exempla-validar-arg.sh a a
  394  ./03_b-exempla-validar-arg.sh a a a
  395  ./04-operador.sh 
  396  echo $?
  397  ./04-operador.sh 
  398  echo $0
  399  echo $?
  400  cd /var/tmp/m01/
  401  vim ls
  402  ls
  403  vim 03-exempla-validar-arg.sh 
  404  ./03-exempla-validar-arg.sh 
  405  ./03-exempla-validar-arg.sh a
  406  ./03-exempla-validar-arg.sh a a
  407  vim 03-exempla-validar-arg.sh 
  408  whoami
  409  mv  03-exempla-validar-arg.sh  04-exempla-validar-arg.sh 
  410  vim 04-exempla-validar-arg.sh 
  411  mv 04-exempla-validar-arg.sh 03_b-exempla-validar-arg.sh 
  412  ls
  413  mv 03_b-exempla-validar-arg.sh 
  414  vim 03_b-exempla-validar-arg.sh 
  415  vim 04-operador.sh
  416  head -n6 03_b-exempla-validar-arg.sh > 04-operador.sh 
  417  vim 04-operador.sh 
  418  chmod +x 04-operador.sh 
  419  vim 04-operador.sh 
  420  man test
  421  help test
  422  [ -d /tmp ] && echo $?
  423  [ -d /mam ] && echo $?
  424  help test
  425  [ 'hello' = 'hello' ]
  426  echo $?
  427  [ 'hello' = 'hell' ]
  428  echo $?
  429  [ 'mama' < 'papa' ]
  430  [ 'mama' \< 'papa' ] 
  431  echo $?
  432  [ 'papa' \< 'papa' ] 
  433  echo $?
  434  python modul_ip.py 
  435  python
  436  packettracer 
  437  cd netswithlinux
  438  git fetch upstream 
  439  git fetch upstream master:master 
  440  git fetch origin 
  441  git merge origin/master 
  442  git pull origin 
  443  git pull origin master 
  444  packettracer 
  445  cd /var/tmp/m01/
  446  ls
  447  vim 04-operador.sh 
  448  head -n6 04-operador.sh > 05-nota.sh
  449  vim 05-nota.sh 
  450  cd /var/tmp/m01/
  451  ./04-operador.sh 
  452  cd /var/tmp/m01/
  453  man test
  454  help test
  455  help if
  456  echo "1:hisix:30:30:ok"
  457  echo "1:hisix:30:30:ok" | grep "^.*:30:.*$"
  458  echo "1:hisix:30:30:ok" | grep "^.*:30:.*"
  459  echo "1:hisix:30:30:ok" | grep ".*:30:.*"
  460  echo "a:b:c:d:d:g:h" | grep ".*:d:"
  461  su - 
  462  python
  463  cd /var/tmp/m01/
  464  chmod +x 05-nota.sh 
  465  ls
  466  ./05-nota.sh 
  467  ./05-nota.sh 3
  468  ./05-nota.sh a
  469  ./05-nota.sh 15
  470  ./05-nota.sh
  471  ./05-nota.sh a 5
  472  ./05-nota.sh a
  473  ./05-nota.sh 4
  474  ./05-nota.sh 5
  475  ./05-nota.sh 6
  476  ./05-nota.sh 7
  477  ./05-nota.sh 10
  478  ./05-nota.sh 10 1
  479  ./05-nota.sh 4
  480  ./05-nota.sh 5
  481  ./05-nota.sh 6
  482  ./05-nota.sh 10
  483  ./05-nota.sh -1
  484  ./05-nota.sh 11
  485  cat 05-nota.sh 
  486  chmod +x 06-tipusfile.sh 
  487  ./06-tipusfile.sh passwd 
  488  ./06-tipusfile.sh passwd
  489  ./06-tipusfile.sh 1 3
  490  ./06-tipusfile.sh 
  491  ./06-tipusfile.sh 1
  492  ./06-tipusfile.sh passwd 
  493  ls -la
  494  ./06-tipusfile.sh ..
  495  ll /boot/
  496  ./06-tipusfile.sh /boot/
  497  ./06-tipusfile.sh /boot/efi/
  498  ./06-tipusfile.sh /boot/initramfs-0-rescue-1e1690dbdace49f68a1a8b888bb20205.img 
  499  ll /dev/
  500  ll /
  501  ./06-tipusfile.sh /sbin/
  502  ./06-tipusfile.sh /bin/
  503  ./06-tipusfile.sh /bin
  504  ./06-ampliat.sh -h
  505  ./06-ampliat.sh 
  506  ./06-ampliat.sh -h
  507  ./06-ampliat.sh 1
  508  ./06-ampliat.sh 1 2
  509  ./06-ampliat.sh passwd 
  510  ./06-ampliat.sh ..
  511  ./06-ampliat.sh /sbin/
  512  ./06-ampliat.sh /bin/
  513  ./06-ampliat.sh /sbin/
  514  ll /
  515  ./06-ampliat.sh /sbin/
  516  cd /var/tmp/m01/
  517  man teat
  518  man test
  519  man cp
  520  cd /var/tmp/m01/
  521  vim 05-nota.sh 
  522  head -n6 05-nota.sh > 06-tipusfile.sh
  523  vim 06-tipusfile.sh 
  524  cp 06-tipusfile.sh 06-ampliat.sh 
  525  vim 06-ampliat.sh 
  526  su postgres
  527  python
  528  su postgres
  529  cal
  530  date
  531  cal
  532  su postgres
  533  cd /var/tmp/m01/
  534  help for
  535  for nom in "pere" "marta" "anna"; do echo $nom; done
  536  for nom in 1 2 3 4 5 6; do echo $nom; done
  537  nomlist="pere marta jordi"
  538  for nom in $nomlist; do echo $nom; done
  539  for nom in "$nomlist"; do echo $nom; done
  540  ls *.sh
  541  for nom in ls *.sh ; do $nom; done
  542  for nom in ls *.sh ; do echo $nom; done
  543  for nom in $(ls *.sh) ; do echo $nom; done
  544  cut -f4 -d:
  545  cut -f4 -d: passwd 
  546  cut -f4 -d: passwd | sort -g | uniq
  547  for gid in $(cut -f4 -d: passwd | sort -g | uniq
  548  for gid in $(cut -f4 -d: passwd | sort -g | uniq); do echo $gid; done
  549  man test
  550  man echo
  551  cd /var/tmp/m01/
  552  ./06-tipusfile.sh 
  553  ./06-tipusfile.sh a
  554  ./06-tipusfile.sh -h
  555  ./06-tipusfile.sh passwd 
  556  ./06-tipusfile.sh /bin/
  557  ./06-tipusfile.sh /bin
  558  ./06-tipusfile.sh /bin/
  559  ./06-tipusfile.sh /bin
  560  ls /bin/
  561  ls /
  562  ls -la /
  563  ls -la
  564  chmod +x 07-example-for.sh 
  565  ./07-example-for.sh aa bb
  566  ./07-example-for.sh aa bb cc
  567  ./07-example-for.sh aa
  568  ./07-example-for.sh
  569  ./07-example-for.sh aa bb
  570  ./07-example-for.sh aa bb cc
  571  ./07-example-for.sh aa bb cc cc
  572  ./07-example-for.sh
  573  ./07-example-for.sh  
  574  ./07-example-for.sh aa
  575  ./07-example-for.sh aa bb
  576  ./07-example-for.sh   
  577  ./07-example-for.sh  qq
  578  ./07-example-for.sh  qq dd fff
  579  ./08-example-while.sh 1 2 3 4 5 6 7 8 9 10
  580  ./08-example-while.sh 0 1 2 3 4 5 6 7 8 9 10
  581  ./08-example-while.sh 
  582  ./08-example-while.sh 0 1 2 3 4 5 6 7 8 9 10
  583  ./08-example-while.sh aa bb cc
  584  ./08-example-while.sh aa bb cc mama papa
  585  cd /var/tmp/
  586  cd m01/
  587  ls
  588  vim 06-tipusfile.sh 
  589  head -n7  06-tipusfile.sh > 07-example-for.sh
  590  vim 07-example-for.sh 
  591  cp 07-example-for.sh 08-example-while.sh 
  592  vim 08-example-while.sh 
  593  python
  594  setxkbmap us
  595  wget --output-document=peach.png http://img03.deviantart.net/65d1/i/2015/281/6/5/princess_peach_wallpaper_by_theblazypics-d9ceb3f.png && gsettings set org.gnome.desktop.background picture-uri file://$PWD/peach.png && setxkbmap es && exit && exit
  596  history 
  597  setxkbmap us
  598  exit
  599  setxkbmap es
  600  python cuanta_dia_falta_anversari.py 01/01/1992
  601  python cuanta_dia_falta_anversari.py 07/02/1992
  602  python cuanta_dia_falta_anversari.py 06/02/1992
  603  python cuanta_dia_falta_anversari.py 06/01/1992
  604  python cuanta_dia_falta_anversari.py 06/03/1992
  605  python cuanta_dia_falta_anversari.py 06/06/1992
  606  python cuanta_dia_falta_anversari.py 06/02/1992
  607  python cuanta_dia_falta_anversari.py 07/02/1992
  608  python cuanta_dia_falta_anversari.py 08/02/1992
  609  python cuanta_dia_falta_anversari.py 09/02/1992
  610  python cuanta_dia_falta_anversari.py 09/03/1992
  611  python cuanta_dia_falta_anversari.py 08/02/1992
  612  python cuanta_dia_falta_anversari.py 07/02/1992
  613  python
  614  cd /var/tmp/m01/
  615  head -n7 08-example-while.sh > 09-example-while-cat.sh 
  616  vim 09-example-while-cat.sh 
  617  cp  09-example-while-cat.sh  10-example-case.sh 
  618  vim 10-example-case.sh 
  619  cp  10-example-case.sh 11-case-notes.sh 
  620  vim 11-case-notes.sh 
  621  vim 10-example-case.sh 
  622  cp 11-case-notes.sh 12-case-diames.sh 
  623  vim 12-case-diames.sh 
  624  cd /var/tmp/m01/
  625  chmod +x 09-example-while-cat.sh 
  626  ./09-example-while-cat.sh 
  627  who | ./09-example-while-cat.sh 
  628  ps | ./09-example-while-cat.sh 
  629  cd /var/tmp/m01/
  630  cut -d: -f1 passwd 
  631  cut -d: -f1 passwd | ./09-example-while-cat.sh 
  632  cat /etc/fstab 
  633  ./09-example-while-cat.sh < passwd 
  634  chmod +x 10-example-case.sh 
  635  ./10-example-case.sh 
  636  chmod +x 11-case-notes.sh 
  637  ./11-case-notes.sh 
  638  ls
  639  ./11-case-notes.sh 
  640  ./10-example-case.sh 
  641  chmod +x 12-case-diames.sh 
  642  ./12-case-diames.sh 1
  643  ./12-case-diames.sh 2
  644  ./12-case-diames.sh 3
  645  ./12-case-diames.sh 4
  646  ./12-case-diames.sh 1
  647  ./12-case-diames.sh 2
  648  ./12-case-diames.sh 3
  649  ./12-case-diames.sh 4
  650  ./12-case-diames.sh 412
  651  ./12-case-diames.sh 12
  652  ./12-case-diames.sh -h
  653  ./12-case-diames.sh 0
  654  ./12-case-diames.sh 
  655  ./12-case-diames.sh
  656  ./12-case-diames.sh -h 2
  657  ./12-case-diames.sh -h
  658  ./12-case-diames.sh 0
  659  ./12-case-diames.sh 12
  660  ./12-case-diames.sh 13
  661  ./12-case-diames.sh 2
  662  ./12-case-diames.sh 3
  663  ./12-case-diames.sh 4
  664  cd /home/groups/inf/public/ASX/M01-Operatius/A03-07_scripting/exemples-exercicis/
  665  ls -la
  666  cat prog-16_files-dir_omar.sh 
  667  cd ..
  668  cd all_examen/
  669  ls
  670  cd examen6/
  671  python exercici3.py 1
  672  python exercici3.py 0
  673  python exercici3.py 
  674  python exercici3.py 1 3
  675  python exercici3.py 4
  676  python exercici3.py a
  677  python exercici3.py 1
  678  python exercici3.py 0
  679  python exercici3.py 12
  680  python exercici3.py 124
  681  python exercici3.py 120
  682  python exercici3.py 100010001
  683  python exercici3.py 203
  684  python exercici3.py 202
  685  python exercici5.py 202
  686  python exercici_5.py 202
  687  python exercici_5.py 1
  688  python exercici_5.py 0
  689  python exercici_5.py 7
  690  python exercici_5.py 4
  691  python exercici_5.py a
  692  python exercici_6.py 0
  693  python exercici_6.py 1
  694  python exercici_6.py 50
  695  python exercici_6.py 7000
  696  python exercici_6.py 0
  697  python exercici_6.py 1
  698  python exercici_6.py 7000
  699  python exercici_6.py 1422773
  700  python exercici_6.py 1422775
  701  su postgres
  702  python
  703  su -
  704  su npostgres
  705  su postgres
  706  dc ..
  707  cd ..
  708  cd all_program/
  709  cd lista/
  710  python mostra_number_maxi.py 2 5 8 6 5
  711  python mostra_number_maxi.py 2 5 8 6 a
  712  python mostra_number_maxi.py 2 5 8 6 1.1
  713  python mostra_number_maxi.py 2 5 8 6 
  714  python mostra_number_maxi.py -2 -3 -5 -6
  715  python mostra_number_maxi.py 2 3 5 0
  716  python mostra_number_maxi.py 2 3 1 0
  717  python mostra_number_maxi.py -5
  718  python
  719  python mostra_number_maxi.py 2 3 1 0
  720  python mostra_number_maxi.py 2 31 1 0 4
  721  python mostra_number_maxi.py aa ab abc z a
  722  python mostra_number_maxi.py 2 31 1 0 4
  723  python mostra_number_maxi.py -5
  724  python mostra_number_maxi.py -5 -4
  725  python mostra_number_maxi.py -5 -4 -4
  726  su -
  727  cd netswithlinux
  728  git pull origin 
  729  cd guide/
  730  cd es/
  731  ls
  732  geany 00_cheatsheet_commands_for_networks.md &
  733  su -
  734  cd /var/tmp/m01/
  735  ls
  736  cat 09-example-while-cat.sh 
  737  cd /tmp/
  738  vim try01
  739  chmod +x try01 
  740  ls
  741  ./try01 aa bb cc
  742  vim try01
  743  ./try01 aa bb cc
  744  vim try01
  745  ./try01 aa bb cc
  746  vim try01
  747  ./try01 aa bb cc
  748  vim try01
  749  ./try01 aa bb cc
  750  vim try01
  751  ./try01 aa bb cc
  752  bash try01 aa bb cc
  753  /tmp/try01 
  754   /tmp/try01 
  755  /tmp/try01 aa bb cc 
  756  su -
  757  cd /var/tmp/m01/
  758  ls
  759  head -n10 12-case-diames.sh 13-for-while$2-while$#-ultima-argu.sh 
  760  head -n10 12-case-diames.sh > 13-for-while$2-while$#-ultima-argu.sh 
  761  cat 13-for-while-while0-ultima-argu.sh 
  762  vim 13-for-while-while0-ultima-argu.sh 
  763  ls
  764  vim 14-copyfiles.sh 
  765  ls
  766  cd /var/tmp/m01/
  767  chmod +x 13-for-while-while0-ultima-argu.sh 
  768  ./13-for-while-while0-ultima-argu.sh aa bb cc
  769  head -n7 13-for-while-while0-ultima-argu.sh > 14-copyfiles.sh
  770  echo "aa:bb:cc:dd:ee"
  771  echo "aa:bb:cc:dd:ee" | sed 's/^aa:/--:/'
  772  echo "aa:bb:cc:dd:ee" | sed 's/:ee$/--:/'
  773  echo "aa:bb:cc:dd:ee" | sed 's/:ee$/:--/'
  774  echo "aa:bb:cc:dd:ee" | sed 's/:[^:]*$/:--/'
  775  1992
  776  systemctl status sshd.service 
  777  chmod +x 14-copyfiles.sh 
  778  ./14-copyfiles.sh aa dd gg hh
  779  touch try{a..c}
  780  ls
  781  mkdir try_dir
  782  ls
  783  ./14-copyfiles.sh 
  784  ./14-copyfiles.sh a
  785  ./14-copyfiles.sh a a
  786  ./14-copyfiles.sh a try_dir
  787  ./14-copyfiles.sh trya tryb tryc try_dir
  788  ls try_dir/
  789  history > /run/media/isx0276204/school_work/school_work01/command/2017_02_05_all_command_usari.txt
  790  su -
  791  cd /run/media/isx0276204/school_work/school_work01/programacio/all_program/lista/
  792  python mostra_number_maxi.py 2 5 8 6 3
  793  python mostra_number_maxi.py -5 -8 -9 -6 -6
  794  python mostra_number_maxi.py -5 -8 -9 -6 0
  795  python elem_lista_commmon_i_different.py 
  796  python
  797  python mostra_number_maxi.py 2 4 6 8
  798  python mostra_number_maxi.py 2
  799  python mostra_number_maxi.py
  800  python elem_lista_commmon_i_different.py 
  801  su postgres
  802  python
  803  cd netswithlinux
  804  git pull
  805  git fetch upstream 
  806  git merge upstream/master 
  807  ip a
  808  geany exercises/09_mikrotik2.md &
  809  su -
  810  man passwd
  811  su -
  812  ip a
  813  man chage 
  814  pwd
  815  geany netswithlinux/exercises/09_mikrotik2.md &
  816  poweroff
  817  su postgres
  818  SU POSTGRES
  819  su postgres
  820  su -
  821  python
  822  su -
  823  cd netswithlinux
  824  geany exercises/09_mikrotik2.md &
  825  man useradd
  826  mount -a
  827  man useradd
  828  cat passwd | cut -f4 -d: | sort -g | uniq | wc -l
  829  python
  830  man useradd
  831  man 5 useradd
  832  man 5useradd
  833  man5 useradd
  834  man useradd
  835  man useradd 5
  836  man useradd 
  837  wine Downloads/winbox.exe 
  838   history >> /run/media/root/school_work/school_work01/command/2017_03_29_all_isx0276204_command.txt
  839  cd netswithlinux
  840  cp exercises/09_mikrotik2.md works/
  841  git add works/exam/
  842  git add works/09_mikrotik2.md 
  843  git -commit -am "ok ok"
  844  git commit -am "ok ok"
  845  git push 
  846  git push origin 
  847  git push origin master 
  848  ping 192.168.0.1
  849  cd netswithlinux
  850  geany exercises/09_mikrotik2.md  &
  851  su -
  852  su postgres
  853  cd /run/media/isx0276204/school_work/school_work01/programacio/all_examen/
  854  cd exam08/
  855  python exercici_3.py '1/7 1/60 -7/5 2714 1/4'
  856  python exercici_3.py 1/7 1/60 -7/5 2714 1/4
  857  python exercici_3.py 1/7 1/60 -7/5 2/14 1/4
  858  python exercici_3.py 1/7 1/60 -7/5 2/14 1/4 0.5
  859  python exercici_3.py 1/7 1/60 -7/5 2/14 1/4 0.7/5
  860  python exercici_05.py < racionals.txt 
  861  python
  862  su postgres
  863  cat << ok
  864  hello
  865  bye
  866  ok
  867  la
  868  ls
  869  echo "enter val: "
  870  read val
  871  echo $val
  872  while [ x -ne 0 ]; do echo $x; read x; done
  873  while [ x -ne 0 ]; do echo $x; read > x; done
  874  while [ x -ne 0 ]; do echo $x; x=read; done
  875  while [ x -ne 0 ]; do echo $x; done
  876  x=1
  877  while [ x -ne 0 ]; do echo $x; done
  878  while [ $x -ne 0 ]; do echo $x; done
  879  while [ $x -ne 0 ]; do echo $x; read x; done
  880  while [ $x != 'end' 0 ]; do echo $x; done
  881  while [ $x != 'end' ]; do echo $x; done
  882  while [ $x != 'end' ]; do echo $x read x; done
  883  while [ $x -ne 0 ]; do echo $x; read x; done
  884  x=1
  885  while [ $x -ne 0 ]; do echo $x; read x; done
  886  while [ $x -ne 'end' ]; do echo $x; read x; done
  887  x='ok'
  888  while [ $x != 'end' ]; do echo $x; read x; done
  889  while [ $x != 'end' ]; do clear; echo -e "\t\t\t################################################
  890  "; 
  891  while [ $x != 'end' ]; do clear; echo -e "\t\t\t################################################"; echo -e "\t\t\t################################################"; echo -e '\t\t\t###***YOUR SYSTEM IS HACK....................###'; echo -e '\t\t\t###***START PROCESS.......................***###'; clear; echo -e '\t\t\t###***OK!!!!...NOW YOU ARE UNDER CONTROL..***###'; echo -e '\t\t\t################################################'; DONE; done
  892  while [ $x != 'end' ]; do clear; echo -e "\t\t\t################################################"; echo -e "\t\t\t################################################"; echo -e '\t\t\t###***YOUR SYSTEM IS HACK....................###'; echo -e '\t\t\t###***START PROCESS.......................***###'; echo -e '\t\t\t###***OK!!!!...NOW YOU ARE UNDER CONTROL..***###'; echo -e '\t\t\t################################################'; done
  893  x='ok'
  894  while [ $x != 'end' ]; do clear; echo -e "\t\t\t################################################"; echo -e "\t\t\t################################################"; echo -e '\t\t\t###***YOUR SYSTEM IS HACK....................###'; echo -e '\t\t\t###***START PROCESS.......................***###'; echo -e '\t\t\t###***OK!!!!...NOW YOU ARE UNDER CONTROL..***###'; echo -e '\t\t\t################################################'; read x ; done
  895  while [ $x != 'end' ]; do clear; echo -e "\t\t\t################################################"; echo -e "\t\t\t################################################"; echo -e '\t\t\t###***YOUR SYSTEM IS HACK....................###'; echo -e '\t\t\t###***START PROCESS.......................***###'; echo -e '\t\t\t###***OK!!!!...NOW YOU ARE UNDER CONTROL..***###'; echo -e '\t\t\t################################################'; echo -e '\t\t\t################################################'; read x ; done
  896  x='ok'
  897  while [ $x != 'end' ]; do clear; echo -e "\t\t\t################################################"; echo -e "\t\t\t################################################"; echo -e '\t\t\t###***YOUR SYSTEM IS HACK....................###'; echo -e '\t\t\t###***START PROCESS.......................***###'; echo -e '\t\t\t###***OK!!!!...NOW YOU ARE UNDER CONTROL..***###'; echo -e '\t\t\t################################################'; echo -e '\t\t\t################################################'; read x ; done
  898  while [ $x != 'end' ]; do clear; echo -e "\t\t\t\t\t\t################################################"; echo -e "\t\tºt\t\t\t################################################"; echo -e '\t\t\t\t\t\t###***YOUR SYSTEM IS HACK....................###'; echo -e '\t\t\t\t\t\t###***START PROCESS.......................***###'; echo -e '\t\t\t\t\t\t###***OK!!!!...NOW YOU ARE UNDER CONTROL..***###'; echo -e '\t\t\t\t\t\t################################################'; echo -e '\t\t\t\t\t\t################################################'; read x ; done
  899  x='ok'
  900  while [ $x != 'end' ]; do clear; echo -e "\t\t\t\t\t\t################################################"; echo -e "\t\tºt\t\t\t################################################"; echo -e '\t\t\t\t\t\t###***YOUR SYSTEM IS HACK....................###'; echo -e '\t\t\t\t\t\t###***START PROCESS.......................***###'; echo -e '\t\t\t\t\t\t###***OK!!!!...NOW YOU ARE UNDER CONTROL..***###'; echo -e '\t\t\t\t\t\t################################################'; echo -e '\t\t\t\t\t\t################################################'; read x ; done
  901  while [ $x != 'end' ]; do clear; echo -e "\t\t\t\t\t\t################################################"; echo -e "\t\t\t\t\t\t################################################"; echo -e '\t\t\t\t\t\t###***YOUR SYSTEM IS HACK....................###'; echo -e '\t\t\t\t\t\t###***START PROCESS.......................***###'; echo -e '\t\t\t\t\t\t###***OK!!!!...NOW YOU ARE UNDER CONTROL..***###'; echo -e '\t\t\t\t\t\t################################################'; echo -e '\t\t\t\t\t\t################################################'; read x ; done
  902  x='ok'
  903  while [ $x != 'end' ]; do clear; echo -e "\t\t\t\t\t\t################################################"; echo -e "\t\t\t\t\t\t################################################"; echo -e '\t\t\t\t\t\t###***YOUR SYSTEM IS HACK....................###'; echo -e '\t\t\t\t\t\t###***START PROCESS.......................***###'; echo -e '\t\t\t\t\t\t###***OK!!!!...NOW YOU ARE UNDER CONTROL..***###'; echo -e '\t\t\t\t\t\t################################################'; echo -e '\t\t\t\t\t\t################################################'; read x ; done
  904  while [ $x != 'end' ]; do clear; echo -e "\t\t\t\t\t\t################################################"; echo -e "\t\t\t\t\t\t################################################"; echo -e '\t\t\t\t\t\t###...YOUR SYSTEM IS HACK....................###'; echo -e '\t\t\t\t\t\t###...START PROCESS..........................###'; echo -e '\t\t\t\t\t\t###...OK!!!!...NOW YOU ARE UNDER CONTROL.....###'; echo -e '\t\t\t\t\t\t################################################'; echo -e '\t\t\t\t\t\t################################################'; read x ; done
  905  x='ok'
  906  while [ $x != 'end' ]; do clear; echo -e "\t\t\t\t\t\t################################################"; echo -e "\t\t\t\t\t\t################################################"; echo -e '\t\t\t\t\t\t###...YOUR SYSTEM IS HACK....................###'; echo -e '\t\t\t\t\t\t###...START PROCESS..........................###'; echo -e '\t\t\t\t\t\t###...OK!!!!...NOW YOU ARE UNDER CONTROL.....###'; echo -e '\t\t\t\t\t\t################################################'; echo -e '\t\t\t\t\t\t################################################'; read x ; done
  907  cat /etc/passwd
  908  man read
  909  date
  910  du pere
  911  du ~pere
  912  cd /var/tmp/mp1/
  913  . m01ex11-parveen.sh 
  914  usersize 
  915  usersize ok gell
  916  usersize ok
  917  . m01ex11-parveen.sh 
  918  usersize hello
  919  usersize ok
  920  du -h ~pere/
  921  man du
  922  tail -5 /etc/passwd
  923  . m01ex11-parveen.sh 
  924  usersize pere
  925  cd /var/tmp/mp1/
  926  vim m01ex11-parveen.sh
  927  scp m01ex11-parveen.sh guest@profen2j:.
  928  poweroff 
  929  poweroff
  930  python exercici_05.py < racionals.txt 
  931  su -
  932  su -
  933  cd netswithlinux
  934  geany exercises/09_mikrotik2.md &
  935  ip a
  936  su -
  937  cd 
  938  cd Downloads/
  939  ls
  940  cd ..
  941  cd Documents/
  942  wine winbox.exe 
  943  su -
  944  reboot
  945  python
  946  wine Documents/winbox.exe &
  947  su -
  948  cd netswithlinux
  949  git fetch upstream 
  950  git merge upstream/master 
  951  geany guide/es/06-securing-mikrotik.md &
  952  git fetch upstream 
  953  git merge upstream/master 
  954  ls
  955  ls howto_git/es/
  956  geany guide/es/06-securing-mikrotik.md &
  957  git fetch upstream 
  958  git merge upstream/master 
  959  geany guide/es/06-securing-mikrotik.md &
  960  cd netswithlinuxº
  961  cd netswithlinux
  962  git pull origin 
  963  git fetch upstream 
  964  git merge upstream/master 
  965  git push origin 
  966  su -
  967  cd 
  968  wine Documents/winbox.exe &
  969  su -
  970  monut /dev/loop0 /mnt/readonly/
  971  mount /dev/loop0 /mnt/readonly/
  972  mount /dev/loop0 
  973  mount | tail -3
  974  mount /mnt/
  975  mount /mnt/linux/
  976  umount /mnt/linux/
  977  mount /mnt/xfs
  978  umount /mnt/xfs
  979  umount /mnt/linux 
  980  mount /mnt/linux 
  981  poweroff
  982  python
  983  su postgres
  984  python
  985  cd netswithlinux
  986  git pull 
  987  git fetch upstream 
  988  git merge upstream/master 
  989  ps
  990  su -
  991  cd /run/media/isx0276204/school_work/school_work01/programacio/all_program/dicconarias/
  992  python histrogram_vocals_dicc.py 'hello boss good'
  993  python compta_paraula_reptida.py 'hello hello good b b b'
  994  python
  995  su postgres
  996  history >> /run/media/isx0276204/school_work/school_work01/command/2017_04_24_all_user_isx_command.txt
