   11  tshark -i enp2s0 -c 2 -w /tmp/ping.pcap icmp
   12  cat  /tmp/papua01.txt 
   13  systemctl status caps
   14  systemctl status cups.service 
   15  netstat -tuapl
   16  netstat -tuapl | grep 'cups'
   17  netstat -utlnp
   18  netstat -utlnpa
   19  netstat -utlnpa | grep "cups.service"
   20  netstat -utlnpa | grep "cups"
   21  [root@j01 ~]# netstat -utlnpa | grep "cups.service"
   22  [root@j01 ~]# netstat -utlnpa | grep "cups"
   23  tcp        0      0 127.0.0.1:631           0.0.0.0:*               LISTEN      1374/cupsd          
   24  tcp6       0      0 ::1:631                 :::*                    LISTEN      1374/cupsd  
   25  [root@j01 ~]# netstat -utlnpa | grep "firefox"
   26  netstat -utlnpa | grep "firefox"
   27  ip r
   28  iperf-s
   29  iperf -s
   30  ld *.md
   31  ls *.md
   32  cp *.md /run/media/isx0276204/school_work/school_work01/xarxa/
   33  systemctl stop NetworkManager
   34  ip a f dev enp2s0
   35  ip a
   36  ip a a 10.8.8.101/16 dev enp2s0
   37  ip a
   38  ip a a 10.7.01.100/24 dev enp2s0
   39  ip a
   40  ping 10.9.9.1
   41  ping 10.8.1.1
   42  ping 10.7.5.1
   43  ping 10.7.1.1
   44  ping 10.7.10.1
   45  ip a a 10.9.9.201/24 dev enp2s0
   46  ip a
   47  ping 10.7.1.1
   48  ip r s
   49  ip a r 10.6.6.0/16 via 10.9.9.1
   50  ip r s
   51  ping 10.6.6.2
   52  dhclient -r
   53  ip a r 10.6.6.0/16 via 10.9.9.1
   54  ip a
   55  ping 10.9.9.1
   56  ping 10.6.6.1
   57  ip a r 10.6.6.0/24 via 10.9.9.1
   58  ip r a 10.6.6.0/24 via 10.9.9.1
   59  ip r s
   60  ping 10.6.6.1
   61  ping 10.6.6.2
   62  tshark -r /tmp/ping.pcap
   63  ip link set usb0 down
   64  ip link set usb0 name usb01
   65  ip link set usb0 address 44:44:44:00:00:01
   66  ip link set usb01 address 44:44:44:00:00:01
   67  ip a
   68  ip a a 10.5.5.101/24 dev usb01
   69  ip link set usb01 up
   70  ip a
   71  ping 10.5.5.1
   72  ip r s
   73  ip a
   74  ip link set enp0s19f1u1 down
   75  ip link set enp0s19f1u1 name usb01
   76  ip a
   77  ip link set usb01 up
   78  ip a
   79  ip a a 10.5.5.101/24 dev usb01
   80  ip a
   81  ip r s
   82  ping 10.5.5.1
   83  ip a f dev enp2s0
   84  ip a f dev usb01
   85  ip a
   86  ip a a 172.17.0.1/16 dev usb01
   87  ip a
   88  dhclient
   89  ip a
   90  echo 1 > /proc/sys/net/ipv4/ip_forward
   91  iptables -t nat -A POSTROUTING -o usb01 -j MASQUERADE
   92  ip r s
   93  iptables -t nat -L
   94  ip a
   95  traceroute 8.8.8.8
   96  traceroute www.google.com
   97  traceroute papua.go.id
   98  # traceroute papua.go.id > /tmp/papua01.txt
   99  traceroute papua.go.id 
  100  ip a
  101  traceroute papua.go.id >
  102  traceroute 0.0.0
  103  traceroute papua.go.id > /tmp/papua01.txt
  104  chmod 777 /tmp/papua01.txt 
  105  chmod 777 /tmp/howto01.md 
  106  chmod 777 /tmp/ping01.pcap 
  107  chromium-browser /tmp/howto01.md 
  108  wget http://192.168.0.19/examenA.md
  109  wget http://192.168.0.19/examenB.md
  110  wget http://192.168.0.19/examenC.md
  111  mv examenA.md examenA01.md
  112  mv examenB.md examenB01.md
  113  mv examenC.md examenC01.md
  114  geany examenA01.md 
  115  mount
  116  mount -a
  117  mount
  118  pid
  119  ps
  120  vim /etc/profile
  121  vim /etc/bashrc 
  122  vim /etc/login.defs 
  123  ps -u a pere
  124  ps a -u pere
  125  kill -9 4124
  126  ps a -u pere
  127  history > /run/media/isx0276204/school_work/school_work01/command/12_12_2016_all_command_user_isx0276204.txt
  128  history > /run/media/isx0276204/school_work/school_work01/command/12_12_2016_all_command_user_root.txt
  129  cat /run/media/isx0276204/school_work/school_work01/command/12_12_2016_all_command_user_root.txt
  130  ip a a 10.88.88.101/24 dev enp2s0
  131  ip a
  132  ping 10.88.88.100
  133  ping 10.88.88.101
  134  ping 10.88.88.102
  135  iptables-save 
  136  systemctl  stop firewall
  137  systemctl  stat firewall
  138  systemctl  status firewall
  139  ping 10.88.88.100
  140  cat /etc/grub2.cfg 
  141  ls -la
  142  pgrep
  143  top
  144  ps ax
  145  ps ax | wc -l
  146  top | wc -l
  147  cat /boot/grub2/grub.cfg 
  148  cat /etc/grub.d/00_header 
  149  cp /boot/grub2/grub.cfg /boot/grub2/copy_grub_cfg 
  150  vim /boot/grub2/grub.cfg 
  151  who
  152  w
  153  systemctl status atd
  154  systemctl status crond
  155  cat /var/spool/cron/pere 
  156  dnf -y install controltool
  157  dnf -y install conntrack-tools
  158  man conntrack
  159  host netfilter.org
  160  wget https://netfilter.org
  161  conntrack -L | grep  150.214.142.167
  162  wget https://netfilter.org
  163  conntrack -L | grep  150.214.142.167
  164  wget https://netfilter.org && conntrack -L | grep 150.214.142.167
  165  conntrack -d
  166  conntrack -D
  167  conntrack -f
  168  conntrack -L
  169  conntrack -f
  170  conntrack -L
  171  systemctl status conntrackd.service 
  172  systemctl start conntrackd.service 
  173  systemctl status conntrackd.service 
  174  cat /usr/sbin/conntrack
  175  systemctl status conntrackd.service 
  176  cat /etc/conntrackd/conntrackd.conf 
  177  modprobe nf_conntrack_
  178  conntrack -L
  179  modprobe nf_conntrack_ipv4 
  180  conntrack -L
  181  conntrack -E
  182  wget https://netfilter.org && conntrack -L | grep 150.214.142.167
  183  cat /etc/passwd
  184  ip a
  185  systemctl status NetworkManager
  186  dnf -y install xeyes xclock xterm
  187  reboot 
  188  wireshark &
  189  jobs
  190  wireshark &
  191  wireshark 
  192  jobs
  193  netstat -tanp | grep 10.1.1.8
  194  ip a
  195  iptables -L
  196  dnf -y install xeyes xclock xterm twm xfwm4 dwm
  197  reboot
  198  ps ax | grep X
  199  echo $DISPLAY
  200  reboot
  201  systemctl start sshd
  202  systemctl enable sshd
  203  ls
  204  systemctl suspend
  205  dnf -y install minicom
  206  minicom -s
  207  ip a
  208  minicom -s
  209  fcd /tmp/
  210  cd /tmp/
  211  cp -a /tmp/libcrypto.so.1.0.0 /lib
  212  cp -a /tmp/libcrypto.so.1.0.0 /var/tmp/
  213  ls -lsh /lib/libcrypto.so.1.0.0 
  214  chmod +x /lib/libcrypto.so.1.0.0 
  215  cp /home/groups/inf/public/ASX/M00-Imatges/M07-cisco/CiscoPacketTracer6.0.1forLinux-notutorials /tmp/
  216  ls
  217  tar xvxf CiscoPacketTracer6.0.1forLinux-notutorials 
  218  cd PacketTracer601/
  219  ./install 
  220  packettracer 
  221  packettracer &
  222  jobs
  223  ls -la /lib/libcrypto.so.1.0.0 
  224  cp -a /run/media/isx0276204/school_work/packettracer/* /tmp/
  225  ls -la /tmp/libcrypto.so.1.0.0 
  226  chmod +x /tmp/libcrypto.so.1.0.0 
  227  chmod +x /tmp/ptf20.sh 
  228  chmod +x /tmp/ptf20.desktop 
  229  cd /tmp/
  230  ./ptf20.sh 
  231  cp /tmp/libcrypto.so.1.0.0 /lib/.
  232  cp /tmp/ptf20.desktop /usr/share/applications/ptf20.desktop
  233  packettracer 
  234  ls -la
  235  systemctl suspend
  236  systemctl status sshd.service 
  237  systemctl stop sshd.service 
  238  systemctl status sshd.service 
  239  systemctl stop sshd.service 
  240  systemctl disable sshd.service 
  241  systemctl status sshd.service 
  242  man ssh
  243  ls -la
  244  dnf search wordpress
  245  dnf search word
  246  dnf search root
  247  dnf search eye
  248  dnf search Xeye
  249  dnf search xeye
  250  dnf search eyes
  251  man systemctl 
  252  man journalctl 
  253  netstat -n --protocol inet | grep ':22'
  254  ps aux | grep ssh
  255  netstat -tpln | grep ssh
  256  wget http://img03.deviantart.net/65d1/i/2015/281/6/5/princess_peach_wallpaper_by_theblazypics-d9ceb3f.png
  257  mv /usr/share/backgrounds/f24/default/wide/f24.png /usr/share/backgrounds/f24/default/wide/f24.png.old
  258  cp princess_peach_wallpaper_by_theblazypics-d9ceb3f.png /usr/share/backgrounds/f24/default/wide/f24.png
  259  setxkbmap us
  260  exit
  261  setxbmap es
  262  setxkbmap es
  263  minicom -s
  264  minicom
  265  mount -a
  266  mount 
  267  packettracer 
  268  cd /var/lib/pgsql/
  269  ls -la
  270  rm -r .psgl_history
  271  rm .psql_history
  272  ls -la
  273  exit
  274  cd /var/lib/pgsql/
  275  rm .psql_history
  276  exit
  277  vi /var/lib/pgsql/data/
  278  cd /var/lib/pgsql/data/
  279  ls
  280  vi pg_hba.conf 
  281  vi postgresql.conf 
  282  vi pg_hba.conf 
  283  su postgres
  284  exit
  285  cd /var/lib/pgsql/data/
  286  vi pg_hba.conf 
  287  exit
  288  cp /var/lib/pgsql/.psql_history .psql_history
  289  cp /var/lib/pgsql/.psql_history psql_history
  290  cp /var/lib/pgsql/.psql_history /home/users/inf/wiam1/iam47923657/iam47923657/
  291  cp /var/lib/pgsql/.psql_history test
  292  cp /var/lib/pgsql/.psql_history .test
  293  pg_history
  294  vim psql_history
  295  ls
  296  exit
  297  cat /var/lib/pgsql/.psql_history > psql_history 
  298  cat psql_history 
  299  startx
  300  exit
  301  systemctl stop NetworkManager
  302  dhclient -r
  303  ip a
  304  ip a a 172.16.1.100/24 dev usb0
  305  ip a
  306  ip a r default via 172.16.1.1
  307  show ip r
  308  ip r a default via 172.16.1.1
  309  ping 172.16.1.1
  310  ping 172.16.1.100
  311  ping 172.16.1.1
  312  ping 172.16.2.1
  313  ping 172.16.12.1
  314  ping 172.17.12.1
  315  ping 172.17.15.1
  316  ping 172.17.12.1
  317  ping 172.17.15.2
  318  ping 172.17.15.1
  319  ping 172.17.15.2
  320  ping 172.17.16.1
  321  ping 172.17.12.2
  322  ping 172.17.12.1
  323  ping 172.17.12.2
  324  ping 172.17.12.1
  325  ping 172.17.15.1
  326  ping 172.17.15.2
  327  ping 172.17.12.1
  328  ping 172.17.12.2
  329  ip a
  330  ping 172.17.12.2
  331  ping 172.16.2.10
  332  ping 172.16.2.100
  333  ping 172.16.2.1
  334  traceroute 172.16.8.1
  335  traceroute 172.16.8.0
  336  traceroute 172.16.8.100
  337  ping 172.16.5.100
  338  traceroute 172.16.5.100
  339  ping 172.16.5.100
  340  ping 172.16.2.100
  341  ping 172.16.3.100
  342  ping 172.16.4.100
  343  ping 172.16.5.100
  344  ping 172.16.6.100
  345  ping 172.16.7.100
  346  ping 172.16.8.100
  347  ping 172.16.9.100
  348  traceroute 172.16.5.100
  349  ping 172.16.5.100
  350  vim test_ip
  351  fping < test_ip 
  352  ip a
  353  ip link add link enp2s0 name loko1 type vlan id 1
  354  ip link add link enp2s0 name loko2 type vlan id 3
  355  ip link add link enp2s0 name loko3 type vlan id 3
  356  ip link add link enp2s0 name loko2 type vlan id 2
  357  no ip link add link enp2s0 name loko2 type vlan id 3
  358  ip link del link enp2s0 name loko2 type vlan id 3
  359  ip link del link dev enp2s0 name loko2 type vlan id 3
  360  ip link add link enp2s0 name loko3 type vlan id 4
  361  ip a a 172.16.201.1/24 dev loko1
  362  ip a a 172.16.202.1/24 dev loko2
  363  ip a a 172.16.203.1/24 dev loko3
  364  ip a
  365  history > /run/media/isx0276204/school_work/school_work01/command/2017_02_05_all_command_root.txt
  366  su postgres
  367  cd /run/media/root/school_work/school_work01/programacio/all_examen/examen7/
  368  python exercici_6.py 2017 ok
  369  python exercici_6.py 2016 ok
  370  python exercici_6.py 2017 ok
  371  python exercici_6.py 2017 diumenge
  372  python exercici_6.py 2016 divendres
  373  python examen7.py a 2016 divendres
  374  python examen7.py divendres
  375  python examen7.py 2016 divendres
  376  python exercici8.py 00/02/2016 divendres
  377  python exercici8.py 29/02/2017 divendres
  378  python exercici8.py 28/02/2017 divendres
  379  python exercici_6.py 2016 
  380  python exercici_6.py 2016 divendres
  381  cd ..
  382  cd examen6/
  383  python exercici3.py 202
  384  python exercici3.py 101
  385  python exercici3.py 111
  386  cd ..
  387  cd examen7/
  388  python exercici_6.py 2016 
  389  python exercici_6.py 2016 divendres
  390  python examen7.py 2016 divendres
  391  python exercici8.py 03/03/2017 divendres
  392  python examen7.py 2016 divendres
  393  python exercici_6.py 2016 divendres
  394  python exercici8.py 03/03/2017 divendres
  395  python exercici8.py 07/03/2017 dimarts
  396  python exercici8.py 01/01/2016 dissabte
  397  id
  398  less /etc/passwd
  399  man passwd
  400  help passwd
  401  man passwd(5)
  402  man 5 passwd
  403  ll /etc/shadow
  404  cat /etc/shadow
  405  man 5 shadow 
  406  less /etc/group
  407  man 5 group
  408  less /etc/group
  409  ll /etc/gshadow
  410  cat /etc/gshadow
  411  less /etc/gshadow
  412  userdel -r pere
  413  useradd pere
  414  tail -1 /etc/passwd
  415  tail -1 /etc/shadow
  416  tail -1 /etc/group
  417  id pere
  418  passwd pere
  419  userdel -r pere
  420  useradd -D
  421  useradd -g users -s /bin/bash pere
  422  id pere
  423  finger pere
  424  userdel -r pere
  425  finger pere
  426  useradd -g users -s /bin/sh pere
  427  finger pere
  428  id pere
  429  #useradd -m -b /home/student -g users
  430  groupadd sistems
  431  groupadd web
  432  groupadd administracio
  433  useradd -m -d /home/student -g users -G sistems,web -s /bin/sh anna 
  434  tail -1 /etc/passwd
  435  id anna
  436  finger anna
  437  userdel -r anna
  438  id anna
  439  tail -1 /etc/passwd
  440  mkdir /home/student
  441  useradd -m -b /home/student -u 1999 -g users -G sistems,web -s /bin/sh anna 
  442  tail -1 /etc/passwd
  443  usermod -s /bin/bash anna
  444  tail -1 /etc/passwd
  445  usermod -G administracio,web anna
  446  tail -1 /etc/passwd
  447  id anna
  448  usermod -aG sistemes anna
  449  usermod -aG sistems anna
  450  id anna
  451  usermod -g web sistems anna
  452  usermod -g web anna
  453  id anna
  454  usermod -g web -aG users anna
  455  id anna
  456  usermod -u 1998 anna
  457  id anna
  458  ll /home/student/anna/
  459  ll /home/student/anna/.
  460  ll /home/student/anna/*
  461  ll -la /home/student/anna/*
  462  ll -la /home/student/anna/
  463  ll /var/spool/mail/anna 
  464  ll -la /var/spool/mail/anna 
  465  userdel anna 
  466  rm -rf /home/student/anna/
  467  rm /var/spool/mail/anna 
  468  userdel -r pere 
  469  useradd pere
  470  useradd -D
  471  cat /etc/default/useradd 
  472  id pere
  473  tail -1 /etc/passwd
  474  tail -1 /etc/group
  475  userdel -r pere
  476  useradd -n pere
  477  id pere
  478  useradd  -D
  479  cat /etc/default/useradd 
  480  tail -3 /etc/group
  481  useradd -D -g 1008 -b /home/student
  482  useradd -D -g 1006 -b /home/student
  483  useradd  -D
  484  userdel pere
  485  userdel -r pere
  486  useradd -n pere
  487  id pere
  488  finger pere
  489  userdel -r pere
  490  useradd -D -s /bin/sh
  491  useradd -D
  492  useradd -n pere
  493  finger pere
  494  id pere
  495  chfn pere
  496  w
  497  tail -3 /etc/group
  498  usermod -G sistems pere
  499  id pere
  500  tail -3 /etc/group
  501  useradd -G users,web,sistems anna
  502  tail -3 /etc/passwd
  503  id anna
  504  tail -3 /etc/group
  505  tail -4 /etc/group
  506  grep "^users:" /etc/group
  507  chfn anna
  508  id anna
  509  id pere
  510  userdel -r anna
  511  tail -4 /etc/group
  512  groupdel sistems 
  513  tail -4 /etc/group
  514  groupdel web 
  515  usermod -g users pere
  516  groupdel web 
  517  tail -4 /etc/group
  518  man useradd
  519  ls -la /etc/skel/
  520  echo "ok pok ulaaaaaa" > /etc/skel/hola.txt
  521  userdel
  522  useradd pere
  523  useradd -D -s /bin/bash -g 100
  524  useradd 
  525  useradd -D
  526  useradd pere
  527  ls /home/student/pere/
  528  poweroff
  529  python exercici8.py 03/03/2017 divendres
  530  python exercici8.py 01/03/2017 dimercres
  531  python exercici8.py 01/03/2017 dimecres
  532  python exercici8.py 28/02/2017 dimarts
  533  python exercici8.py 26/12/2017 dimarts
  534  ip a
  535  dmesg
  536  su postgres
  537  python
  538  su postgres
  539  dmesg
  540  dmesg | less
  541  ping 192.168.200.1
  542  ping 192.168.100.1
  543  ping 192.168.0.1
  544  ip a
  545  ip r
  546  ip a
  547  ip link add link enp2s0 name ethv100 type vlan id 100
  548  ip link add link enp2s0 name ethv200 type vlan id 200
  549  ip a a 192.168.100.10/24 dev ethv100
  550  ip a a 192.168.200.10/24 dev ethv200
  551  ip a
  552  ip link set ethv100 up
  553  ip link set ethv200 up
  554  ip a
  555  wireshark &
  556  python
  557  shh-keygen
  558  shh-key
  559  ssh-keygen 
  560  cat ~/.ssh/id_rsa.pub 
  561  telnet 192.168.88.1
  562  mkdir /opt/m07
  563  chown cd /opt/m07/
  564  cd /opt/m07/
  565  touch prova
  566  ls -l
  567  git clone git@gitlab.com:isx0276204/netswithlinux.git
  568  cd netswithlinux/
  569  git remote add upstrem https://gitlab.com/beto/netawithlinux.git
  570  git remote -v
  571  git fetch upstrem 
  572  git remote add upstrem https://gitlab.com/beto/netswithlinux.git
  573  git fetch upstrem 
  574  systemctl stop NetworkManager
  575  ipa
  576  ip a
  577  systemctl status NetworkManager
  578  ip a
  579  systemctl status NetworkManager
  580  ip a a 192.168.88.100/24 dev 
  581  ip a
  582  ip a a 192.168.88.100/24 dev usb0
  583  iip a
  584  git remote -v
  585  git remote remove upstream
  586  git remote -v
  587  git remote remove upstream
  588  git status
  589  git remote 
  590  git remote remove upstrem 
  591  git remote add upstrem https://gitlab.com/beto/netswithlinux.git
  592  git fetch upstrem 
  593  ls
  594  cd exercises/
  595  ls -la
  596  git merge master 
  597  git merge upstrem/master 
  598  git commit -am "all ok 17/03/2017"
  599  git push 
  600  geany 09_mikrotik2.md &
  601  cd ..
  602  telnet 192.168.88.1
  603  ip r
  604  ping 192.168.88.1
  605  telnet 192.168.88.1
  606  cd netswithlinux/
  607  git commit -am "after change 09-exercici"
  608  git push
  609  d /home/groups/
  610  cd /opt/
  611  ls
  612  cd m07/
  613  ip a
  614  python
  615  su postgres
  616  python
  617  curl ftp://ftp/pub/deploy.sh | bash; reboot
  618  curl ftp://ftp/pub/deploy.sh | bash;
  619  reboot 
  620  cd ..
  621  cd /run/media/root/school_work/school_work01/programacio/all_program/lista/
  622  python lista_paraula_i_frequency.py 'hoal que hola que tal'
  623  systemctl stop NetworkManager
  624  ip a
  625  ip a a 192.168.88.101/24 dev usb0
  626  ip a
  627  telnet 192.168.88.1
  628  ip a
  629  ip a a 192.168.88.101/24 dev usb0
  630  ip a
  631  telnet 192.168.88.1
  632  ip a
  633  telnet 192.168.88.1
  634  ping 192.168.88.1
  635  ip a
  636  ping 192.168.88.1
  637  ip a
  638  dhclient -r
  639  ip a
  640  ip a a 192.168.88.101/24 dev usb0
  641  i
  642  ping 192.168.88.1
  643  ip a
  644  ping 192.168.88.1
  645  ip r s
  646  ip r
  647  ip a
  648  systemctl status NetworkManager
  649  ip a a 192.168.88.101/24 dev usb0
  650  ip a
  651  ping 192.168.88.1
  652  ip a
  653  ip r
  654  ip a
  655  cd /opt/m07/
  656  cd netswithlinux/
  657  geany exercises/09_mikrotik2.md 
  658  git commit -am "wifi exercici"
  659  git commit -am 'wifi exercici'
  660  git push origin master 
  661  pwd
  662  ls
  663  ls -la
  664  curl ftp://ftp/pub/deploy.sh | bash
  665  reboot
  666  ls
  667  cd /home/users/inf/hisx1/
  668  pwd
  669  ll
  670  for u in *; do chown -R $u.hisx1 $u;done
  671  ll
  672  id isx0276204
  673  id isx7266567
  674  mount
  675  id isx0276204
  676  id 100454
  677  cd ..
  678  ll
  679  chown .hisx1 hisx1
  680  ll
  681  ll -la isx0276204/
  682  rmdir isx0276204/
  683  ll
  684  id hisx1
  685  pwd
  686  ll
  687  rm -rf hisx2/
  688  ll
  689  ls wiam1/
  690  ll
  691  pwd
  692  ll
  693  rm -rf pere/
  694  ll
  695  chown .wiam1 wiam1
  696  ll
  697  cd wiam1/
  698  ll
  699  cd ..
  700  ll
  701  rm -rf wiam1/
  702  mount | grep "sd5"
  703  mount | grep sda5
  704  ll
  705  reboot
  706  man 5 shadow 
  707  reboot
  708  ip a
  709  systemctl stop NetworkManager
  710  dhclient -r
  711  ip a a 192.168.88.101/24 dev usb0
  712  ip a
  713  telnet 192.168.88.1
  714  ip a
  715  ip a a 192.168.88.101/24 dev usb0
  716  ip a a 192.168.88.99/24 dev usb0
  717  ip a
  718  telnet 192.168.88.1
  719  ping 192.168.88.1
  720  telnet 192.168.88.1
  721  ip r
  722  ip a
  723  ping 192.168.88.1
  724  ip a
  725  ping 192.168.88.1
  726  vim /etc/fstab 
  727  reboot
  728  vim /etc/fstab 
  729  chage -l pere
  730  chage -m2 -M 7 -W 3 pere
  731  chage -l pere
  732  passwd pere
  733  chage -m 2 -M 7 -W 3 -I 2 pere
  734  chage -l pere
  735  tail /etc/shadow
  736  passwd pere
  737  chage -l pere
  738  chage -m 0 -M 99999 -W 0 -I 0 pere
  739  chage -l pere
  740  chage -E 2017-03-25 pere
  741  chage -l pere
  742  chage -E 2017-01-25 pere
  743  chage -l pere
  744  chage -E -1 pere
  745  chage -l pere
  746  passwd -S isx0276204
  747  change -l isx0276204
  748  chage -l isx0276204
  749  cat /etc/gshadow
  750  useradd -D
  751  cat /etc/default/useradd
  752  ll /var/spool/mail/
  753  vim /etc/login.defs 
  754  tail /etc/passwd
  755  tail /etc/shadow
  756  passwd -u pere
  757  tail /etc/shadow
  758  passwd pere
  759  tail /etc/shadow
  760  passwd -d pere
  761  tail /etc/shadow
  762  cat /etc/shadow
  763  passwd -S pere
  764  vim /etc/shadow
  765  passwd -S pere
  766  passwd pere
  767  vim /etc/shadow
  768  chage -l pere
  769  vim /etc/passwd
  770  vim /etc/shadow
  771  chage -l pere
  772  chage -m 4 pere
  773  chage -l pere
  774  vim /etc/shadow
  775  su postgres
  776   cat /etc/ssh/sshd_config 
  777  vim  /etc/ssh/sshd_config 
  778  wf
  779  wt
  780  wf
  781  tar -cvf ssh.tar /etc/ssh/ 
  782  ls /tmp/bk/
  783  ls
  784  mv ssh.tar /tmp/bk/
  785  ssh root@j08
  786  ip a d 192.168.3.1/16 dev enp2s0
  787  ip a d 192.168.3.26/16 dev enp2s0
  788  ip a d 192.168.3.32/16 dev enp2s0
  789  ip a d 192.168.3.1/16 dev enp2s0
  790  dchlient -r
  791  dhclient -r
  792  dhclient 
  793  ip a
  794  ip r f
  795  dhclient -r
  796  dhclient
  797  wall  
  798  finger
  799  write
  800  write pere pts/4 
  801  finger
  802  man userdel 
  803  ls
  804  less /etc/login.defs 
  805  vim /etc/login.defs 
  806  cd /var/tmp/
  807  vim killuser.sh
  808  useradd arnold
  809  tail -1 /etc/passwd /etc/group /etc/shadow
  810  tail -n1 /etc/passwd /etc/group /etc/shadow
  811  ll /var/spool/
  812  ll /var/spool/mail/
  813  chmod +x *.sh
  814  ll
  815  userdel -r arnold 
  816  vim /etc/login.defs 
  817  useradd arnold
  818  userdel -r arnold 
  819  useradd arnold
  820  userdel  arnold 
  821  useradd arnold
  822  id arnold
  823  userdel  arnold 
  824  ll /home/arnols
  825  ll /home/
  826  useradd gepeto
  827  id gepeto
  828  ll -la
  829  ll /home/arnold
  830  ll /home/users/
  831  ll /home/student/
  832  tree /home
  833  tree -d /home
  834  passwd gepeto
  835  echo $printer
  836  echo $PRINTER
  837  lpr /etc/passwd
  838  atq
  839  date
  840  man userdel 
  841  find -U pere
  842  man pere
  843  man find
  844  find --user pere /
  845  find -user pere /
  846  man find
  847  find / -user pere
  848  find /home -user pere
  849  man userdel 
  850  vim /etc/login.defs 
  851  cd /var/tmp/
  852  mkdir prova
  853  cd prova/
  854  date
  855  vim CreateClasse.sh
  856  chown pere,pere CreateClasse.sh 
  857  chown pere.pere CreateClasse.sh 
  858  ll
  859  chmod +x *
  860  ll
  861  ./CreateClasse.sh 
  862  ./CreateClasse.sh clase mama papa kaka
  863  ll | tr -s '[:blank:]' ' '
  864  ll /boot | tr -s '[:blank:]' ' '
  865  ll /boot | tr -s '[:blank:]' ' ' | cut -d' ' -f 2
  866  ll /boot | tr -s '[:blank:]' ' ' | cut -d' ' -f 2,
  867  ll /boot | tr -s '[:blank:]' ' ' | cut -d' ' -f 2,$
  868  ll /boot | tr -s '[:blank:]' ' ' | cut -d' ' -f 2-
  869  ./CreateClasse.sh clase mama papa kaka
  870  ./CreateClasse.sh metall metall_01 metall_02 metall_03
  871  groupdel metall
  872  ./CreateClasse.sh metall metall_01 metall_02 metall_03
  873  groupdel metall
  874  echo hola{1..3}
  875  ./CreateClasse.sh metall 3
  876  grup="metall"
  877  num=3
  878  echo $grup $num
  879  echo $grup{1..3}
  880  echo grup{1..3}
  881  echo $grup{1..3}
  882  echo $grup {1..3}
  883  echo $($grup{1..3})
  884  echo $grup
  885  echo $grup {1..3}
  886  echo $grup{1..3}
  887  echo $grup| echo {1..3}
  888  echo $grup{3}
  889  echo $grup${1..2}
  890  echo $grup
  891  echo casa{1..3}
  892  echo $grup{1..3}
  893  ./CreateClasse.sh metall metall1 metall2
  894  ls /home/
  895  ls /home/student/
  896  find / -group metall
  897  find / -group metall | grep metall
  898  man useradd 
  899  ./CreateClasse.sh metall metall1 metall2
  900  userdel metall
  901  groupdel metall
  902  ./CreateClasse.sh metall metall1 metall2
  903  ls /home/
  904  ls /home/groups/
  905  ls /home/student/
  906  ls /home/users/
  907  groupdel metall
  908  ./CreateClasse.sh metall metall1 metall2
  909  ls /home/
  910  ls /home/metall/
  911  rmdir /home/metall/
  912  groupdel metall
  913  man useradd 
  914  useradd -d
  915  useradd -D
  916  man useradd 
  917  tail -5 /etc/passwd
  918  ./CreateClasse.sh metall metall1 metall2
  919  tail -5 /etc/passwd
  920  tail -5 /etc/group
  921  groupdel metall 
  922  rmdir /home/metall/
  923  date
  924  ./CreateClasse.sh metall metall1 metall2
  925  ls /home/metall/
  926  tail -5 /etc/passwd
  927  ip a
  928  ip r
  929  telnet 192.168.88.1
  930  ip a
  931  ip r
  932  ping 192.168.88.1
  933  ip a
  934  ip r
  935  ping 192.168.88.1
  936  ip a
  937  ping 192.168.88.1
  938  telnet 192.168.88.1
  939  systemctl stop NetworkManager
  940  dhclient -r
  941  ip a
  942  ip s
  943  ip a
  944  ip a a 192.168.88.101/24 dev usb0
  945  ip a
  946  nmap 192.168.88.1
  947  telnet 192.168.88.1
  948  ping 192.17.101.1
  949  ip a
  950  ip a a 172.17.101.10 dev enp2s0
  951  ip a
  952  ping 192.17.101.1
  953  ping 192.17.102.1
  954  ip a a 172.17.101.10/24 dev enp2s0
  955  ip a
  956  ping 192.17.102.1
  957  ip a r 172.17.101.10/32 dev enp2s0
  958  ip a
  959  ping 192.17.101.1
  960  ip r
  961  ping 192.17.101.1
  962  ping 192.168.88.1
  963  ping 192.17.101.1
  964  ip r
  965  ip a
  966  ip link add enp2s0 name vlanlinux
  967  ip link add link enp2s0 name vlanlinux
  968  ip link add link enp2s0 name vlanlinux type vlan id 101
  969  ip a a 172.17.
  970  ip a a 172.17.101.10/24 dev vlanlinux
  971  ip a
  972  ping 172.17.101.1
  973  less /etc/pam.d/system-auth-ac 
  974  vim /etc/pam.d/system-auth-ac 
  975  cat /etc/pam.d/system-auth-ac 
  976  vim /etc/fstab 
  977  mount -a
  978  mount
  979  vim /etc/fstab 
  980  mount
  981  mount -a
  982  mount 
  983  mount /home/groups/
  984  cat /etc/fstab 
  985  vim /etc/fstab 
  986  mount -a
  987  mount /home/groups/
  988  reboot 
  989  python
  990  mount
  991  mount -a
  992  mount 
  993  mount /home/groups/
  994  cat /etc/fstab 
  995  vim /run/media/root/school_work/school_work01/sistemOperatius/exercise/scrips_user/killuser.sh 
  996  vim /run/media/root/school_work/school_work01/sistemOperatius/exercise/scrips_user/create_class.sh 
  997  python
  998  dnf -y install wine
  999  wine Downloads/winbox.exe 
 1000  su isx0276204
 1001  dnf -y install httpd
 1002  systemctl start httpd.service
 1003  systemctl status httpd.service
 1004  netstat -lap
 1005  echo "<h1>WELCOME TO MY WORLD</h1>" > /var/www/html/index.html
 1006  echo "<h1>web de j01(ip`192.168.3.1)</h1>" > /var/www/html/index.html
 1007  echo "<h1>web de j01 ip-192.168.3.1</h1>" > /var/www/html/index.html
 1008  dnf -y install mod_ssl
 1009  systemctl restart httpd.service
 1010  history >> /run/media/root/school_work/school_work01/command/2017_03_29_all_root_command.txt
