    1  su -
    2  su postgres
    3  exit
    4  su -
    5  exit
    6  su postgres
    7  su -
    8  exit
    9  passwd 
   10  exit
   11  whoami
   12  set
   13  set | less
   14  ls -lA
   15  ls -lA | wc -l
   16  ls -la
   17  ls -la | wc -l
   18  ls -la | wc -lman ls
   19  man ls
   20  /
   21  who
   22  man who
   23  man who user
   24  man uname
   25  man id
   26  man hostname
   27  man finger
   28  man date
   29  man cal
   30  maan clear
   31  man clear
   32  man update
   33  exit
   34  ls / /var/tmp/ /tmp/
   35  ls -la / /var/tmp/ /tmp/
   36  exit
   37  kls
   38  ls
   39  ls -ls
   40  cd ..
   41  ls
   42  ls -ls
   43  ls -la isx0276204/
   44  pwd
   45  cd isx0276204/isx0276204/
   46  pwd
   47  cd ~
   48  pwd
   49  ls
   50  ls -l
   51  ls -la
   52  ls -la | wc -l
   53  ls -a
   54  ls -a | wc -l
   55  ls --all
   56  man ls
   57  ls /tmp
   58  man ls
   59  ls /
   60  ls -la /
   61  ls -l /
   62  man ls
   63  man useradd
   64  man who
   65  who
   66  who -all
   67  who -b
   68  who -d
   69  who -h
   70  who -l
   71  who -lookup
   72  who --lookup
   73  who -m
   74  who -p
   75  who -q
   76  who -r
   77  who -s
   78  who -t
   79  who -u
   80  who -massage
   81  who --massage
   82  who --message
   83  who -T
   84  uname -a
   85  uname -k
   86  uname -s
   87  uname -n
   88  uname -r
   89  uname -v
   90  uname -m
   91  uname -i
   92  uname -o
   93  id
   94  id -a
   95  id -Z
   96  id -g
   97  id -G
   98  id -n
   99  id -r
  100  id -u
  101  id -Z
  102  id -z
  103  hostname
  104  hostname -a
  105  hostname -A
  106  hostname -b
  107  hostname -d
  108  hostname -i
  109  hostname -s
  110  hostname 
  111  hostname -p
  112  finger 
  113  finger isx0276204
  114  date
  115  date -d
  116  date -f
  117  date -u
  118  cal
  119  cal -s
  120  cal -S
  121  cal -y
  122  cal -S
  123  cal -s
  124  cal 05-12-1992
  125  cal 05121992
  126  cal 1992
  127  cal 05 12 1992
  128  cal 24 11 1990
  129  poweroff
  130  python
  131  exit
  132  git
  133  pwd
  134  git clone https://github.com/tylingsoft/markdown-plus.git
  135  cd markdown-plus/
  136  firefox
  137  firefox index.html 
  138  cd
  139  if config
  140  ifconfig
  141  ip address
  142  ip a
  143  su -
  144  who
  145  su -
  146  exit
  147  man help
  148  man info
  149  man write
  150  man mesg
  151  man wall
  152  man talk
  153  man mail
  154  man dmesg
  155  man ps
  156  man pstree
  157  man date
  158  man cal
  159  who
  160  uname
  161  uname -a
  162  hostname
  163  date
  164  id
  165  id root
  166  id root guest
  167  id -g root
  168  id guest
  169  uptime
  170  w
  171  ps
  172  ps tty4
  173  ps -tty4
  174  ps -t4
  175  ps
  176  ps -t4
  177  cat /etc/shells 
  178  ps
  179  ps ax
  180  ps ax | wc -l
  181  ps ax | less
  182  ps ax | wc
  183  dmesg | less
  184  whereis ls
  185  ls -l /usr/bin/ls
  186  file /usr/bin/ls
  187  file /etc/fstab 
  188  whereis useradd
  189  file /usr/share/man/man8/useradd.8.gz 
  190  whereis useradd
  191  file /usr/share/man/man8/useradd.8.gz
  192  whereis fstab
  193  which ls
  194  help cd
  195  locate fstab
  196  locate gpm.sercive
  197  locate gpm.service
  198  locate gpm
  199  apropos ls
  200  cd /tmp/
  201  pwd
  202  mkdir prova
  203  ls
  204  cd prova/
  205  pwd
  206  vim hola.txt
  207  ls -l
  208  ps ax > procs.txt
  209  who > usuaris.txt
  210  ls
  211  cat usuaris.txt 
  212  exut
  213  exit
  214  cd /home/groups/inf/public/ASX/M01-Operatius/A01-01-general/
  215  cat 01-Exercici_M07UF1-NF01A01-01_ordres_generals.txt 
  216  cal 05-12-1992
  217  cal 05121992
  218  cal 05 12 1992
  219  cal 05 12 1992 | tr ' ' '\t'
  220  cal 05 12 1992 | tr ' ' '\t' | cut -d'\t' -f6
  221  cal 05 12 1992 | tr ' ' '\t' | cut -f6
  222  cal 05 12 1992 | tr ' ' '\t' | cut -f7
  223  whoami
  224  man who
  225  man uname
  226  man id
  227  man ps
  228  man dmesg
  229  man ls
  230  man cat 
  231  man scp
  232  whereis ls
  233  man whereis
  234  man apropos
  235  exit
  236  man watch
  237  su -
  238  ip a
  239  watch
  240  watch ip a
  241  su -
  242  cd markdown-plus/
  243  firefox
  244  firefox index.html 
  245  exit
  246  python
  247  exit
  248  su postgres
  249  exit
  250  cd /run/media/isx0276204/school_work/school_work01/sistemOperatius/exercise/
  251  su
  252  ls -la
  253  cd markdown-plus/
  254  ls ~
  255  ls -la ~
  256  ls -la /tmp
  257  ls -la /var/
  258  ls -la /var/tmp/
  259  ls -la /
  260  ls -la /boot/
  261  ls -la /
  262  ls -la /bin/
  263  ls -la
  264  ls -la /dev/
  265  ls -la /dev/sda
  266  find /var/tmp/ type -s
  267  find /var/tmp/ type -s -ls
  268  find /var/tmp/ type -S -ls
  269  find /var/tmp/ type -b -ls
  270  find /var/tmp/ -type -b -ls
  271  find /var/tmp/ -type b -ls
  272  find /var/tmp/ -type s -ls
  273  find /tmp/ -type s -ls
  274  find /tmp/ -type s -ls 2> /dev/null
  275  ls -la /tmp/
  276  cd /tmp/.X11-unix/
  277  ls -la
  278  cd /tmp/.XIM-unix/
  279  ls -la
  280  cd ..
  281  ls -la
  282  ls -la .X1024-lock 
  283  ls -la tracker-extract-files.202172/
  284  ls -la .Test-unix/
  285  ls -la systemd-private-a025051282774277bc5fc3a454c472c1-colord.service-U64jrp/
  286  cat krb5cc_202172_hDgA6J 
  287  cat krb5ccmachine_INFORMATICA.ESCOLADELTREBALL.ORG 
  288  ls -la .esd-202172/
  289  man authconfig-tui 
  290  cat /etc/fstab 
  291  su postgres
  292  su
  293  su -
  294  cd /tmp/
  295  mkdir -p mp1/calaix
  296  ls -la
  297  ls -la mp1/
  298  chmod 770 mp1/
  299  chmod 770 mp1/calaix/
  300  ls -la mp1/
  301  cat mp1/calaix/fit01
  302  cat > mp1/calaix/fit01
  303  cat > mp1/calaix/fit02
  304  chmod +r mp1/calaix/*
  305  ls -la mp1/calaix/
  306  chmod 444 mp1/calaix/*
  307  ls -la mp1/calaix/
  308  useradd -d /tmp/user1 -m user1
  309  chmod 755 mp1/
  310  chmod 774 mp1/calaix/
  311  ls -la mp1/
  312  chmod 771 mp1/calaix/
  313  ls -la mp1/
  314  chmod 775 mp1/calaix/
  315  ls -la mp1/
  316  write user1
  317  cd /tmp/mp1/
  318  chmod 772 mp1/calaix/
  319  cd ..
  320  chmod 772 mp1/calaix/
  321  ls -la mp1/
  322  chmod 776 mp1/calaix/
  323  ls -la mp1/
  324  pwd
  325  mkdir prova
  326  cd prova/
  327  ls -la
  328  mkdir calaix
  329  ls -la calaix/
  330  ls -ld calaix/
  331  chmod 770 calaix/
  332  ls -ld calaix/
  333  ls > calaix/fit1
  334  ls > calaix/fit2
  335  chmod 444 calaix/fit?
  336  ls -la calaix/
  337  chmod 774 calaix/
  338  chmod 771 calaix/
  339  ls -la calaix/
  340  chmod 775 calaix/
  341  ls -la calaix/
  342  chmod 772 calaix/
  343  chmod 773 calaix/
  344  ls -la calaix/
  345  cp calaix/fit3 fit5
  346  ls -la
  347  ls -la calaix/
  348  vim /run/media/isx0276204/school_work/school_work01/sistemOperatius/exercise/A01-03_permisos/
  349  vim /run/media/isx0276204/school_work/school_work01/sistemOperatius/exercise/A01-03_permisos/A01-03_permisos_exercicis_07.txt 
  350  echo 'SUBSYSTEM=="net", ACTION=="add", DRIVERS=="?*", ATTR{address}=="00:e0:4c:53:44:58", NAME="usb0"'
  351  echo 'SUBSYSTEM=="net", ACTION=="add", DRIVERS=="?*", ATTR{address}=="00:e0:4c:53:44:58", NAME="usb0"' >> /etc/udev/rules.d/70-persistent-net.rules 
  352  su
  353  lsusb
  354  ip a
  355  dmesg
  356  cd /etc/udev/rules.d/
  357  ls
  358  su -
  359  su
  360  ip a a 1.1.1.01/24 dev enp2s0
  361  ip link set dev enp2s0 down
  362  su -
  363  ip a
  364  echo "hola" > /dev/tty4
  365  echo "hola" > /dev/tty1
  366  echo "hola" > /dev/tty2
  367  echo "ls\n" > /dev/tty2
  368  write user1
  369  history
  370  date
  371  cd /tmp/
  372  mkdir prova
  373  cd prova/
  374  ls > carta.txt
  375  ls -la
  376  mv carta.txt carta01.txt 
  377  ls -la
  378  umask 644
  379  umask
  380  mkdir dir1
  381  ls > carta02.txt
  382  ls -la
  383  rmdir dir1
  384  rm carta02.txt
  385  ls -la
  386  umask 026
  387  umask
  388  ls > carta02.txt
  389  mkdir dir1
  390  ls -la
  391  umask 027
  392  umask
  393  mkdir dir2
  394  ls > carta03.txt
  395  ls -la
  396  umask 077
  397  umask
  398  ls > carta04.txt
  399  ls -la
  400  mkdir dir3
  401  ls -la
  402  ll /etc/passwd
  403  head /etc/passwd
  404  ll /etc/shadow
  405  cat /etc/shadow
  406  id
  407  man write
  408  cal
  409  umask
  410  man umas
  411  man umask
  412  finger
  413  history
  414  grep "^flags.(vmx/sum)' /proc/cpuinfo
  415  cat /proc/cpuinfo
  416  cat /proc/cpuinfo | grep "^flags.*"
  417  cat /proc/cpuinfo | grep "^flags?*"
  418  cat /proc/cpuinfo | grep "^flags.*vmx"
  419  cat /proc/cpuinfo | grep "^flags?*vmx"
  420  cat /proc/cpuinfo | grep "^flags?* vmx"
  421  cat /proc/cpuinfo | grep "^flags"
  422  cat /proc/cpuinfo | grep "^flags.*"
  423  cat /proc/cpuinfo | grep "^flags"
  424  cat /proc/cpuinfo | grep "^flags?*"
  425  cat /proc/cpuinfo | grep "^flags.* vmx"
  426  cat /proc/cpuinfo | grep "^flags.* (vmx|*)"
  427  cat /proc/cpuinfo | grep "^flags.* vmx"
  428  cat /proc/cpuinfo | grep "^flags.*vmx"
  429  cat /proc/cpuinfo
  430  ls /proc/cpu*
  431  cat /proc/consoles 
  432  ls /proc/sys/kernel/
  433  ls /proc/sys/kernel/hostname 
  434  ls -l /proc/sys/kernel/hostname 
  435  cat /proc/sys/kernel/hostname 
  436  ls -l /usr/bin/passwd
  437  whereis passwd
  438  path passwd
  439  su postgres
  440  cd /run/media/isx0276204/school_work/school_work01/programacio/examen/exam02/
  441  python rellotge.py 
  442  python equacions.py 
  443  python exercici_06.py 
  444  cd /tmp/
  445  mkdir prova
  446  cd prova/
  447  mkdir projects
  448  chmod 777 projects/
  449  date > projects/data.txt
  450  cal > projects/cal.txt
  451  ls -la
  452  ls -la projects/
  453  ls -la
  454  ls -la projects/
  455  chgrp infproject projects/
  456  ls -la
  457  chmod g+s projects/
  458  ls -la
  459  chmod 1777 projects/
  460  ls -la
  461  ls -la projects/
  462  rm projects/file01.txt 
  463  ls -la projects/
  464  rm projects/uptime.txt 
  465  rmdir projects/diruser1/
  466  git pull
  467  cd markdown-plus/
  468  ls -la
  469  git pull
  470  cd ..
  471  git clone git@gitlab.com:isx0276204/netswithlinux.git
  472  cat .ssh/known_hosts 
  473  git clone git@gitlab.com:isx0276204/netswithlinux.git
  474  su 
  475  ssh-keygen
  476  cat .ssh/id_rsa.pub 
  477  git clone git@gitlab.com:isx0276204/netswithlinux.git
  478  cd netswithlinux/
  479  ls
  480  ls exercises/
  481  git pull
  482  mkdir works
  483  cp exercises/01_* works/
  484  git add works
  485  git add works/*
  486  commit -am "done"
  487  git commit -am "done"
  488  git push
  489  git config --global user.email "parveenghangas72@gmail.com"
  490  git config --global user.name "isx0276204"
  491  git push
  492  python equacions.py 
  493  cd ..
  494  cd all_program/
  495  python segun_grado_soluction_exam.py 
  496  python
  497  cd netswithlinux/
  498  git pull
  499  ls
  500  ls works/
  501  cat works/01_subnetting.md 
  502  cd ..
  503  cd markdown-plus/
  504  firefox index.html 
  505  cd ..
  506  cd netswithlinux/
  507  ls
  508  git push origin origin/05_parveen 
  509  git push origin
  510  git push
  511  git branch
  512  git commit -am "subnetting done"
  513  git push
  514  git remote add upstream https://gitlab.com/beto/netswithlinux.git
  515  ls
  516  cd ..
  517  cat .ssh/id_rsa.pub 
  518  cd netswithlinux/
  519  git push
  520  cd works/
  521  ls
  522  ls -la
  523  git add .
  524  git push
  525  git remote -v
  526  cat ~/.ssh/id_rsa.pub 
  527  git push
  528  git config --global push.default simple
  529  git remote -v
  530  git push origin
  531  git pull
  532  rm -f ~/.ssh/id_rsa*
  533  rm -f ~/.ssh/id_rsa
  534  ssh-keygen 
  535  cat ~/.ssh/id_rsa.pub 
  536  git pull
  537  git remote -v
  538  git remote remove origin
  539  git remote add origin git@gitlab.com:isx0276204/netswithlinux.git
  540  git remote -v
  541  git pull
  542  sestatus 
  543  su -
  544  cd netswithlinux/
  545  git push
  546  git pull
  547  ls
  548  ls works/01_subnetting.md 
  549  cat works/01_subnetting.md 
  550  git pull
  551  git branch
  552  git pull origin 
  553  git pull upstream 
  554  git pull
  555  cd ..
  556  ls
  557  mv netswithlinux/ netswithlinux_old
  558  git clone git@gitlab.com:isx0276204/netswithlinux.git
  559  git branch
  560  cd netswithlinux
  561  git branch
  562  ls
  563  cp -a  ../netswithlinux_old/works ./
  564  ls -l works
  565  git add works/*
  566  git status
  567  git commit -am 'works añadido'
  568  git push
  569  find ./ |grep key
  570  find ./ |grep ssh
  571  ls -l .git/
  572  git branch --all
  573  git branch -u origin/patch-1
  574  git checkout  patch-1
  575  touch prova
  576  git add prova
  577  git commit -am 'prova
  578  '
  579  git push
  580  git checkout  master
  581  cat ~/.ssh/id_rsa.pub 
  582  git push
  583  git branch
  584  git push origin master
  585  man chmod
  586  cd /tmp/
  587  mkdir prova
  588  cd prva
  589  cd prova/
  590  ls
  591  ls -la
  592  ls -la > llistat.txt
  593  cat llistat.txt 
  594  ls -la /mama
  595  ls -la . /mama
  596  ls -la . /mama > llistat.txt 
  597  cat llistat.txt 
  598  ls .
  599  ls -l . /mama
  600  ls -la . /mama
  601  ls -la . /mama > llistat.txt
  602  ls -la . /mama 2> error.log
  603  cat error.log 
  604  ls -la . /mama 2> error.log & > ok.txt
  605  ls -la . /mama >llistat.txt 2> error.log 
  606  cat llistat.txt 
  607  ll /dev/std*
  608  file /dev/stderr 
  609  file /proc/self/fd/2
  610  file /proc/self/fd/1
  611  file /proc/self/fd/0
  612  ls . /mama &> sortida.txt
  613  cat sortida.txt 
  614  id pere
  615  id user1 > dades.txt 
  616  cat dades.txt 
  617  id guest >> dades.txt 
  618  cat dades.txt 
  619  rm dades.txt 
  620  id user1 > dades.txt
  621  id guest >> dades.txt
  622  cat dades.txt 
  623  echo -n "hola"
  624  < hello
  625  cat > noms.txt
  626  cat < noms.txt 
  627  sort < noms.txt 
  628  wc < noms.txt 
  629  grep "anna" < noms.txt 
  630  ls
  631  ls | sort
  632  ls | sort > dades.txt
  633  cat dades.txt 
  634  ls | sort | wc -w
  635  cat noms.txt 
  636  cat noms.txt | sort -r
  637  grep "SMTP" /etc/services 
  638  grep "smtp" /etc/services 
  639  grep "smtp" /etc/services | sort -r
  640  grep "smtp" /etc/services | sort -r > ports.txt
  641  cat dades.txt noms.txt 
  642  cat dades.txt - noms.txt 
  643  python calcular_base_in_decimal.py 
  644  python dia_in_mes.py 
  645  python date_valida.py 
  646  su postgres
  647  man ter
  648  man tar
  649  man chmod
  650  python date_valida.py 
  651  python ip_un_byte_binari_decimal.py 
  652  python ip_una_byte_binari_decimal.py 
  653  python ip_una_byte_binari_en_decimal.py 
  654  python triangulo_si_or_no.py 
  655  python cuadrado_de_primer_es_segundo.py 
  656  python number_de_medio_entre_tres_number.py 
  657  su postgres
  658  cd netswithlinux
  659  git pull
  660  ls
  661  ls works/01_subnetting.md 
  662  ls -la works/01_subnetting.md 
  663  netstat -tn
  664  netstat -tn | wc -l
  665  su -
  666  history > /run/media/isx0276204/school_work/school_work01/command/all_commad_05.txt
