    1  systemctl enable NetworkManager-wait-online.service 
    2  systemctl stop firewalld.service 
    3  systemctl disable firewalld.service 
    4  systemctl disable sshh.service
    5  systemctl disable sshd.service
    6  dnf -y install vim gvim mc
    7  setenforce 0
    8  vim /etc/selinux/config 
    9  dnf -y install krb5-devel krb5-workstation
   10  dnf -y install pam_mount
   11  authconfig-tui
   12  cd /tmp
   13  wget ftp://gandhi/pub/config.tgz
   14  tar -C / -xvzf config.tgz
   15  systemctl enable nfs-secure.service 
   16  systemctl restart nfs-secure.service
   17  vim /etc/fstab 
   18  mount -a
   19  cat /etc/dnf/dnf.conf 
   20  vim /etc/dnf/dnf.conf 
   21  echo 'exclude=kernel-4*' >> /etc/dnf/dnf.conf 
   22  reboot
   23  dnf -y install gpm
   24  systemctl enable gpm.service
   25  systemctl start gpm.service
   26  rpm -ivh http://download1.rpmfusion.org/free/fedora/rpmfusion-free-release-24.noarch.rpm
   27  rpm -ivh http://download1.rpmfusion.org/nonfree/fedora/rpmfusion-nonfree-release-24.noarch.rpm
   28  dnf -y install http://linuxdownload.adobe.com/adobe-release/adobe-release-x86_64-1.0-1.noarch.rpm
   29  rpm --import /etc/pki/rpm-gpg/RPM-GPG-KEY-adobe-linux
   30  dnf -y install flash-plugin
   31  dnf repolist
   32  exit
   33  mount | grep '/dev/sda5 on /'
   34  grub2-mkconfig -o /boot/grub2/grub.cfg 
   35  cp /boot/grub2/grub.cfg /boot/grub2/grub.backup
   36  grub2-install /dev/sda
   37  vim /boot/grub2/grub.cfg
   38  reboot
   39  vim /boot/grub2/grub.cfg
   40  reboot
   41  vim /boot/grub2/grub.cfg
   42  exit
   43  mount -a
   44  repolist
   45  rplist
   46  rmplist
   47  dnf repolist
   48  getenforce
   49  ping heroesnexus.com
   50  ping battle.net
   51  mount | grep '/dev/sda5 on /'
   52  ls /boot/grub2/grub.backup 
   53  cat /boot/grub2/grub.backup 
   54  vim /boot/grub2/grub.cfg
   55  reboot
   56  yum -y install postgresql-server
   57  rpm -qa | grep "postgres"
   58  postgresql-setup initdb
   59  systemctl start postgresql
   60  systemctl status postgresql
   61  systemctl enable postgresql
   62  systemctl list-unit-files | grep postgresql
   63  passwd postgres
   64  finger postgres
   65  exit
   66  cp /home/groups/inf/public/ASX/M02-Bases_de_dades/training/training.sql /tmp
   67  cp /home/groups/inf/public/ASX/M02-BaseDades/training/training.sql /tmp/
   68  CREATE DATABASE training;
   69  cp /home/groups/inf/public/ASX/M02-BaseDades/training/*.dat /tmp/
   70  ls /tmp/*.dat
   71  su postgres
   72  exit
   73  lll
   74  ll
   75  ls
   76  cd ~
   77  ls
   78  ls -la
   79  man cp
   80  man mv
   81  poweroff
   82  passwd isx0276204
   83  exit
   84  postgres
   85  supostgres
   86  su postgres
   87  exit
   88  firefox
   89  exit
   90  ip a s
   91  ip a a 192.168.100.1/24 dev enp2s0
   92  ip a s
   93  ping 192.168.100.2
   94  ip a a 192.168.100.1/24 dev enp2s0
   95  ip a a 192.168.100.101/24 dev enp2s0
   96  ip a s
   97  ping 192.168.100.102
   98  ping 192.168.100.103
   99  who
  100  exit
  101  who
  102  whoami
  103  who root
  104  cd /tmp/
  105  vim hola
  106  cat /etc/shells 
  107  exit
  108  yum -y install terminator
  109  exit
  110  ip link set enp2s0 down
  111  ip link set enp2s0 up
  112  ip link set enp2s0 down
  113  ip link set name piruleta dev  enp2s0
  114  ip link set name aula dev  piruleta
  115  ip link set aula up
  116  man vim
  117  man openldap
  118  man slaptest
  119  exit
  120  fdisk -l
  121  fdisk -l /dev/sdb1 
  122  df -h
  123  df -h /dev/sdb1
  124  df -h
  125  cd /home/groups/inf/hisx1/
  126  cd /home/groups/inf/hisx2
  127  cd /home/groups/inf/hisx2/
  128  cd
  129  cd /run/media/isx26067826/LINUX/clase_HISX2
  130  cp -rf /home/groups/inf/public/ASX/* .
  131  cd 
  132  cd /run/media/isx26067826/LINUX/
  133  ll
  134  cd fotos/
  135  ll
  136  ll h
  137  ll -h
  138  cd
  139  ll
  140  cd /run/media/isx26067826/LINUX/
  141  ll
  142  cd clase_HISX2/
  143  ll
  144  cd M06-ASO/
  145  ll
  146  cd documentacio/
  147  ll
  148  cat ZZZ_ftp_documentacio_linux.txt 
  149  cd ..
  150  ll
  151  cd M06UF1-NF1A01_Ldap/
  152  ll
  153  cat activitats_asix_m06_uf1_nf1_2015-2016.odt 
  154  ll
  155  cd 01-ldap_examples/
  156  ll
  157  cat organitzacio_edt.org.ldif 
  158  cat slapd-edt.org.conf 
  159  less slapd-edt.org.conf 
  160  date
  161  cd
  162  poweroff
  163  su postgres
  164  exit
  165  mount -a
  166  mount | sda5
  167  mount | grep sda5
  168  mount
  169  exit
  170  install git
  171  yum -y install git
  172  git clone https://github.com/tylingsoft/markdown-plus.git
  173  cd markdown-plus/
  174  firefox index.html 
  175  mount
  176  cat /etc/fstab 
  177  cat /etc/passwd
  178  reboot
  179  getent
  180  passwd guest
  181  cat /etc/selinux/
  182  cat /etc/selinux/config 
  183  dnf -y install  krb5-devel krb5-workstation pam_mount
  184  authconfig-tui 
  185  cd /tmp/
  186  ls
  187  ll
  188  wget ftp://gandhi/pub/config.tgz
  189   tar -C / -xvzf config.tgz
  190  systemctl enable nfs-secure.service
  191  systemctl restart nfs-secure.service
  192  systemctl status nfs-secure.service
  193  cat /etc/fstab 
  194  mount -a
  195  mount
  196  pwgen -1 | passwd --stdin guest
  197   dnf -y install pwgen
  198  dnf -y install gpm
  199  # systemctl enable gpm.service
  200   systemctl enable gpm.service
  201   systemctl start gpm.service
  202  yum repolist
  203  getenforce
  204   dnf repolist
  205   mount | grep gandhi
  206   mount | grep sda5
  207  reboot
  208  mount
  209  mount -a
  210  mount
  211  authconfig-tui 
  212  systemctl restart nfs-secure.service
  213  systemctl status nfs-secure.service
  214  poweroff 
  215  ip a
  216  date
  217  cat /etc/passwd
  218  cat /etc/fstab 
  219  vim /etc/fstab 
  220  passwd guest
  221  systemctl enable NetworkManager-wait-online.service
  222  systemctl stop firewalld.service
  223  systemctl disable firewalld.service
  224  systemctl disable sshd.service
  225  dnf -y install vim gvim mc
  226  setenforce 0
  227  cat /etc/selinux/config 
  228  dnf -y install  krb5-devel krb5-workstation pam_mount
  229  dnf -y reinstall  krb5-devel krb5-workstation pam_mount
  230  authconfig-tui 
  231  cd /tmp/
  232  ls
  233  rm krb5ccmachine_INFORMATICA.ESCOLADELTREBALL.ORG 
  234  # wget ftp://gandhi/pub/config.tgz
  235  tar -C / -xvzf config.tgz
  236  wget ftp://gandhi/pub/config.tgz
  237  tar -C / -xvzf config.tgz
  238  systemctl enable nfs-secure.service
  239  systemctl restart nfs-secure.service
  240  mount
  241  mount -a
  242  mount 
  243  cat /etc/dnf/dnf.conf 
  244  systemctl status nfs-secure.service
  245  journalctl -u nfs-secure
  246  systemctl restart nfs-secure.service
  247  systemctl status nfs-secure.service
  248  systemctl restart nfs-secure.service
  249  systemctl status nfs-secure.service
  250  journalctl -u nfs-secure
  251  su  - isx8312014
  252  date
  253  authconfig-tui 
  254  reboot
  255  ll
  256  cd ~isx26067826
  257  ll
  258  cd /home/
  259  ll
  260  cd users/
  261  ll
  262  cd inf/
  263  ll
  264  cd hisx2/
  265  ll
  266  cd isx26067826/
  267  ll
  268  cd isx26067826/
  269  ll
  270  man git
  271  mount
  272  cd /var/tmp/us/
  273  ll
  274  mount
  275  df -h
  276  cd /var/tmp/m01/
  277  ll
  278  cat carta2.txt 
  279  ps
  280  ls
  281  ls -l
  282  ls -la
  283  ls -a
  284  ll /
  285  ll
  286  ls -l /dev/char/
  287  ls -l /dev/k*
  288  ls -l /dev/console 
  289  ll /dev/tty
  290  ll /dev/tty*
  291  ll /dev/tty* | less
  292  ls /dev/tty* | less
  293  ls /dev/tty* 
  294  ls -l /dev/tty* 
  295  ls -l /dev/tty*  | less
  296  ls -l /dev/tty[1-10]
  297  ls -l /dev/tty[1..10]
  298  ls -l /dev/tty* | head -10
  299  ls -l /dev/tty{1..10
  300  ls -l /dev/tty{1..10}
  301  ls -l /tmp/ | grep "^"
  302  ls -l /tmp/ | grep "^$"
  303  pwd
  304  mkdir tururu
  305  ls
  306  ll
  307  ls -la tururu/
  308  rm -rf tururu/
  309  ll
  310  echo $?
  311  vim hola01.odt
  312  ll
  313  ls -l hola01.odt 
  314  file hola01.odt 
  315  hexdump -C hola01.odt 
  316  echo "hola MAMA"
  317  ll
  318  echo "hola MAMA" > hola02.odt
  319  ll
  320  ls -l hola*
  321  hexdump -C hola02.odt 
  322  man ascii
  323  echo "hola" > hola03.odt
  324  ls -l h*
  325  ps
  326  ps >hola04.odt
  327  cat hola04.odt 
  328  ll *.odt
  329  ll odt$
  330  ll $odt
  331  ll $.odt
  332  ll .odt$
  333  ll *.odt
  334  cat *.odt
  335  cat hola05.odt
  336  cat > hola05.odt
  337  cat hola05.odt 
  338  ll
  339  cat noms.pdf
  340  cat > noms.pdf
  341  cat noms.pdf 
  342  cat noms.pdf | wc -l
  343  cat noms.pdf | wc 
  344  cat noms.pdf | wc -l
  345  cat noms.pdf | wc -c
  346  cat noms.pdf | wc -a
  347  wc --help
  348  cat noms.pdf | wc -m
  349  cat noms.pdf | wc -c
  350  cat noms.pdf | wc -l
  351  cat noms.pdf | sort
  352  tree /
  353  tree -d /
  354  tree /
  355  passwd guest
  356  ll
  357  cd /home/groups/inf/hisx1/
  358  date
  359  su isx26067826
  360  uptime
  361  uname
  362  uname -a
  363  man uname
  364  uptime
  365  whereis apropos
  366  whereis which
  367  man whereis
  368  whereis whereis
  369  whereis cat
  370  whereis -s cat
  371  whereis -b cat
  372  whereis -m cat
  373  man wc
  374  ll
  375  nom | wc
  376  wc noms.pdf 
  377  cat carta2.txt 
  378  cat dades.pdf 
  379  cat nick
  380  cat > nick
  381  wc nick 
  382  wc -help
  383  wc --help
  384  wc -m n
  385  wc -m nick 
  386  wc nick 
  387  uptime
  388  poweroff
  389  mount
  390  mount  | egrep "sdb"
  391  mount  | egrep "sdc"
  392  mount  | egrep "s"
  393  mount  | egrep "sd"
  394  fdisk -l
  395  ls -li
  396  ls -la
  397  cd /var/tmp/m01/
  398  ll
  399  ls
  400  ll
  401  ls -la
  402  ll -a
  403  ls sda
  404  ls /dev/sda*
  405  ll /dev/sda*
  406  ll /dev/sda
  407  ll /dev/sd*
  408  mkdir /var/tmp/us
  409  mount /dev/sdb1 /var/tmp/us/
  410  character
  411  locate character
  412  cd /var/tmp/us/
  413  ll
  414  cd ..
  415  ll
  416  rm -rf us/
  417  ll
  418  cd
  419  date
  420  ll
  421  apropos
  422  man apropos
  423  apropos git
  424  apropos apropos
  425  apropos mkdir
  426  uptime
  427  man uptime
  428  uptime
  429  man uptime
  430  passwd isx26067826
  431  useradd isx26067826
  432  userdel isx26067826 
  433  su isx26067826
  434  man mkdir
  435  LL
  436  ll
  437  cd Desktop/
  438  ll
  439  cd ..
  440  ll
  441  mkdir Desktop/hola/mana
  442  mkdir -p Desktop/hola/mana
  443  ll
  444  tree Desktop/
  445  su postgres
  446  exit
  447  cp /home/groups/inf/public/ASX/M02-Bases_de_dades/training/training.sql /tmp;
  448  psql
  449  psql template1
  450  jupiter
  451  psql
  452  su
  453  su postgres
  454  su postgres
  455  cat /etc/fstab 
  456  ls -la
  457  ls -la .git
  458  git status
  459  git ls -la ~
  460  git ls -la $~
  461  ls -la /root/
  462  ls -la /root/.ssh/
  463  ls -la
  464  man git
  465  cd ~
  466  ls -la
  467  cd .ssh/
  468  ls -la
  469  cd
  470  man ssh
  471  ls -la
  472  cd markdown-plus/
  473  ls -la
  474  firefox index.html 
  475  exit
  476  cd /tmp/
  477  exit
  478  ls /home/groups/inf/hisx1/
  479  ls /tmp/prova/basket/carta[!a].txt
  480  ls /tmp/prova/basket/carta[a].txt
  481  cd /tmp/
  482  exit
  483  dmesg | less
  484  cat /etc/fstab 
  485  man ls
  486  ls
  487  ls --color=never
  488  ls -la
  489  ls -la --color=never
  490  man ls
  491  ls -la --color=never
  492  ls -la --color=never --color=auto
  493  ls -la --color=auto
  494  ls -a --color=auto
  495  ls -a 
  496  ps
  497  ps --color=auto
  498  man cat
  499  exit
  500  cd /run/media/root/school_work/school_work/M03-Programacio/all_program/
  501  python cambiar_segundo_en_hora_minto_segundo.py 
  502  python cambiar_euro_en_bitllets.py 
  503  python aplicar_13%_iva.py 
  504  python
  505  dnf -y install chromium
  506  ls 
  507  ls -ls
  508  cd markdown-plus/
  509  ls -la
  510  exit
  511  dnf -y install wireshark-gnome wireshark-cli
  512  dnf -y install git
  513  ls -ls
  514  git clone https://github.com/tylingsoft/markdown-plus.git
  515  ls -la
  516  git clone git@gitlab.com:beto/netswithlinux.git
  517  ls -la
  518  ip a 
  519  systemctl status
  520  systemctl status sshd.service 
  521  systemctl status nfs.service 
  522  systemctl start nfs.service 
  523  systemctl status nfs.service 
  524  mount
  525  mount -a
  526  cat /etc/fstab 
  527  systemctl status nfs
  528  systemctl status nfs.service 
  529  systemctl enable nfs.service 
  530  systemctl status nfs.service 
  531  exit
  532  su isx0276204
  533  ls -la
  534  su isx0276204
  535  su guest
  536  ls -la
  537  free
  538  free -h
  539  poweroff
  540  passwd guest
  541  dnf search iperf
  542  dnf -y install iperf iperf3
  543  iperf -c 192.168.0.19
  544  ping 192.168.0.19
  545  ip a a
  546  ip a 
  547  iperf -c 192.168.0.19
  548  cal
  549  ip a
  550  iperf -c 192.168.0.19
  551  iperf -c -t 200 192.168.0.19
  552  iperf -c -t200 192.168.0.19
  553  iperf -c 192.168.0.19 -t 200
  554  iperf -s 192.168.0.19 
  555  iperf -s 192.168.3.1 
  556  ssh 192.168.3.2
  557  iperf -c 10.1.1.115 -t 200
  558  locate .service
  559  locate .service | geap ss
  560  locate .service | grep ss
  561  systemctl status ssh.service
  562  systemctl start ssh.service
  563  systemctl status ssh.service
  564  systemctl status sshd.service
  565  systemctl start sshd.service
  566  systemctl status sshd.service
  567  ssh 192.168.3.2
  568  ls
  569  ssh 192.168.3.2
  570  systemctl stop ssh.service
  571  systemctl stop sshd.service
  572  systemctl status ssh.service
  573  dnf -y install shotter
  574  dnf -y install shutter
  575  systemctl status nfs4.service
  576  systemctl status nfs.service
  577  ssh 192.168.3.2
  578  systemctl status nfs.service
  579  systemctl status sshd.service
  580  systemctl status ftpd.service
  581  mv /run/media/root/school_work/school_work01/sistemOperatius/A01-03_permisos/ /run/media/root/school_work/school_work01/sistemOperatius/exercise/
  582  cd /run/media/root/school_work/school_work01/sistemOperatius/exercise/A01-03_permisos/
  583  vim A01-03_permisos_exercicis_07.txt 
  584  reboot
  585  man ssh
  586  journalctl -r
  587  authconfig-tui 
  588  cd /tmp/
  589  systemctl status  rpcbind.service 
  590  systemctl restart  rpcbind.service 
  591  journalctl -r
  592  startx 
  593  ssh root@j02
  594  systemctl  status NetworkManager-wait-online.service 
  595  systemctl  status firewalld.service 
  596  cat /etc/selinux/config 
  597  dnf -y install  krb5-devel krb5-workstation pam_mount
  598  wget ftp://gandhi/pub/config.tgz
  599  tar -C / -xvzf config.tgz
  600  mount
  601  umount /home/groups 
  602  mount
  603  tar -C / -xvzf config.tgz
  604  systemctl enable nfs-secure.service
  605  systemctl restart nfs-secure.service
  606  systemctl status nfs-secure.service
  607  cat /etc/fstab 
  608  authconfig-tui 
  609  journalctl -r 
  610  getent passwd ecanet
  611   getent group 200005
  612  mount -a
  613  mount
  614  getent passwd 
  615  getent groups
  616  getent group
  617  getent passwd ecanet
  618  authconfig-tui 
  619  cat /etc/openldap/ldap.conf 
  620  ldap -LLL -x -b'dc=edt,dc=org'
  621  ldapserach  -LLL -x -b'dc=edt,dc=org'
  622  ldapsearch  -LLL -x -b'dc=edt,dc=org'
  623  ping ldap
  624  yum install openldap-clients
  625  ldapserach  -LLL -x -b'dc=edt,dc=org'
  626  ldapsearch  -LLL -x -b'dc=edt,dc=org'
  627  ldapsearch  -LLL -xv -b 'dc=edt,dc=org'
  628  ldapsearch  -LLL -xv -b 'dc=escoladeltreball,dc=org'
  629  getent passwd ecanet
  630  getent groups
  631  getent group
  632  getent group hisx1
  633  systemctl status sssd
  634  systemctl start sssd
  635  systemctl status sssd
  636  getent group hisx1
  637  systemctl  enable sssd
  638  reboot
  639  history | tail
  640  history 
  641  history > /run/media/isx0276204/school_work/school_work01/command/ajuste_de_idap.txt
  642  cd ~
  643  dnf search geany
  644  dnf install geany-plugins-markdown.x86_64
  645  useradd -d /tmp/user1 -m user1
  646  passwd user1 
  647  chmod 777 /tmp/mp1/
  648  l s-la /tmp/
  649  ls -la /tmp/
  650  echo 'SUBSYSTEM=="net", ACTION=="add", DRIVERS=="?*", ATTR{address}=="00:e0:4c:53:44:58", RUN+="ip link" NAME="usb0"' >> /etc/udev/rules.d/70-persistent-net.rules 
  651  cat 70-persistent-net.rules 
  652  dmesg
  653  #ip link set dev usb0 address 00:11:22:33:44:01
  654  #ip link set usb0 down
  655  #ip a
  656  #ip a a
  657  ip a
  658  ip link set usb0 down
  659  ip a
  660  ip link set dev usb0 address 00:11:22:33:44:01
  661  ip a
  662  ip link set usb0 up
  663  ip a
  664  touch /etc/udev/rules.d/70-persistent-net.rules
  665  echo 'SUBSYSTEM=="net", ACTION=="add", DRIVERS=="?*", ATTR{address}=="00:e0:4c:53:44:58", RUN+="ip link set dev usb0 address 00:11:22:33:44:00" NAME="usb0"' > /etc/udev/rules.d/70-persistent-net.rulesq
  666  ip a
  667  echo 'SUBSYSTEM=="net", ACTION=="add", DRIVERS=="?*", ATTR{address}=="00:e0:4c:53:44:58", RUN+="ip link set usb0 down" RUN+="ip link set dev usb0 address 00:11:22:33:44:00" NAME="usb0" RUN+="ip link set usb0 up"' > /etc/udev/rules.d/70-persistent-net.rules
  668  ip a
  669  echo 'SUBSYSTEM=="net", ACTION=="add", DRIVERS=="?*", ATTR{address}=="00:e0:4c:53:44:58", RUN+="ip link set dev usb0 address 00:11:22:33:44:00" NAME="usb0"' > /etc/udev/rules.d/70-persistent-net.rules
  670  ip a
  671  ip link set usb0 down
  672  echo 'SUBSYSTEM=="net", ACTION=="add", DRIVERS=="?*", ATTR{address}=="00:e0:4c:53:44:58", RUN+="ip link set dev usb0 address 00:11:22:33:44:00" NAME="usb0"' > /etc/udev/rules.d/70-persistent-net.rules
  673  ip a
  674  ip link set usb0 up
  675  ip a
  676  touch 70-persistent-net.rules
  677  ls
  678  ls -la
  679  #echo 'SUBSYSTEM=="net",ACTION=="add",DRIVERS=="?*",ATTR{ADDRESS}==
  680  firefox beta.etherpad.org/p/udev
  681  ip link set dev enp2s0 down
  682  ip a a 1.1.1.01/24 dev enp2s0
  683  ip a 
  684  ip link set dev enp2s0 up
  685  ip a 
  686  systemctl stop NetworkManager
  687  ping -c 2 1.1.1.01
  688  ping -c 2 1.1.1.02
  689  ping -c 2 1.1.1.03
  690  ping -c 2 1.1.1.04
  691  ping -c 2 1.1.1.05
  692  ping -c 2 1.1.1.06
  693  ping -c 2 1.1.1.6
  694  ping -c 2 1.1.1.7
  695  ping -c 2 1.1.1.6
  696  ping -c 2 1.1.1.4
  697  ip a f dev enp2s0
  698  ip a 
  699  ip a a 1.1.1.01/16 dev enp2s0
  700  ip a 
  701  ping -c 2 1.1.2.8
  702  ping -c 2 1.1.2.7
  703  ip a f dev enp2s0
  704  ip a a 1.1.2.01/24 dev enp2s0
  705  ip a a 1.1.1.01/24 dev enp2s0
  706  ip a a 1.1.3.01/24 dev enp2s0
  707  ip a a 1.1.4.01/24 dev enp2s0
  708  ip a
  709  ping 1.1.1.23
  710  ping -c 2 1.1.1.23
  711  ping -c 2 1.1.1.100
  712  ping -c 2 1.1.2.100
  713  ping -c 2 1.1.2.02
  714  ping -c 2 1.1.4.02
  715  ping -c 2 1.1.4.06
  716  ip r
  717  ip a f dev enp2s0
  718  ip a a 1.1.1.01/24 dev enp2s0
  719  ip r a default via 1.1.0.254
  720  ip r
  721  ip r a default via 1.1.1.254
  722  ip r
  723  ping -c 2 1.1.1.02
  724  ping -c 2 1.1.1.03
  725  ping -c 2 1.1.1.04
  726  ip a
  727  ping -c 1.1.1.254
  728  ping -c 2 1.1.1.254
  729  ping -c 2 1.1.2.254
  730  ping -c 2 1.1.4.23
  731  ping -c 2 1.1.2.7
  732  ping -c 2 1.1.4.23
  733  ping 8.8.8.8
  734  head /etc/shadow
  735  id
  736  cd /usr/lib
  737  ll passwd
  738  cd /usr/bin
  739  ll passwd
  740  cp passwd hisix1
  741  ll
  742  ll hisix1
  743  mv hisix1 passwd
  744  ll hisix1 passwd
  745  mv passwd passwd.backup
  746  mv hisix1 passwd
  747  ll passwd*
  748  passwd user1
  749  mount
  750  chmod 4755 passwd
  751  ll passwd*
  752  ll | grep "rws"
  753  ll | grep "r-s"
  754  ll write
  755  write user1
  756  ll /dev/tty[0-6]
  757  ll write
  758  chmod 0755 write
  759  ll write
  760  write user1
  761  chmod 2755 write
  762  ll write
  763  history /dev/tty2
  764  history > /run/media/isx0276204/school_work/school_work01/command/all_comand03.txt 
