total 64
-rwxr-xr-x    1 eduard   profes
drwxrwxr-x   10   root     root
-rwxrwxr-x    1  julio   profes
brwxrwxr-x   11    nfs     root
-rwxrwxr-x    1   anna   profes
drwxrwxr-x  211 wida2x    wida2
-rwxrwxr-x   31 wida2x    wida2
srwxrwxr-x    1   root     root
-rwxrwxr-x    5 wida1x    wida1
-rwxrwxr-x    1    sys     root
srwxrwxr-x    9 eduard   profes
-rwxrwxr-x    1 wida1x    wida1
