
    1 eduard   profes       2144 ene 11 13:28 md5.bak
   10   root     root        915 feb 12 16:37 patro7
    1  julio   profes         75 ene 11 16:46 patro7bis
   11    nfs     root       3307 feb 28 17:09 patro8
    1   anna   profes        915 feb 11 17:15 patro8bis
  211 wida2x    wida2       5478 ene 21 17:43 patro9a
   31 wida2x    wida2         29 dic 31 17:58 patro9b
    1   root     root        210 ene 23 18:27 patro9bis
    5 wida1x    wida1         34 nov 12 18:07 patro9c
    1    sys     root       1734 ene  9 21:05 type3
    9 eduard   profes        143 dic  3 21:10 type4
    1 wida1x    wida1       2167 ene 11 12:33 type4bis
