Donat el text:
-------------------------------------------------
#hola
echo això és un text
print 'pop'             
echo això és un text                                                     
print 'pop'
        echo  és un text
        echo  és un text
        echo  és un text
        echo  és un text
        echo  és un text
print 'pop' 
print 'pop'         
print 'pop'
print 'pop'
print 'pop'
-------------------------------------------------
Marcar text:
v marcar un bloc de text a nivell de caràcter movent el cursor.
V marcar linies movent el cursor.
Ctrl+v marcar blocs de text en forma rectangular movent elcursor.
(sembla que marcar amb el ratolí no s'aplica)
-------------------------------------------------
Identar:
> identar a la dreta
< identar a l'esquerra
. per repetir la última identació feta
u per anul·lar la última acció feta.
-------------------------------------------------
Ordenar i processar línies:
un cop marcat un conjunt de línies visualment
: + ! + sort i s'ordenaran
: + ! + ordre i s'aplicarà
-------------------------------------------------

