primer dia del mes 1: diumenge
primer dia del mes 2: dimecres
primer dia del mes 3: dimecres
primer dia del mes 4: dissabte
primer dia del mes 5: dilluns
primer dia del mes 6: dijous
primer dia del mes 7: dissabte
primer dia del mes 8: dimarts
primer dia del mes 9: divendres
primer dia del mes 10: diumenge
primer dia del mes 11: dimecres
primer dia del mes 12: divendres
el mes 12 de  2017 té 5 caps de setmana
